{
  "layout": "18_14_3_100",
  "total_tiles": 100,
  "families": [
    {
      "pairs": 12,
      "types": null
    },
    {
      "pairs": 12,
      "types": null
    },
    {
      "pairs": 12,
      "types": null
    },
    {
      "pairs": 4,
      "types": null
    },
    {
      "pairs": 1,
      "types": null
    },
    {
      "pairs": 6,
      "types": null
    },
    {
      "pairs": 3,
      "types": null
    }
  ],
  "id": "PZLP",
  "time": 125,
  "tap": 400,
  "init": []
}