{
  "layout": "18_14_6_168",
  "total_tiles": 168,
  "families": [
    {
      "pairs": 21,
      "types": null
    },
    {
      "pairs": 21,
      "types": null
    },
    {
      "pairs": 21,
      "types": null
    },
    {
      "pairs": 4,
      "types": null
    },
    {
      "pairs": 5,
      "types": null
    },
    {
      "pairs": 6,
      "types": null
    },
    {
      "pairs": 6,
      "types": null
    }
  ],
  "id": "ENQX",
  "time": 235,
  "tap": 672,
  "init": []
}