{
  "layout": "14_14_6_160",
  "total_tiles": 160,
  "families": [
    {
      "pairs": 20,
      "types": null
    },
    {
      "pairs": 20,
      "types": null
    },
    {
      "pairs": 20,
      "types": null
    },
    {
      "pairs": 5,
      "types": null
    },
    {
      "pairs": 5,
      "types": null
    },
    {
      "pairs": 6,
      "types": null
    },
    {
      "pairs": 4,
      "types": null
    }
  ],
  "id": "UNIH",
  "time": 185,
  "tap": 640,
  "init": []
}