{
  "layout": "18_13_4_120",
  "total_tiles": 120,
  "families": [
    {
      "pairs": 15,
      "types": null
    },
    {
      "pairs": 15,
      "types": null
    },
    {
      "pairs": 15,
      "types": null
    },
    {
      "pairs": 4,
      "types": null
    },
    {
      "pairs": 3,
      "types": null
    },
    {
      "pairs": 4,
      "types": null
    },
    {
      "pairs": 4,
      "types": null
    }
  ],
  "id": "VHGK",
  "time": 130,
  "tap": 480,
  "init": []
}