{
  "layout": "10_14_6_128_r1",
  "total_tiles": 128,
  "families": [
    {
      "pairs": 16,
      "types": null
    },
    {
      "pairs": 16,
      "types": null
    },
    {
      "pairs": 16,
      "types": null
    },
    {
      "pairs": 4,
      "types": null
    },
    {
      "pairs": 5,
      "types": null
    },
    {
      "pairs": 2,
      "types": null
    },
    {
      "pairs": 5,
      "types": null
    }
  ],
  "id": "JTAJ",
  "time": 135,
  "tap": 512,
  "init": []
}