{
  "layout": "18_14_4_116",
  "total_tiles": 116,
  "families": [
    {
      "pairs": 14,
      "types": null
    },
    {
      "pairs": 14,
      "types": null
    },
    {
      "pairs": 14,
      "types": null
    },
    {
      "pairs": 3,
      "types": null
    },
    {
      "pairs": 6,
      "types": null
    },
    {
      "pairs": 5,
      "types": null
    },
    {
      "pairs": 2,
      "types": null
    }
  ],
  "id": "VZVB",
  "time": 140,
  "tap": 464,
  "init": []
}