{
  "layout": "10_14_5_88",
  "total_tiles": 88,
  "families": [
    {
      "pairs": 11,
      "types": null
    },
    {
      "pairs": 11,
      "types": null
    },
    {
      "pairs": 11,
      "types": null
    },
    {
      "pairs": 3,
      "types": null
    },
    {
      "pairs": 2,
      "types": null
    },
    {
      "pairs": 2,
      "types": null
    },
    {
      "pairs": 4,
      "types": null
    }
  ],
  "id": "WXAX",
  "time": 70,
  "tap": 352,
  "init": []
}