{
  "layout": "14_14_3_88",
  "total_tiles": 88,
  "families": [
    {
      "pairs": 11,
      "types": null
    },
    {
      "pairs": 11,
      "types": null
    },
    {
      "pairs": 11,
      "types": null
    },
    {
      "pairs": 4,
      "types": null
    },
    {
      "pairs": 3,
      "types": null
    },
    {
      "pairs": 1,
      "types": null
    },
    {
      "pairs": 3,
      "types": null
    }
  ],
  "id": "FBNY",
  "time": 75,
  "tap": 352,
  "init": []
}