{
  "layout": "11_14_4_92",
  "total_tiles": 92,
  "families": [
    {
      "pairs": 11,
      "types": null
    },
    {
      "pairs": 11,
      "types": null
    },
    {
      "pairs": 11,
      "types": null
    },
    {
      "pairs": 3,
      "types": null
    },
    {
      "pairs": 2,
      "types": null
    },
    {
      "pairs": 3,
      "types": null
    },
    {
      "pairs": 5,
      "types": null
    }
  ],
  "id": "CMJW",
  "time": 80,
  "tap": 368,
  "init": []
}