{
  "layout": "16_14_3_104",
  "total_tiles": 104,
  "families": [
    {
      "pairs": 13,
      "types": null
    },
    {
      "pairs": 13,
      "types": null
    },
    {
      "pairs": 13,
      "types": null
    },
    {
      "pairs": 3,
      "types": null
    },
    {
      "pairs": 4,
      "types": null
    },
    {
      "pairs": 2,
      "types": null
    },
    {
      "pairs": 4,
      "types": null
    }
  ],
  "id": "THBX",
  "time": 105,
  "tap": 416,
  "init": []
}