{
  "layout": "14_13_3_108",
  "total_tiles": 108,
  "families": [
    {
      "pairs": 13,
      "types": null
    },
    {
      "pairs": 13,
      "types": null
    },
    {
      "pairs": 13,
      "types": null
    },
    {
      "pairs": 4,
      "types": null
    },
    {
      "pairs": 3,
      "types": null
    },
    {
      "pairs": 3,
      "types": null
    },
    {
      "pairs": 5,
      "types": null
    }
  ],
  "id": "GOCC",
  "time": 100,
  "tap": 432,
  "init": []
}