{
  "layout": "10_14_3_100_r5",
  "total_tiles": 100,
  "families": [
    {
      "pairs": 12,
      "types": null
    },
    {
      "pairs": 12,
      "types": null
    },
    {
      "pairs": 12,
      "types": null
    },
    {
      "pairs": 5,
      "types": null
    },
    {
      "pairs": 3,
      "types": null
    },
    {
      "pairs": 3,
      "types": null
    },
    {
      "pairs": 3,
      "types": null
    }
  ],
  "id": "FENN",
  "time": 135,
  "tap": 400,
  "init": []
}