{
  "layout": "18_12_5_124",
  "total_tiles": 124,
  "families": [
    {
      "pairs": 15,
      "types": null
    },
    {
      "pairs": 15,
      "types": null
    },
    {
      "pairs": 15,
      "types": null
    },
    {
      "pairs": 6,
      "types": null
    },
    {
      "pairs": 3,
      "types": null
    },
    {
      "pairs": 5,
      "types": null
    },
    {
      "pairs": 3,
      "types": null
    }
  ],
  "id": "NEXW",
  "time": 115,
  "tap": 496,
  "init": []
}