{
  "layout": "18_14_3_84",
  "total_tiles": 84,
  "families": [
    {
      "pairs": 10,
      "types": null
    },
    {
      "pairs": 10,
      "types": null
    },
    {
      "pairs": 10,
      "types": null
    },
    {
      "pairs": 2,
      "types": null
    },
    {
      "pairs": 5,
      "types": null
    },
    {
      "pairs": 2,
      "types": null
    },
    {
      "pairs": 3,
      "types": null
    }
  ],
  "id": "TTRK",
  "time": 60,
  "tap": 336,
  "init": []
}