{
  "layout": "10_14_6_124",
  "total_tiles": 124,
  "families": [
    {
      "pairs": 15,
      "types": null
    },
    {
      "pairs": 15,
      "types": null
    },
    {
      "pairs": 15,
      "types": null
    },
    {
      "pairs": 2,
      "types": null
    },
    {
      "pairs": 5,
      "types": null
    },
    {
      "pairs": 5,
      "types": null
    },
    {
      "pairs": 5,
      "types": null
    }
  ],
  "id": "EEBH",
  "time": 125,
  "tap": 496,
  "init": []
}