{
  "layout": "18_6_3_56",
  "total_tiles": 56,
  "families": [
    {
      "pairs": 7,
      "types": null
    },
    {
      "pairs": 7,
      "types": null
    },
    {
      "pairs": 7,
      "types": null
    },
    {
      "pairs": 2,
      "types": null
    },
    {
      "pairs": 1,
      "types": null
    },
    {
      "pairs": 3,
      "types": null
    },
    {
      "pairs": 1,
      "types": null
    }
  ],
  "id": "LMBQ",
  "time": 35,
  "tap": 224,
  "init": []
}