{
  "layout": "10_14_7_96_r1",
  "total_tiles": 96,
  "families": [
    {
      "pairs": 12,
      "types": null
    },
    {
      "pairs": 12,
      "types": null
    },
    {
      "pairs": 12,
      "types": null
    },
    {
      "pairs": 4,
      "types": null
    },
    {
      "pairs": 4,
      "types": null
    },
    {
      "pairs": 2,
      "types": null
    },
    {
      "pairs": 2,
      "types": null
    }
  ],
  "id": "VEKA",
  "time": 80,
  "tap": 384,
  "init": []
}