{
  "layout": "10_14_2_92",
  "total_tiles": 92,
  "families": [
    {
      "pairs": 11,
      "types": null
    },
    {
      "pairs": 11,
      "types": null
    },
    {
      "pairs": 11,
      "types": null
    },
    {
      "pairs": 3,
      "types": null
    },
    {
      "pairs": 3,
      "types": null
    },
    {
      "pairs": 3,
      "types": null
    },
    {
      "pairs": 4,
      "types": null
    }
  ],
  "id": "ZINV",
  "time": 65,
  "tap": 368,
  "init": []
}