{
  "layout": "16_15_4_104",
  "total_tiles": 104,
  "families": [
    {
      "pairs": 10,
      "types": 4
    },
    {
      "pairs": 10,
      "types": 5
    },
    {
      "pairs": 5,
      "types": 2
    },
    {
      "pairs": 5,
      "types": 2
    },
    {
      "pairs": 10,
      "types": 4
    },
    {
      "pairs": 6,
      "types": 2
    },
    {
      "pairs": 6,
      "types": 3
    }
  ],
  "id": "9bit",
  "time": 115,
  "tap": 416,
  "init": []
}