{
  "layout": "16_10_7_132",
  "total_tiles": 132,
  "families": [
    {
      "pairs": 16,
      "types": null
    },
    {
      "pairs": 16,
      "types": null
    },
    {
      "pairs": 16,
      "types": null
    },
    {
      "pairs": 3,
      "types": null
    },
    {
      "pairs": 4,
      "types": null
    },
    {
      "pairs": 7,
      "types": null
    },
    {
      "pairs": 4,
      "types": null
    }
  ],
  "id": "IYAB",
  "time": 105,
  "tap": 528,
  "init": []
}