{
  "layout": "16_12_5_136",
  "total_tiles": 136,
  "families": [
    {
      "pairs": 17,
      "types": null
    },
    {
      "pairs": 17,
      "types": null
    },
    {
      "pairs": 17,
      "types": null
    },
    {
      "pairs": 3,
      "types": null
    },
    {
      "pairs": 4,
      "types": null
    },
    {
      "pairs": 5,
      "types": null
    },
    {
      "pairs": 5,
      "types": null
    }
  ],
  "id": "NBGV",
  "time": 110,
  "tap": 544,
  "init": []
}