{
  "layout": "10_14_3_100_r2",
  "total_tiles": 100,
  "families": [
    {
      "pairs": 12,
      "types": null
    },
    {
      "pairs": 12,
      "types": null
    },
    {
      "pairs": 12,
      "types": null
    },
    {
      "pairs": 6,
      "types": null
    },
    {
      "pairs": 2,
      "types": null
    },
    {
      "pairs": 3,
      "types": null
    },
    {
      "pairs": 3,
      "types": null
    }
  ],
  "id": "ABES",
  "time": 80,
  "tap": 400,
  "init": []
}