{
  "layout": "12_14_5_108",
  "total_tiles": 108,
  "families": [
    {
      "pairs": 13,
      "types": null
    },
    {
      "pairs": 13,
      "types": null
    },
    {
      "pairs": 13,
      "types": null
    },
    {
      "pairs": 2,
      "types": null
    },
    {
      "pairs": 4,
      "types": null
    },
    {
      "pairs": 6,
      "types": null
    },
    {
      "pairs": 3,
      "types": null
    }
  ],
  "id": "GSFY",
  "time": 80,
  "tap": 432,
  "init": []
}