{
  "layout": "10_14_4_92",
  "total_tiles": 92,
  "families": [
    {
      "pairs": 11,
      "types": null
    },
    {
      "pairs": 11,
      "types": null
    },
    {
      "pairs": 11,
      "types": null
    },
    {
      "pairs": 1,
      "types": null
    },
    {
      "pairs": 5,
      "types": null
    },
    {
      "pairs": 3,
      "types": null
    },
    {
      "pairs": 4,
      "types": null
    }
  ],
  "id": "SZGQ",
  "time": 70,
  "tap": 368,
  "init": []
}