{
  "layout": "24_16_3_120",
  "total_tiles": 120,
  "families": [
    {
      "pairs": 15,
      "types": null
    },
    {
      "pairs": 15,
      "types": null
    },
    {
      "pairs": 15,
      "types": null
    },
    {
      "pairs": 6,
      "types": null
    },
    {
      "pairs": 3,
      "types": null
    },
    {
      "pairs": 4,
      "types": null
    },
    {
      "pairs": 2,
      "types": null
    }
  ],
  "id": "EWEZ",
  "time": 105,
  "tap": 480,
  "init": []
}