{
  "layout": "14_10_7_128",
  "total_tiles": 128,
  "families": [
    {
      "pairs": 16,
      "types": null
    },
    {
      "pairs": 16,
      "types": null
    },
    {
      "pairs": 16,
      "types": null
    },
    {
      "pairs": 3,
      "types": null
    },
    {
      "pairs": 6,
      "types": null
    },
    {
      "pairs": 2,
      "types": null
    },
    {
      "pairs": 5,
      "types": null
    }
  ],
  "id": "LGXD",
  "time": 105,
  "tap": 512,
  "init": []
}