{
  "layout": "14_13_4_80",
  "total_tiles": 80,
  "families": [
    {
      "pairs": 10,
      "types": null
    },
    {
      "pairs": 10,
      "types": null
    },
    {
      "pairs": 10,
      "types": null
    },
    {
      "pairs": 1,
      "types": null
    },
    {
      "pairs": 2,
      "types": null
    },
    {
      "pairs": 4,
      "types": null
    },
    {
      "pairs": 3,
      "types": null
    }
  ],
  "id": "GZSB",
  "time": 50,
  "tap": 320,
  "init": []
}