{
  "layout": "18_10_6_136",
  "total_tiles": 136,
  "families": [
    {
      "pairs": 17,
      "types": null
    },
    {
      "pairs": 17,
      "types": null
    },
    {
      "pairs": 17,
      "types": null
    },
    {
      "pairs": 4,
      "types": null
    },
    {
      "pairs": 3,
      "types": null
    },
    {
      "pairs": 7,
      "types": null
    },
    {
      "pairs": 3,
      "types": null
    }
  ],
  "id": "NARG",
  "time": 115,
  "tap": 544,
  "init": []
}