{
  "layout": "18_8_6_136",
  "total_tiles": 136,
  "families": [
    {
      "pairs": 17,
      "types": null
    },
    {
      "pairs": 17,
      "types": null
    },
    {
      "pairs": 17,
      "types": null
    },
    {
      "pairs": 3,
      "types": null
    },
    {
      "pairs": 5,
      "types": null
    },
    {
      "pairs": 6,
      "types": null
    },
    {
      "pairs": 3,
      "types": null
    }
  ],
  "id": "AENZ",
  "time": 110,
  "tap": 544,
  "init": []
}