{
  "layout": "10_14_3_100_r18",
  "total_tiles": 100,
  "families": [
    {
      "pairs": 12,
      "types": null
    },
    {
      "pairs": 12,
      "types": null
    },
    {
      "pairs": 12,
      "types": null
    },
    {
      "pairs": 5,
      "types": null
    },
    {
      "pairs": 4,
      "types": null
    },
    {
      "pairs": 1,
      "types": null
    },
    {
      "pairs": 4,
      "types": null
    }
  ],
  "id": "JIRP",
  "time": 60,
  "tap": 400,
  "init": []
}