{
  "layout": "18_10_3_136",
  "total_tiles": 136,
  "families": [
    {
      "pairs": 17,
      "types": null
    },
    {
      "pairs": 17,
      "types": null
    },
    {
      "pairs": 17,
      "types": null
    },
    {
      "pairs": 4,
      "types": null
    },
    {
      "pairs": 5,
      "types": null
    },
    {
      "pairs": 4,
      "types": null
    },
    {
      "pairs": 4,
      "types": null
    }
  ],
  "id": "ACQN",
  "time": 100,
  "tap": 544,
  "init": []
}