{
  "layout": "14_14_5_104",
  "total_tiles": 104,
  "families": [
    {
      "pairs": 13,
      "types": null
    },
    {
      "pairs": 13,
      "types": null
    },
    {
      "pairs": 13,
      "types": null
    },
    {
      "pairs": 2,
      "types": null
    },
    {
      "pairs": 3,
      "types": null
    },
    {
      "pairs": 3,
      "types": null
    },
    {
      "pairs": 5,
      "types": null
    }
  ],
  "id": "ZFIL",
  "time": 75,
  "tap": 416,
  "init": []
}