{
  "layout": "12_14_3_100",
  "total_tiles": 100,
  "families": [
    {
      "pairs": 12,
      "types": null
    },
    {
      "pairs": 12,
      "types": null
    },
    {
      "pairs": 12,
      "types": null
    },
    {
      "pairs": 3,
      "types": null
    },
    {
      "pairs": 3,
      "types": null
    },
    {
      "pairs": 4,
      "types": null
    },
    {
      "pairs": 4,
      "types": null
    }
  ],
  "id": "JABN",
  "time": 70,
  "tap": 400,
  "init": []
}