{
  "layout": "14_10_6_128_r1",
  "total_tiles": 128,
  "families": [
    {
      "pairs": 16,
      "types": null
    },
    {
      "pairs": 16,
      "types": null
    },
    {
      "pairs": 16,
      "types": null
    },
    {
      "pairs": 4,
      "types": null
    },
    {
      "pairs": 4,
      "types": null
    },
    {
      "pairs": 5,
      "types": null
    },
    {
      "pairs": 3,
      "types": null
    }
  ],
  "id": "CGTS",
  "time": 80,
  "tap": 512,
  "init": []
}