{
  "layout": "14_12_6_168",
  "total_tiles": 168,
  "families": [
    {
      "pairs": 21,
      "types": null
    },
    {
      "pairs": 21,
      "types": null
    },
    {
      "pairs": 21,
      "types": null
    },
    {
      "pairs": 3,
      "types": null
    },
    {
      "pairs": 5,
      "types": null
    },
    {
      "pairs": 3,
      "types": null
    },
    {
      "pairs": 10,
      "types": null
    }
  ],
  "id": "MADM",
  "time": 140,
  "tap": 672,
  "init": []
}