{
  "layout": "10_14_5_120",
  "total_tiles": 120,
  "families": [
    {
      "pairs": 15,
      "types": null
    },
    {
      "pairs": 15,
      "types": null
    },
    {
      "pairs": 15,
      "types": null
    },
    {
      "pairs": 3,
      "types": null
    },
    {
      "pairs": 1,
      "types": null
    },
    {
      "pairs": 6,
      "types": null
    },
    {
      "pairs": 5,
      "types": null
    }
  ],
  "id": "NUFR",
  "time": 90,
  "tap": 480,
  "init": []
}