{
  "layout": "16_12_3_92",
  "total_tiles": 92,
  "families": [
    {
      "pairs": 11,
      "types": null
    },
    {
      "pairs": 11,
      "types": null
    },
    {
      "pairs": 11,
      "types": null
    },
    {
      "pairs": 3,
      "types": null
    },
    {
      "pairs": 2,
      "types": null
    },
    {
      "pairs": 2,
      "types": null
    },
    {
      "pairs": 6,
      "types": null
    }
  ],
  "id": "ej78",
  "time": 60,
  "tap": 368,
  "init": []
}