{
  "layout": "17_24_3_106",
  "total_tiles": 106,
  "families": [
    {
      "pairs": 13,
      "types": null
    },
    {
      "pairs": 13,
      "types": null
    },
    {
      "pairs": 13,
      "types": null
    },
    {
      "pairs": 4,
      "types": null
    },
    {
      "pairs": 2,
      "types": null
    },
    {
      "pairs": 2,
      "types": null
    },
    {
      "pairs": 6,
      "types": null
    }
  ],
  "id": "UUEA",
  "time": 70,
  "tap": 424,
  "init": []
}