{
  "layout": "16_23_2_140",
  "total_tiles": 140,
  "families": [
    {
      "pairs": 17,
      "types": null
    },
    {
      "pairs": 17,
      "types": null
    },
    {
      "pairs": 17,
      "types": null
    },
    {
      "pairs": 7,
      "types": null
    },
    {
      "pairs": 3,
      "types": null
    },
    {
      "pairs": 4,
      "types": null
    },
    {
      "pairs": 5,
      "types": null
    }
  ],
  "id": "ULVF",
  "time": 95,
  "tap": 560,
  "init": []
}