{
  "layout": "17_24_3_152",
  "total_tiles": 152,
  "families": [
    {
      "pairs": 19,
      "types": null
    },
    {
      "pairs": 19,
      "types": null
    },
    {
      "pairs": 19,
      "types": null
    },
    {
      "pairs": 2,
      "types": null
    },
    {
      "pairs": 10,
      "types": null
    },
    {
      "pairs": 3,
      "types": null
    },
    {
      "pairs": 4,
      "types": null
    }
  ],
  "id": "ENHH",
  "time": 120,
  "tap": 608,
  "init": []
}