{
  "layout": "15_22_5_138",
  "total_tiles": 138,
  "families": [
    {
      "pairs": 17,
      "types": null
    },
    {
      "pairs": 17,
      "types": null
    },
    {
      "pairs": 17,
      "types": null
    },
    {
      "pairs": 5,
      "types": null
    },
    {
      "pairs": 2,
      "types": null
    },
    {
      "pairs": 6,
      "types": null
    },
    {
      "pairs": 5,
      "types": null
    }
  ],
  "id": "STOM",
  "time": 124,
  "tap": 552,
  "init": []
}