{
  "layout": "16_22_4_136",
  "total_tiles": 136,
  "families": [
    {
      "pairs": 17,
      "types": null
    },
    {
      "pairs": 17,
      "types": null
    },
    {
      "pairs": 17,
      "types": null
    },
    {
      "pairs": 1,
      "types": null
    },
    {
      "pairs": 4,
      "types": null
    },
    {
      "pairs": 6,
      "types": null
    },
    {
      "pairs": 6,
      "types": null
    }
  ],
  "id": "YHUG",
  "time": 122,
  "tap": 544,
  "init": []
}