{
  "layout": "17_22_2_138_r1",
  "total_tiles": 138,
  "families": [
    {
      "pairs": 17,
      "types": null
    },
    {
      "pairs": 17,
      "types": null
    },
    {
      "pairs": 17,
      "types": null
    },
    {
      "pairs": 7,
      "types": null
    },
    {
      "pairs": 3,
      "types": null
    },
    {
      "pairs": 1,
      "types": null
    },
    {
      "pairs": 7,
      "types": null
    }
  ],
  "id": "CMAR",
  "time": 124,
  "tap": 552,
  "init": []
}