{
  "layout": "17_24_2_132",
  "total_tiles": 132,
  "families": [
    {
      "pairs": 16,
      "types": null
    },
    {
      "pairs": 16,
      "types": null
    },
    {
      "pairs": 16,
      "types": null
    },
    {
      "pairs": 7,
      "types": null
    },
    {
      "pairs": 5,
      "types": null
    },
    {
      "pairs": 4,
      "types": null
    },
    {
      "pairs": 2,
      "types": null
    }
  ],
  "id": "FOXY",
  "time": 119,
  "tap": 528,
  "init": []
}