{
  "layout": "17_21_3_138",
  "total_tiles": 138,
  "families": [
    {
      "pairs": 17,
      "types": null
    },
    {
      "pairs": 17,
      "types": null
    },
    {
      "pairs": 17,
      "types": null
    },
    {
      "pairs": 7,
      "types": null
    },
    {
      "pairs": 4,
      "types": null
    },
    {
      "pairs": 4,
      "types": null
    },
    {
      "pairs": 3,
      "types": null
    }
  ],
  "id": "NKLU",
  "time": 124,
  "tap": 552,
  "init": []
}