{
  "layout": "14_24_4_152",
  "total_tiles": 152,
  "families": [
    {
      "pairs": 19,
      "types": null
    },
    {
      "pairs": 19,
      "types": null
    },
    {
      "pairs": 19,
      "types": null
    },
    {
      "pairs": 4,
      "types": null
    },
    {
      "pairs": 4,
      "types": null
    },
    {
      "pairs": 6,
      "types": null
    },
    {
      "pairs": 5,
      "types": null
    }
  ],
  "id": "AJUT",
  "time": 137,
  "tap": 608,
  "init": []
}