{
  "layout": "15_22_3_132",
  "total_tiles": 132,
  "families": [
    {
      "pairs": 16,
      "types": null
    },
    {
      "pairs": 16,
      "types": null
    },
    {
      "pairs": 16,
      "types": null
    },
    {
      "pairs": 5,
      "types": null
    },
    {
      "pairs": 4,
      "types": null
    },
    {
      "pairs": 4,
      "types": null
    },
    {
      "pairs": 5,
      "types": null
    }
  ],
  "id": "WZFW",
  "time": 119,
  "tap": 528,
  "init": []
}