{
  "layout": "17_20_2_130",
  "total_tiles": 130,
  "families": [
    {
      "pairs": 16,
      "types": null
    },
    {
      "pairs": 16,
      "types": null
    },
    {
      "pairs": 16,
      "types": null
    },
    {
      "pairs": 3,
      "types": null
    },
    {
      "pairs": 3,
      "types": null
    },
    {
      "pairs": 7,
      "types": null
    },
    {
      "pairs": 4,
      "types": null
    }
  ],
  "id": "HEZU",
  "time": 117,
  "tap": 520,
  "init": []
}