{
  "layout": "15_26_2_130",
  "total_tiles": 130,
  "families": [
    {
      "pairs": 16,
      "types": null
    },
    {
      "pairs": 16,
      "types": null
    },
    {
      "pairs": 16,
      "types": null
    },
    {
      "pairs": 7,
      "types": null
    },
    {
      "pairs": 6,
      "types": null
    },
    {
      "pairs": 3,
      "types": null
    },
    {
      "pairs": 1,
      "types": null
    }
  ],
  "id": "CXST",
  "time": 117,
  "tap": 520,
  "init": []
}