{
  "layout": "16_10_6_136_r1",
  "total_tiles": 136,
  "families": [
    {
      "pairs": 17,
      "types": null
    },
    {
      "pairs": 17,
      "types": null
    },
    {
      "pairs": 17,
      "types": null
    },
    {
      "pairs": 5,
      "types": null
    },
    {
      "pairs": 3,
      "types": null
    },
    {
      "pairs": 5,
      "types": null
    },
    {
      "pairs": 4,
      "types": null
    }
  ],
  "id": "FYFA",
  "time": 170,
  "tap": 544,
  "init": []
}