{
  "layout": "15_24_2_134",
  "total_tiles": 134,
  "families": [
    {
      "pairs": 16,
      "types": null
    },
    {
      "pairs": 16,
      "types": null
    },
    {
      "pairs": 16,
      "types": null
    },
    {
      "pairs": 5,
      "types": null
    },
    {
      "pairs": 7,
      "types": null
    },
    {
      "pairs": 4,
      "types": null
    },
    {
      "pairs": 3,
      "types": null
    }
  ],
  "id": "EKXZ",
  "time": 121,
  "tap": 536,
  "init": []
}