{
  "layout": "15_19_3_156",
  "total_tiles": 156,
  "families": [
    {
      "pairs": 19,
      "types": null
    },
    {
      "pairs": 19,
      "types": null
    },
    {
      "pairs": 19,
      "types": null
    },
    {
      "pairs": 9,
      "types": null
    },
    {
      "pairs": 5,
      "types": null
    },
    {
      "pairs": 3,
      "types": null
    },
    {
      "pairs": 4,
      "types": null
    }
  ],
  "id": "PZRR",
  "time": 140,
  "tap": 624,
  "init": []
}