{
  "layout": "10_14_3_104_r13",
  "total_tiles": 104,
  "families": [
    {
      "pairs": 13,
      "types": null
    },
    {
      "pairs": 13,
      "types": null
    },
    {
      "pairs": 13,
      "types": null
    },
    {
      "pairs": 2,
      "types": null
    },
    {
      "pairs": 3,
      "types": null
    },
    {
      "pairs": 5,
      "types": null
    },
    {
      "pairs": 3,
      "types": null
    }
  ],
  "id": "RKCC",
  "time": 130,
  "tap": 416,
  "init": []
}