{
  "layout": "17_21_3_142_r1",
  "total_tiles": 142,
  "families": [
    {
      "pairs": 17,
      "types": null
    },
    {
      "pairs": 17,
      "types": null
    },
    {
      "pairs": 17,
      "types": null
    },
    {
      "pairs": 4,
      "types": null
    },
    {
      "pairs": 5,
      "types": null
    },
    {
      "pairs": 6,
      "types": null
    },
    {
      "pairs": 5,
      "types": null
    }
  ],
  "id": "OBFS",
  "time": 128,
  "tap": 568,
  "init": []
}