{
  "layout": "14_22_4_158_r1",
  "total_tiles": 158,
  "families": [
    {
      "pairs": 19,
      "types": null
    },
    {
      "pairs": 19,
      "types": null
    },
    {
      "pairs": 19,
      "types": null
    },
    {
      "pairs": 6,
      "types": null
    },
    {
      "pairs": 5,
      "types": null
    },
    {
      "pairs": 5,
      "types": null
    },
    {
      "pairs": 6,
      "types": null
    }
  ],
  "id": "VQVL",
  "time": 142,
  "tap": 632,
  "init": []
}