{
  "layout": "17_25_2_116_r1",
  "total_tiles": 116,
  "families": [
    {
      "pairs": 14,
      "types": null
    },
    {
      "pairs": 14,
      "types": null
    },
    {
      "pairs": 14,
      "types": null
    },
    {
      "pairs": 3,
      "types": null
    },
    {
      "pairs": 4,
      "types": null
    },
    {
      "pairs": 3,
      "types": null
    },
    {
      "pairs": 6,
      "types": null
    }
  ],
  "id": "XNOB",
  "time": 104,
  "tap": 464,
  "init": []
}