{
  "layout": "15_21_7_110",
  "total_tiles": 110,
  "families": [
    {
      "pairs": 13,
      "types": null
    },
    {
      "pairs": 13,
      "types": null
    },
    {
      "pairs": 13,
      "types": null
    },
    {
      "pairs": 2,
      "types": null
    },
    {
      "pairs": 4,
      "types": null
    },
    {
      "pairs": 3,
      "types": null
    },
    {
      "pairs": 7,
      "types": null
    }
  ],
  "id": "GNIO",
  "time": 105,
  "tap": 432,
  "init": []
}