{
  "layout": "12_27_3_148",
  "total_tiles": 148,
  "families": [
    {
      "pairs": 18,
      "types": null
    },
    {
      "pairs": 18,
      "types": null
    },
    {
      "pairs": 18,
      "types": null
    },
    {
      "pairs": 6,
      "types": null
    },
    {
      "pairs": 5,
      "types": null
    },
    {
      "pairs": 5,
      "types": null
    },
    {
      "pairs": 4,
      "types": null
    }
  ],
  "id": "AJXU",
  "time": 133,
  "tap": 592,
  "init": []
}