{
  "layout": "17_26_3_114",
  "total_tiles": 114,
  "families": [
    {
      "pairs": 14,
      "types": null
    },
    {
      "pairs": 14,
      "types": null
    },
    {
      "pairs": 14,
      "types": null
    },
    {
      "pairs": 5,
      "types": null
    },
    {
      "pairs": 2,
      "types": null
    },
    {
      "pairs": 4,
      "types": null
    },
    {
      "pairs": 4,
      "types": null
    }
  ],
  "id": "LBDW",
  "time": 103,
  "tap": 456,
  "init": []
}