{
  "layout": "17_21_2_148_r1",
  "total_tiles": 148,
  "families": [
    {
      "pairs": 18,
      "types": null
    },
    {
      "pairs": 18,
      "types": null
    },
    {
      "pairs": 18,
      "types": null
    },
    {
      "pairs": 5,
      "types": null
    },
    {
      "pairs": 7,
      "types": null
    },
    {
      "pairs": 1,
      "types": null
    },
    {
      "pairs": 7,
      "types": null
    }
  ],
  "id": "NEHP",
  "time": 133,
  "tap": 592,
  "init": []
}