{
  "layout": "14_14_4_164_r1",
  "total_tiles": 164,
  "families": [
    {
      "pairs": 20,
      "types": null
    },
    {
      "pairs": 20,
      "types": null
    },
    {
      "pairs": 20,
      "types": null
    },
    {
      "pairs": 6,
      "types": null
    },
    {
      "pairs": 11,
      "types": null
    },
    {
      "pairs": 1,
      "types": null
    },
    {
      "pairs": 4,
      "types": null
    }
  ],
  "id": "AMCQ",
  "time": 148,
  "tap": 656,
  "init": []
}