{
  "layout": "17_21_3_152_r1",
  "total_tiles": 152,
  "families": [
    {
      "pairs": 19,
      "types": null
    },
    {
      "pairs": 19,
      "types": null
    },
    {
      "pairs": 19,
      "types": null
    },
    {
      "pairs": 5,
      "types": null
    },
    {
      "pairs": 3,
      "types": null
    },
    {
      "pairs": 8,
      "types": null
    },
    {
      "pairs": 3,
      "types": null
    }
  ],
  "id": "LOFV",
  "time": 137,
  "tap": 608,
  "init": []
}