{
  "layout": "10_14_4_96_r12",
  "total_tiles": 96,
  "families": [
    {
      "pairs": 12,
      "types": null
    },
    {
      "pairs": 12,
      "types": null
    },
    {
      "pairs": 12,
      "types": null
    },
    {
      "pairs": 3,
      "types": null
    },
    {
      "pairs": 2,
      "types": null
    },
    {
      "pairs": 2,
      "types": null
    },
    {
      "pairs": 5,
      "types": null
    }
  ],
  "id": "VJCH",
  "time": 95,
  "tap": 384,
  "init": []
}