{
  "layout": "17_23_2_138_r1",
  "total_tiles": 138,
  "families": [
    {
      "pairs": 17,
      "types": null
    },
    {
      "pairs": 17,
      "types": null
    },
    {
      "pairs": 17,
      "types": null
    },
    {
      "pairs": 5,
      "types": null
    },
    {
      "pairs": 2,
      "types": null
    },
    {
      "pairs": 5,
      "types": null
    },
    {
      "pairs": 6,
      "types": null
    }
  ],
  "id": "SLWH",
  "time": 124,
  "tap": 552,
  "init": []
}