{
  "layout": "18_13_6_116",
  "total_tiles": 116,
  "families": [
    {
      "pairs": 14,
      "types": null
    },
    {
      "pairs": 14,
      "types": null
    },
    {
      "pairs": 14,
      "types": null
    },
    {
      "pairs": 4,
      "types": null
    },
    {
      "pairs": 3,
      "types": null
    },
    {
      "pairs": 3,
      "types": null
    },
    {
      "pairs": 6,
      "types": null
    }
  ],
  "id": "NPLU",
  "time": 130,
  "tap": 464,
  "init": []
}