{
  "layout": "10_14_4_92_r8",
  "total_tiles": 92,
  "families": [
    {
      "pairs": 11,
      "types": null
    },
    {
      "pairs": 11,
      "types": null
    },
    {
      "pairs": 11,
      "types": null
    },
    {
      "pairs": 4,
      "types": null
    },
    {
      "pairs": 3,
      "types": null
    },
    {
      "pairs": 3,
      "types": null
    },
    {
      "pairs": 3,
      "types": null
    }
  ],
  "id": "IEAS",
  "time": 100,
  "tap": 368,
  "init": []
}