{
  "199": {
    "time": 30
  },
  "198": {
    "time": 50
  },
  "344": {
    "time": 30
  },
  "345": {
    "time": 30
  },
  "346": {
    "time": 90
  },
  "347": {
    "time": 40
  },
  "340": {
    "time": 30
  },
  "341": {
    "time": 30
  },
  "342": {
    "time": 30
  },
  "343": {
    "time": 30
  },
  "348": {
    "time": 30
  },
  "349": {
    "time": 30
  },
  "version": 28,
  "298": {
    "time": 60
  },
  "299": {
    "time": 30
  },
  "296": {
    "time": 30
  },
  "297": {
    "time": 30
  },
  "294": {
    "time": 30
  },
  "295": {
    "time": 30
  },
  "292": {
    "time": 40
  },
  "293": {
    "time": 60
  },
  "291": {
    "time": 30
  },
  "591": {
    "time": 30
  },
  "590": {
    "time": 30
  },
  "592": {
    "time": 30
  },
  "595": {
    "time": 30
  },
  "594": {
    "time": 30
  },
  "597": {
    "time": 30
  },
  "596": {
    "time": 30
  },
  "195": {
    "time": 30
  },
  "194": {
    "time": 40
  },
  "197": {
    "time": 30
  },
  "196": {
    "time": 30
  },
  "191": {
    "time": 30
  },
  "190": {
    "time": 35
  },
  "192": {
    "time": 35
  },
  "270": {
    "time": 30
  },
  "271": {
    "time": 30
  },
  "272": {
    "time": 30
  },
  "273": {
    "time": 30
  },
  "274": {
    "time": 40
  },
  "275": {
    "time": 40
  },
  "276": {
    "time": 30
  },
  "277": {
    "time": 30
  },
  "278": {
    "time": 30
  },
  "279": {
    "time": 120
  },
  "524": {
    "time": 30
  },
  "525": {
    "time": 30
  },
  "526": {
    "time": 30
  },
  "527": {
    "time": 30
  },
  "520": {
    "time": 80
  },
  "521": {
    "time": 30
  },
  "522": {
    "time": 30
  },
  "523": {
    "time": 30
  },
  "528": {
    "time": 70
  },
  "529": {
    "time": 30
  },
  "449": {
    "time": 30
  },
  "448": {
    "time": 40
  },
  "443": {
    "time": 30
  },
  "442": {
    "time": 30
  },
  "441": {
    "time": 50
  },
  "440": {
    "time": 30
  },
  "447": {
    "time": 30
  },
  "446": {
    "time": 30
  },
  "445": {
    "time": 30
  },
  "444": {
    "time": 40
  },
  "108": {
    "time": 50
  },
  "109": {
    "time": 60
  },
  "102": {
    "time": 30
  },
  "103": {
    "time": 50
  },
  "100": {
    "time": 70
  },
  "101": {
    "time": 40
  },
  "106": {
    "time": 90
  },
  "107": {
    "time": 70
  },
  "104": {
    "time": 60
  },
  "105": {
    "time": 30
  },
  "39": {
    "time": 95
  },
  "38": {
    "time": 100
  },
  "33": {
    "time": 90
  },
  "32": {
    "time": 150
  },
  "31": {
    "time": 135
  },
  "30": {
    "time": 170
  },
  "37": {
    "time": 120
  },
  "36": {
    "time": 70
  },
  "438": {
    "time": 30
  },
  "439": {
    "time": 30
  },
  "436": {
    "time": 40
  },
  "437": {
    "time": 40
  },
  "434": {
    "time": 30
  },
  "435": {
    "time": 30
  },
  "432": {
    "time": 60
  },
  "433": {
    "time": 30
  },
  "430": {
    "time": 40
  },
  "431": {
    "time": 30
  },
  "339": {
    "time": 30
  },
  "338": {
    "time": 50
  },
  "335": {
    "time": 40
  },
  "334": {
    "time": 50
  },
  "337": {
    "time": 30
  },
  "336": {
    "time": 30
  },
  "331": {
    "time": 30
  },
  "330": {
    "time": 30
  },
  "333": {
    "time": 30
  },
  "332": {
    "time": 30
  },
  "6": {
    "time": 320
  },
  "99": {
    "time": 30
  },
  "98": {
    "time": 110
  },
  "91": {
    "time": 40
  },
  "90": {
    "time": 100
  },
  "93": {
    "time": 30
  },
  "92": {
    "time": 90
  },
  "95": {
    "time": 100
  },
  "94": {
    "time": 50
  },
  "97": {
    "time": 90
  },
  "96": {
    "time": 100
  },
  "559": {
    "time": 50
  },
  "558": {
    "time": 70
  },
  "555": {
    "time": 30
  },
  "554": {
    "time": 30
  },
  "557": {
    "time": 30
  },
  "556": {
    "time": 30
  },
  "551": {
    "time": 30
  },
  "550": {
    "time": 30
  },
  "553": {
    "time": 40
  },
  "552": {
    "time": 30
  },
  "238": {
    "time": 90
  },
  "239": {
    "time": 60
  },
  "235": {
    "time": 30
  },
  "236": {
    "time": 40
  },
  "237": {
    "time": 50
  },
  "230": {
    "time": 30
  },
  "231": {
    "time": 30
  },
  "232": {
    "time": 40
  },
  "233": {
    "time": 30
  },
  "146": {
    "time": 50
  },
  "147": {
    "time": 30
  },
  "144": {
    "time": 30
  },
  "145": {
    "time": 50
  },
  "142": {
    "time": 50
  },
  "143": {
    "time": 50
  },
  "140": {
    "time": 70
  },
  "141": {
    "time": 30
  },
  "148": {
    "time": 40
  },
  "149": {
    "time": 40
  },
  "133": {
    "time": 70
  },
  "132": {
    "time": 60
  },
  "131": {
    "time": 50
  },
  "130": {
    "time": 50
  },
  "137": {
    "time": 30
  },
  "136": {
    "time": 30
  },
  "135": {
    "time": 30
  },
  "134": {
    "time": 60
  },
  "494": {
    "time": 50
  },
  "495": {
    "time": 30
  },
  "496": {
    "time": 30
  },
  "497": {
    "time": 50
  },
  "490": {
    "time": 30
  },
  "491": {
    "time": 30
  },
  "492": {
    "time": 60
  },
  "493": {
    "time": 40
  },
  "27": {
    "time": 80
  },
  "20": {
    "time": 150
  },
  "21": {
    "time": 115
  },
  "22": {
    "time": 135
  },
  "23": {
    "time": 75
  },
  "28": {
    "time": 30
  },
  "29": {
    "time": 80
  },
  "407": {
    "time": 30
  },
  "406": {
    "time": 30
  },
  "405": {
    "time": 90
  },
  "404": {
    "time": 30
  },
  "403": {
    "time": 50
  },
  "402": {
    "time": 30
  },
  "401": {
    "time": 60
  },
  "400": {
    "time": 30
  },
  "409": {
    "time": 30
  },
  "408": {
    "time": 30
  },
  "379": {
    "time": 30
  },
  "378": {
    "time": 40
  },
  "371": {
    "time": 30
  },
  "370": {
    "time": 30
  },
  "373": {
    "time": 30
  },
  "372": {
    "time": 30
  },
  "375": {
    "time": 80
  },
  "374": {
    "time": 40
  },
  "377": {
    "time": 30
  },
  "376": {
    "time": 30
  },
  "393": {
    "time": 70
  },
  "392": {
    "time": 30
  },
  "391": {
    "time": 30
  },
  "390": {
    "time": 30
  },
  "397": {
    "time": 30
  },
  "396": {
    "time": 30
  },
  "395": {
    "time": 30
  },
  "394": {
    "time": 30
  },
  "82": {
    "time": 90
  },
  "83": {
    "time": 45
  },
  "399": {
    "time": 50
  },
  "398": {
    "time": 50
  },
  "86": {
    "time": 100
  },
  "87": {
    "time": 50
  },
  "84": {
    "time": 110
  },
  "85": {
    "time": 45
  },
  "7": {
    "time": 360
  },
  "586": {
    "time": 60
  },
  "587": {
    "time": 30
  },
  "584": {
    "time": 40
  },
  "585": {
    "time": 30
  },
  "582": {
    "time": 30
  },
  "583": {
    "time": 30
  },
  "580": {
    "time": 30
  },
  "581": {
    "time": 30
  },
  "588": {
    "time": 30
  },
  "589": {
    "time": 30
  },
  "245": {
    "time": 40
  },
  "244": {
    "time": 35
  },
  "247": {
    "time": 30
  },
  "246": {
    "time": 30
  },
  "241": {
    "time": 40
  },
  "240": {
    "time": 30
  },
  "243": {
    "time": 30
  },
  "242": {
    "time": 30
  },
  "249": {
    "time": 60
  },
  "248": {
    "time": 30
  },
  "519": {
    "time": 40
  },
  "518": {
    "time": 60
  },
  "511": {
    "time": 30
  },
  "510": {
    "time": 30
  },
  "513": {
    "time": 30
  },
  "512": {
    "time": 30
  },
  "515": {
    "time": 30
  },
  "514": {
    "time": 30
  },
  "517": {
    "time": 30
  },
  "516": {
    "time": 30
  },
  "458": {
    "time": 30
  },
  "459": {
    "time": 30
  },
  "450": {
    "time": 30
  },
  "451": {
    "time": 30
  },
  "452": {
    "time": 30
  },
  "453": {
    "time": 50
  },
  "454": {
    "time": 30
  },
  "455": {
    "time": 30
  },
  "456": {
    "time": 30
  },
  "457": {
    "time": 30
  },
  "179": {
    "time": 40
  },
  "178": {
    "time": 30
  },
  "177": {
    "time": 30
  },
  "176": {
    "time": 30
  },
  "175": {
    "time": 35
  },
  "174": {
    "time": 35
  },
  "173": {
    "time": 60
  },
  "172": {
    "time": 30
  },
  "171": {
    "time": 80
  },
  "170": {
    "time": 40
  },
  "183": {
    "time": 30
  },
  "182": {
    "time": 50
  },
  "599": {
    "time": 30
  },
  "180": {
    "time": 120
  },
  "2": {
    "time": 150
  },
  "186": {
    "time": 70
  },
  "187": {
    "time": 40
  },
  "184": {
    "time": 30
  },
  "185": {
    "time": 40
  },
  "188": {
    "time": 50
  },
  "11": {
    "time": 170
  },
  "10": {
    "time": 530
  },
  "15": {
    "time": 200
  },
  "19": {
    "time": 80
  },
  "18": {
    "time": 210
  },
  "322": {
    "time": 30
  },
  "323": {
    "time": 40
  },
  "320": {
    "time": 70
  },
  "321": {
    "time": 30
  },
  "326": {
    "time": 30
  },
  "327": {
    "time": 30
  },
  "324": {
    "time": 30
  },
  "325": {
    "time": 30
  },
  "328": {
    "time": 30
  },
  "329": {
    "time": 40
  },
  "201": {
    "time": 40
  },
  "200": {
    "time": 40
  },
  "203": {
    "time": 30
  },
  "202": {
    "time": 40
  },
  "205": {
    "time": 30
  },
  "204": {
    "time": 30
  },
  "207": {
    "time": 30
  },
  "206": {
    "time": 60
  },
  "209": {
    "time": 30
  },
  "208": {
    "time": 30
  },
  "77": {
    "time": 60
  },
  "76": {
    "time": 45
  },
  "75": {
    "time": 50
  },
  "74": {
    "time": 90
  },
  "73": {
    "time": 50
  },
  "72": {
    "time": 110
  },
  "71": {
    "time": 60
  },
  "70": {
    "time": 80
  },
  "79": {
    "time": 70
  },
  "78": {
    "time": 110
  },
  "542": {
    "time": 30
  },
  "543": {
    "time": 40
  },
  "540": {
    "time": 30
  },
  "541": {
    "time": 30
  },
  "546": {
    "time": 30
  },
  "547": {
    "time": 30
  },
  "544": {
    "time": 30
  },
  "545": {
    "time": 30
  },
  "8": {
    "time": 480
  },
  "548": {
    "time": 30
  },
  "549": {
    "time": 50
  },
  "120": {
    "time": 90
  },
  "121": {
    "time": 70
  },
  "122": {
    "time": 40
  },
  "123": {
    "time": 150
  },
  "124": {
    "time": 70
  },
  "125": {
    "time": 30
  },
  "126": {
    "time": 40
  },
  "128": {
    "time": 90
  },
  "129": {
    "time": 70
  },
  "414": {
    "time": 30
  },
  "415": {
    "time": 30
  },
  "416": {
    "time": 30
  },
  "417": {
    "time": 30
  },
  "410": {
    "time": 50
  },
  "411": {
    "time": 30
  },
  "412": {
    "time": 30
  },
  "413": {
    "time": 30
  },
  "498": {
    "time": 30
  },
  "418": {
    "time": 40
  },
  "419": {
    "time": 30
  },
  "499": {
    "time": 30
  },
  "319": {
    "time": 30
  },
  "318": {
    "time": 60
  },
  "313": {
    "time": 30
  },
  "312": {
    "time": 30
  },
  "311": {
    "time": 40
  },
  "310": {
    "time": 50
  },
  "316": {
    "time": 30
  },
  "315": {
    "time": 30
  },
  "314": {
    "time": 40
  },
  "368": {
    "time": 50
  },
  "369": {
    "time": 40
  },
  "366": {
    "time": 50
  },
  "367": {
    "time": 30
  },
  "364": {
    "time": 40
  },
  "365": {
    "time": 30
  },
  "362": {
    "time": 40
  },
  "363": {
    "time": 30
  },
  "360": {
    "time": 40
  },
  "361": {
    "time": 30
  },
  "380": {
    "time": 50
  },
  "381": {
    "time": 30
  },
  "382": {
    "time": 30
  },
  "383": {
    "time": 30
  },
  "384": {
    "time": 30
  },
  "385": {
    "time": 30
  },
  "386": {
    "time": 30
  },
  "387": {
    "time": 50
  },
  "388": {
    "time": 30
  },
  "389": {
    "time": 40
  },
  "579": {
    "time": 40
  },
  "578": {
    "time": 30
  },
  "573": {
    "time": 30
  },
  "572": {
    "time": 30
  },
  "571": {
    "time": 30
  },
  "570": {
    "time": 90
  },
  "577": {
    "time": 30
  },
  "576": {
    "time": 30
  },
  "575": {
    "time": 30
  },
  "574": {
    "time": 30
  },
  "60": {
    "time": 90
  },
  "61": {
    "time": 70
  },
  "62": {
    "time": 70
  },
  "63": {
    "time": 110
  },
  "64": {
    "time": 40
  },
  "65": {
    "time": 90
  },
  "66": {
    "time": 50
  },
  "67": {
    "time": 70
  },
  "68": {
    "time": 70
  },
  "69": {
    "time": 130
  },
  "250": {
    "time": 30
  },
  "251": {
    "time": 50
  },
  "256": {
    "time": 30
  },
  "257": {
    "time": 30
  },
  "254": {
    "time": 30
  },
  "154": {
    "time": 50
  },
  "508": {
    "time": 30
  },
  "509": {
    "time": 30
  },
  "506": {
    "time": 60
  },
  "507": {
    "time": 30
  },
  "504": {
    "time": 40
  },
  "505": {
    "time": 30
  },
  "502": {
    "time": 30
  },
  "503": {
    "time": 50
  },
  "500": {
    "time": 30
  },
  "501": {
    "time": 30
  },
  "469": {
    "time": 30
  },
  "468": {
    "time": 30
  },
  "465": {
    "time": 30
  },
  "464": {
    "time": 30
  },
  "466": {
    "time": 30
  },
  "461": {
    "time": 30
  },
  "460": {
    "time": 30
  },
  "463": {
    "time": 30
  },
  "462": {
    "time": 30
  },
  "168": {
    "time": 70
  },
  "169": {
    "time": 70
  },
  "164": {
    "time": 90
  },
  "165": {
    "time": 30
  },
  "167": {
    "time": 30
  },
  "160": {
    "time": 35
  },
  "161": {
    "time": 70
  },
  "162": {
    "time": 30
  },
  "9": {
    "time": 420
  },
  "357": {
    "time": 40
  },
  "356": {
    "time": 40
  },
  "355": {
    "time": 30
  },
  "353": {
    "time": 50
  },
  "352": {
    "time": 30
  },
  "351": {
    "time": 30
  },
  "350": {
    "time": 30
  },
  "359": {
    "time": 30
  },
  "358": {
    "time": 30
  },
  "216": {
    "time": 40
  },
  "217": {
    "time": 30
  },
  "214": {
    "time": 80
  },
  "215": {
    "time": 30
  },
  "212": {
    "time": 30
  },
  "213": {
    "time": 30
  },
  "210": {
    "time": 30
  },
  "211": {
    "time": 40
  },
  "218": {
    "time": 50
  },
  "219": {
    "time": 30
  },
  "289": {
    "time": 30
  },
  "288": {
    "time": 40
  },
  "4": {
    "time": 350
  },
  "281": {
    "time": 30
  },
  "280": {
    "time": 30
  },
  "283": {
    "time": 30
  },
  "282": {
    "time": 30
  },
  "285": {
    "time": 30
  },
  "284": {
    "time": 40
  },
  "287": {
    "time": 40
  },
  "286": {
    "time": 70
  },
  "263": {
    "time": 35
  },
  "262": {
    "time": 30
  },
  "261": {
    "time": 50
  },
  "267": {
    "time": 30
  },
  "265": {
    "time": 30
  },
  "264": {
    "time": 30
  },
  "269": {
    "time": 50
  },
  "268": {
    "time": 30
  },
  "59": {
    "time": 130
  },
  "58": {
    "time": 90
  },
  "55": {
    "time": 150
  },
  "54": {
    "time": 70
  },
  "57": {
    "time": 65
  },
  "56": {
    "time": 40
  },
  "258": {
    "time": 80
  },
  "53": {
    "time": 90
  },
  "52": {
    "time": 50
  },
  "537": {
    "time": 30
  },
  "536": {
    "time": 30
  },
  "535": {
    "time": 90
  },
  "259": {
    "time": 30
  },
  "533": {
    "time": 30
  },
  "532": {
    "time": 30
  },
  "531": {
    "time": 30
  },
  "530": {
    "time": 40
  },
  "539": {
    "time": 30
  },
  "538": {
    "time": 30
  },
  "50": {
    "time": 90
  },
  "115": {
    "time": 50
  },
  "252": {
    "time": 30
  },
  "117": {
    "time": 50
  },
  "116": {
    "time": 30
  },
  "111": {
    "time": 80
  },
  "110": {
    "time": 80
  },
  "113": {
    "time": 50
  },
  "253": {
    "time": 30
  },
  "119": {
    "time": 40
  },
  "118": {
    "time": 30
  },
  "429": {
    "time": 30
  },
  "428": {
    "time": 30
  },
  "534": {
    "time": 30
  },
  "421": {
    "time": 30
  },
  "420": {
    "time": 30
  },
  "423": {
    "time": 30
  },
  "422": {
    "time": 30
  },
  "425": {
    "time": 30
  },
  "424": {
    "time": 40
  },
  "427": {
    "time": 40
  },
  "426": {
    "time": 60
  },
  "308": {
    "time": 50
  },
  "309": {
    "time": 30
  },
  "300": {
    "time": 60
  },
  "301": {
    "time": 40
  },
  "302": {
    "time": 50
  },
  "303": {
    "time": 40
  },
  "305": {
    "time": 30
  },
  "306": {
    "time": 40
  },
  "307": {
    "time": 30
  },
  "568": {
    "time": 30
  },
  "569": {
    "time": 30
  },
  "560": {
    "time": 30
  },
  "561": {
    "time": 60
  },
  "563": {
    "time": 70
  },
  "564": {
    "time": 30
  },
  "565": {
    "time": 80
  },
  "566": {
    "time": 30
  },
  "567": {
    "time": 30
  },
  "229": {
    "time": 30
  },
  "228": {
    "time": 30
  },
  "227": {
    "time": 30
  },
  "225": {
    "time": 30
  },
  "224": {
    "time": 60
  },
  "223": {
    "time": 105
  },
  "222": {
    "time": 30
  },
  "221": {
    "time": 30
  },
  "220": {
    "time": 30
  },
  "app_version": "0.4.1",
  "114": {
    "time": 50
  },
  "88": {
    "time": 30
  },
  "89": {
    "time": 50
  },
  "151": {
    "time": 30
  },
  "150": {
    "time": 30
  },
  "153": {
    "time": 40
  },
  "152": {
    "time": 40
  },
  "155": {
    "time": 80
  },
  "600": {
    "time": 30
  },
  "80": {
    "time": 40
  },
  "81": {
    "time": 30
  },
  "48": {
    "time": 85
  },
  "46": {
    "time": 50
  },
  "47": {
    "time": 100
  },
  "44": {
    "time": 120
  },
  "42": {
    "time": 120
  },
  "41": {
    "time": 90
  },
  "5": {
    "time": 230
  },
  "489": {
    "time": 30
  },
  "488": {
    "time": 30
  },
  "487": {
    "time": 30
  },
  "486": {
    "time": 30
  },
  "485": {
    "time": 30
  },
  "484": {
    "time": 30
  },
  "483": {
    "time": 80
  },
  "482": {
    "time": 30
  },
  "481": {
    "time": 50
  },
  "480": {
    "time": 30
  },
  "472": {
    "time": 30
  },
  "473": {
    "time": 30
  },
  "470": {
    "time": 30
  },
  "471": {
    "time": 30
  },
  "476": {
    "time": 30
  },
  "477": {
    "time": 60
  },
  "474": {
    "time": 30
  },
  "475": {
    "time": 40
  },
  "478": {
    "time": 30
  },
  "479": {
    "time": 30
  }
}