{
  "198": {
    "time": 110
  },
  "344": {
    "time": 80
  },
  "347": {
    "time": 135
  },
  "341": {
    "time": 125
  },
  "342": {
    "time": 35
  },
  "348": {
    "time": 55
  },
  "619": {
    "time": 95
  },
  "299": {
    "time": 55
  },
  "294": {
    "time": 70
  },
  "295": {
    "time": 60
  },
  "292": {
    "time": 115
  },
  "293": {
    "time": 145
  },
  "290": {
    "time": 85
  },
  "291": {
    "time": 95
  },
  "591": {
    "time": 60
  },
  "593": {
    "time": 55
  },
  "592": {
    "time": 65
  },
  "595": {
    "time": 70
  },
  "594": {
    "time": 70
  },
  "597": {
    "time": 70
  },
  "596": {
    "time": 60
  },
  "599": {
    "time": 120
  },
  "598": {
    "time": 60
  },
  "197": {
    "time": 55
  },
  "190": {
    "time": 85
  },
  "270": {
    "time": 85
  },
  "271": {
    "time": 70
  },
  "274": {
    "time": 80
  },
  "275": {
    "time": 110
  },
  "277": {
    "time": 65
  },
  "278": {
    "time": 95
  },
  "279": {
    "time": 195
  },
  "524": {
    "time": 65
  },
  "525": {
    "time": 125
  },
  "526": {
    "time": 65
  },
  "527": {
    "time": 90
  },
  "520": {
    "time": 135
  },
  "521": {
    "time": 55
  },
  "522": {
    "time": 75
  },
  "523": {
    "time": 80
  },
  "528": {
    "time": 110
  },
  "529": {
    "time": 65
  },
  "449": {
    "time": 80
  },
  "448": {
    "time": 90
  },
  "442": {
    "time": 95
  },
  "441": {
    "time": 90
  },
  "440": {
    "time": 35
  },
  "446": {
    "time": 45
  },
  "445": {
    "time": 130
  },
  "444": {
    "time": 90
  },
  "108": {
    "time": 120
  },
  "109": {
    "time": 105
  },
  "102": {
    "time": 70
  },
  "103": {
    "time": 120
  },
  "100": {
    "time": 125
  },
  "106": {
    "time": 190
  },
  "39": {
    "time": 150
  },
  "38": {
    "time": 155
  },
  "33": {
    "time": 150
  },
  "32": {
    "time": 230
  },
  "31": {
    "time": 190
  },
  "30": {
    "time": 225
  },
  "37": {
    "time": 180
  },
  "36": {
    "time": 135
  },
  "34": {
    "time": 205
  },
  "641": {
    "time": 95
  },
  "640": {
    "time": 100
  },
  "643": {
    "time": 115
  },
  "642": {
    "time": 100
  },
  "645": {
    "time": 115
  },
  "644": {
    "time": 115
  },
  "438": {
    "time": 90
  },
  "439": {
    "time": 125
  },
  "436": {
    "time": 80
  },
  "648": {
    "time": 105
  },
  "434": {
    "time": 60
  },
  "435": {
    "time": 60
  },
  "432": {
    "time": 120
  },
  "430": {
    "time": 80
  },
  "431": {
    "time": 95
  },
  "339": {
    "time": 95
  },
  "338": {
    "time": 95
  },
  "335": {
    "time": 135
  },
  "334": {
    "time": 100
  },
  "337": {
    "time": 30
  },
  "336": {
    "time": 40
  },
  "330": {
    "time": 65
  },
  "6": {
    "tap": 304
  },
  "91": {
    "time": 100
  },
  "90": {
    "time": 175
  },
  "93": {
    "time": 95
  },
  "92": {
    "time": 195
  },
  "95": {
    "time": 180
  },
  "94": {
    "time": 125
  },
  "97": {
    "time": 195
  },
  "96": {
    "time": 205
  },
  "559": {
    "time": 145
  },
  "558": {
    "time": 125
  },
  "555": {
    "time": 115
  },
  "554": {
    "time": 60
  },
  "556": {
    "time": 75
  },
  "551": {
    "time": 65
  },
  "550": {
    "time": 85
  },
  "553": {
    "time": 75
  },
  "238": {
    "time": 185
  },
  "235": {
    "time": 60
  },
  "237": {
    "time": 105
  },
  "230": {
    "time": 85
  },
  "231": {
    "time": 90
  },
  "232": {
    "time": 115
  },
  "233": {
    "time": 80
  },
  "155": {
    "time": 200
  },
  "618": {
    "time": 120
  },
  "145": {
    "time": 100
  },
  "140": {
    "time": 205
  },
  "612": {
    "time": 70
  },
  "613": {
    "time": 75
  },
  "611": {
    "time": 70
  },
  "616": {
    "time": 75
  },
  "617": {
    "time": 80
  },
  "614": {
    "time": 85
  },
  "615": {
    "time": 90
  },
  "623": {
    "time": 100
  },
  "137": {
    "time": 95
  },
  "135": {
    "time": 80
  },
  "134": {
    "time": 165
  },
  "494": {
    "time": 150
  },
  "495": {
    "time": 60
  },
  "139": {
    "time": 85
  },
  "138": {
    "time": 130
  },
  "491": {
    "time": 65
  },
  "492": {
    "time": 105
  },
  "493": {
    "time": 100
  },
  "24": {
    "time": 75
  },
  "25": {
    "time": 130
  },
  "26": {
    "time": 210
  },
  "27": {
    "time": 130
  },
  "20": {
    "time": 200
  },
  "21": {
    "time": 155
  },
  "22": {
    "tap": 255,
    "time": 170
  },
  "23": {
    "tap": 255,
    "time": 115
  },
  "28": {
    "time": 65
  },
  "29": {
    "time": 135
  },
  "407": {
    "time": 60
  },
  "405": {
    "time": 155
  },
  "404": {
    "time": 65
  },
  "403": {
    "time": 105
  },
  "version": 37,
  "400": {
    "time": 70
  },
  "629": {
    "time": 85
  },
  "409": {
    "time": 70
  },
  "628": {
    "time": 100
  },
  "370": {
    "time": 95
  },
  "373": {
    "time": 65
  },
  "375": {
    "time": 155
  },
  "376": {
    "time": 105
  },
  "393": {
    "time": 145
  },
  "392": {
    "time": 85
  },
  "391": {
    "time": 110
  },
  "390": {
    "time": 80
  },
  "82": {
    "time": 165
  },
  "399": {
    "time": 155
  },
  "398": {
    "time": 95
  },
  "87": {
    "time": 130
  },
  "84": {
    "time": 185
  },
  "85": {
    "time": 95
  },
  "7": {
    "tap": 218
  },
  "586": {
    "time": 100
  },
  "587": {
    "time": 110
  },
  "584": {
    "time": 80
  },
  "585": {
    "time": 65
  },
  "582": {
    "time": 75
  },
  "583": {
    "time": 70
  },
  "580": {
    "time": 65
  },
  "581": {
    "time": 65
  },
  "589": {
    "time": 65
  },
  "245": {
    "time": 85
  },
  "244": {
    "time": 80
  },
  "247": {
    "time": 80
  },
  "148": {
    "time": 120
  },
  "242": {
    "time": 100
  },
  "249": {
    "time": 105
  },
  "248": {
    "time": 85
  },
  "519": {
    "time": 115
  },
  "518": {
    "time": 110
  },
  "511": {
    "time": 65
  },
  "513": {
    "time": 90
  },
  "512": {
    "time": 70
  },
  "514": {
    "time": 115
  },
  "516": {
    "time": 95
  },
  "458": {
    "time": 95
  },
  "622": {
    "time": 80
  },
  "621": {
    "time": 95
  },
  "620": {
    "time": 70
  },
  "627": {
    "time": 85
  },
  "626": {
    "time": 80
  },
  "625": {
    "time": 95
  },
  "624": {
    "time": 80
  },
  "450": {
    "time": 60
  },
  "451": {
    "time": 115
  },
  "452": {
    "time": 80
  },
  "453": {
    "time": 100
  },
  "455": {
    "time": 65
  },
  "457": {
    "time": 70
  },
  "179": {
    "time": 125
  },
  "178": {
    "time": 100
  },
  "177": {
    "time": 90
  },
  "173": {
    "time": 155
  },
  "172": {
    "time": 100
  },
  "171": {
    "time": 205
  },
  "170": {
    "time": 140
  },
  "656": {
    "time": 120
  },
  "182": {
    "time": 95
  },
  "657": {
    "time": 110
  },
  "181": {
    "time": 85
  },
  "652": {
    "time": 115
  },
  "653": {
    "time": 120
  },
  "184": {
    "time": 75
  },
  "651": {
    "time": 115
  },
  "188": {
    "time": 95
  },
  "189": {
    "time": 90
  },
  "658": {
    "time": 115
  },
  "187": {
    "time": 110
  },
  "650": {
    "time": 120
  },
  "185": {
    "time": 90
  },
  "11": {
    "tap": 255
  },
  "10": {
    "tap": 234
  },
  "13": {
    "tap": 255,
    "time": 140
  },
  "12": {
    "tap": 250
  },
  "15": {
    "time": 250
  },
  "14": {
    "tap": 255,
    "time": 195
  },
  "17": {
    "tap": 210,
    "time": 85
  },
  "16": {
    "tap": 294,
    "time": 100
  },
  "19": {
    "tap": 255
  },
  "18": {
    "time": 255
  },
  "659": {
    "time": 105
  },
  "320": {
    "time": 175
  },
  "326": {
    "time": 75
  },
  "327": {
    "time": 90
  },
  "325": {
    "time": 95
  },
  "328": {
    "time": 65
  },
  "329": {
    "time": 150
  },
  "201": {
    "time": 90
  },
  "200": {
    "time": 85
  },
  "205": {
    "time": 90
  },
  "207": {
    "time": 90
  },
  "206": {
    "time": 110
  },
  "77": {
    "time": 130
  },
  "74": {
    "time": 170
  },
  "73": {
    "time": 105
  },
  "70": {
    "time": 140
  },
  "655": {
    "time": 135
  },
  "78": {
    "time": 195
  },
  "660": {
    "time": 140
  },
  "542": {
    "time": 60
  },
  "543": {
    "time": 75
  },
  "540": {
    "time": 120
  },
  "541": {
    "time": 60
  },
  "546": {
    "time": 105
  },
  "544": {
    "time": 85
  },
  "545": {
    "time": 105
  },
  "8": {
    "tap": 226
  },
  "548": {
    "time": 65
  },
  "549": {
    "time": 110
  },
  "121": {
    "time": 115
  },
  "122": {
    "time": 100
  },
  "123": {
    "time": 260
  },
  "124": {
    "time": 180
  },
  "126": {
    "time": 160
  },
  "127": {
    "time": 115
  },
  "128": {
    "time": 235
  },
  "129": {
    "time": 140
  },
  "414": {
    "time": 110
  },
  "416": {
    "time": 60
  },
  "417": {
    "time": 95
  },
  "413": {
    "time": 105
  },
  "498": {
    "time": 120
  },
  "418": {
    "time": 105
  },
  "419": {
    "time": 105
  },
  "318": {
    "time": 125
  },
  "313": {
    "time": 65
  },
  "311": {
    "time": 170
  },
  "315": {
    "time": 65
  },
  "314": {
    "time": 95
  },
  "496": {
    "time": 65
  },
  "497": {
    "time": 105
  },
  "368": {
    "time": 155
  },
  "369": {
    "time": 85
  },
  "367": {
    "time": 100
  },
  "364": {
    "time": 120
  },
  "365": {
    "time": 50
  },
  "362": {
    "time": 115
  },
  "361": {
    "time": 110
  },
  "380": {
    "time": 140
  },
  "382": {
    "time": 65
  },
  "385": {
    "time": 85
  },
  "387": {
    "time": 110
  },
  "388": {
    "time": 115
  },
  "389": {
    "time": 80
  },
  "579": {
    "time": 140
  },
  "578": {
    "time": 75
  },
  "150": {
    "time": 100
  },
  "573": {
    "time": 75
  },
  "571": {
    "time": 85
  },
  "570": {
    "time": 150
  },
  "577": {
    "time": 80
  },
  "576": {
    "time": 80
  },
  "575": {
    "time": 65
  },
  "574": {
    "time": 50
  },
  "60": {
    "time": 170
  },
  "61": {
    "time": 125
  },
  "258": {
    "time": 190
  },
  "259": {
    "time": 65
  },
  "65": {
    "time": 205
  },
  "66": {
    "time": 110
  },
  "252": {
    "time": 80
  },
  "69": {
    "time": 250
  },
  "251": {
    "time": 100
  },
  "256": {
    "time": 80
  },
  "257": {
    "time": 100
  },
  "254": {
    "time": 80
  },
  "154": {
    "time": 115
  },
  "509": {
    "time": 90
  },
  "506": {
    "time": 100
  },
  "507": {
    "time": 100
  },
  "505": {
    "time": 50
  },
  "502": {
    "time": 85
  },
  "501": {
    "time": 75
  },
  "630": {
    "time": 95
  },
  "631": {
    "time": 90
  },
  "633": {
    "time": 90
  },
  "469": {
    "time": 55
  },
  "468": {
    "time": 55
  },
  "636": {
    "time": 85
  },
  "637": {
    "time": 105
  },
  "465": {
    "time": 60
  },
  "464": {
    "time": 60
  },
  "467": {
    "time": 140
  },
  "461": {
    "time": 75
  },
  "460": {
    "time": 70
  },
  "463": {
    "time": 115
  },
  "462": {
    "time": 100
  },
  "168": {
    "time": 140
  },
  "169": {
    "time": 155
  },
  "164": {
    "time": 200
  },
  "166": {
    "time": 130
  },
  "161": {
    "time": 140
  },
  "163": {
    "time": 155
  },
  "9": {
    "tap": 255
  },
  "647": {
    "time": 95
  },
  "649": {
    "time": 115
  },
  "357": {
    "time": 85
  },
  "356": {
    "time": 105
  },
  "354": {
    "time": 115
  },
  "352": {
    "time": 115
  },
  "350": {
    "time": 75
  },
  "359": {
    "time": 85
  },
  "358": {
    "time": 100
  },
  "216": {
    "time": 95
  },
  "217": {
    "time": 95
  },
  "214": {
    "time": 150
  },
  "215": {
    "time": 80
  },
  "212": {
    "time": 100
  },
  "210": {
    "time": 85
  },
  "211": {
    "time": 85
  },
  "218": {
    "time": 100
  },
  "288": {
    "time": 80
  },
  "281": {
    "time": 55
  },
  "280": {
    "time": 75
  },
  "283": {
    "time": 75
  },
  "284": {
    "time": 105
  },
  "287": {
    "time": 125
  },
  "263": {
    "time": 60
  },
  "261": {
    "time": 140
  },
  "260": {
    "time": 60
  },
  "266": {
    "time": 40
  },
  "265": {
    "time": 75
  },
  "264": {
    "time": 75
  },
  "269": {
    "time": 95
  },
  "268": {
    "time": 80
  },
  "59": {
    "time": 310
  },
  "58": {
    "time": 155
  },
  "55": {
    "time": 260
  },
  "54": {
    "time": 130
  },
  "51": {
    "time": 100
  },
  "50": {
    "time": 175
  },
  "53": {
    "time": 145
  },
  "52": {
    "time": 75
  },
  "537": {
    "time": 60
  },
  "535": {
    "time": 145
  },
  "63": {
    "time": 160
  },
  "533": {
    "time": 65
  },
  "531": {
    "time": 60
  },
  "530": {
    "time": 125
  },
  "539": {
    "time": 80
  },
  "68": {
    "time": 140
  },
  "111": {
    "time": 200
  },
  "110": {
    "time": 170
  },
  "118": {
    "time": 95
  },
  "429": {
    "time": 70
  },
  "428": {
    "time": 65
  },
  "534": {
    "time": 70
  },
  "421": {
    "time": 50
  },
  "422": {
    "time": 65
  },
  "424": {
    "time": 85
  },
  "426": {
    "time": 115
  },
  "308": {
    "time": 95
  },
  "301": {
    "time": 115
  },
  "302": {
    "time": 115
  },
  "303": {
    "time": 115
  },
  "305": {
    "time": 60
  },
  "306": {
    "time": 85
  },
  "307": {
    "time": 85
  },
  "568": {
    "time": 75
  },
  "569": {
    "time": 75
  },
  "560": {
    "time": 80
  },
  "561": {
    "time": 90
  },
  "562": {
    "time": 100
  },
  "563": {
    "time": 115
  },
  "564": {
    "time": 65
  },
  "565": {
    "time": 130
  },
  "566": {
    "time": 55
  },
  "567": {
    "time": 70
  },
  "228": {
    "time": 90
  },
  "227": {
    "time": 95
  },
  "226": {
    "time": 120
  },
  "224": {
    "time": 150
  },
  "223": {
    "time": 150
  },
  "221": {
    "time": 80
  },
  "app_version": "0.6.60",
  "114": {
    "time": 120
  },
  "89": {
    "time": 115
  },
  "605": {
    "time": 65
  },
  "604": {
    "time": 60
  },
  "607": {
    "time": 70
  },
  "606": {
    "time": 65
  },
  "601": {
    "time": 65
  },
  "600": {
    "time": 130
  },
  "157": {
    "time": 115
  },
  "156": {
    "time": 150
  },
  "159": {
    "time": 105
  },
  "609": {
    "time": 80
  },
  "608": {
    "time": 90
  },
  "634": {
    "time": 95
  },
  "80": {
    "time": 105
  },
  "635": {
    "time": 90
  },
  "48": {
    "time": 135
  },
  "49": {
    "time": 115
  },
  "46": {
    "time": 110
  },
  "47": {
    "time": 160
  },
  "44": {
    "time": 190
  },
  "45": {
    "time": 140
  },
  "42": {
    "time": 180
  },
  "40": {
    "time": 130
  },
  "41": {
    "time": 165
  },
  "638": {
    "time": 100
  },
  "639": {
    "time": 105
  },
  "489": {
    "time": 65
  },
  "488": {
    "time": 110
  },
  "487": {
    "time": 60
  },
  "485": {
    "time": 60
  },
  "483": {
    "time": 135
  },
  "482": {
    "time": 65
  },
  "481": {
    "time": 95
  },
  "472": {
    "time": 90
  },
  "470": {
    "time": 65
  },
  "471": {
    "time": 55
  },
  "476": {
    "time": 80
  },
  "477": {
    "time": 130
  },
  "474": {
    "time": 65
  },
  "475": {
    "time": 85
  },
  "478": {
    "time": 60
  },
  "479": {
    "time": 100
  }
}