{
  "adventuremap": "git@github.com:hashcube/adventuremap.git#v2.4.16",
  "billing": "git@github.com:hashcube/billing.git#v4.3.15",
  "crashlytics": "git@github.com:hashcube/crashlytics.git#v1.0.2",
  "devkit-core": "git@github.com:hashcube/devkit-core.git#v4.5.3-52-0",
  "devkithelper": "git@github.com:hashcube/devkithelper.git#v3.0.10",
  "facebook": "git@github.com:hashcube/facebook.git#v3.3.18",
  "firebase": "git@github.com:hashcube/firebase.git#v1.1.10",
  "flurry": "git@github.com:hashcube/flurry.git#v2.0.3",
  "localnotify": "git@github.com:hashcube/localnotify.git#v2.2.9",
  "utils": "git@github.com:hashcube/utils.git#v3.4.10",
  "quest": "git@bitbucket.org:hashcube/quest.git#v1.4.7",
  "gamecircle": "git@github.com:hashcube/gamecircle.git#v1.0.4",
  "gameplay": "git@github.com:hashcube/gameplay.git#v3.2.14",
  "kochava": "git@github.com:hashcube/kochava.git#v1.0.5",
  "onesignal": "git@github.com:hashcube/onesignal.git#v2.3.2",
  "gamecenter": "git@github.com:hashcube/gamecenter.git#v1.0.4",
  "devkit-effects": "git@bitbucket.org:hashcube/devkit-effects.git#v1.0.3",
  "freshchat": "git@github.com:hashcube/freshchat.git#v1.0.7"
}
