[
    [
        0,
        0,
        0
    ],
    [
        2,
        0,
        0
    ],
    [
        4,
        0,
        0
    ],
    [
        6,
        0,
        0
    ],
    [
        9,
        0,
        0
    ],
    [
        11,
        1,
        0
    ],
    [
        2,
        2,
        0
    ],
    [
        4,
        2,
        0
    ],
    [
        6,
        2,
        0
    ],
    [
        9,
        2,
        0
    ],
    [
        11,
        3,
        0
    ],
    [
        0,
        4,
        0
    ],
    [
        2,
        4,
        0
    ],
    [
        4,
        4,
        0
    ],
    [
        6,
        4,
        0
    ],
    [
        9,
        4,
        0
    ],
    [
        2,
        6,
        0
    ],
    [
        4,
        6,
        0
    ],
    [
        9,
        6,
        0
    ],
    [
        2,
        8,
        0
    ],
    [
        4,
        8,
        0
    ],
    [
        9,
        8,
        0
    ],
    [
        0,
        10,
        0
    ],
    [
        2,
        10,
        0
    ],
    [
        4,
        10,
        0
    ],
    [
        6,
        10,
        0
    ],
    [
        9,
        10,
        0
    ],
    [
        11,
        11,
        0
    ],
    [
        2,
        12,
        0
    ],
    [
        4,
        12,
        0
    ],
    [
        6,
        12,
        0
    ],
    [
        9,
        12,
        0
    ],
    [
        11,
        13,
        0
    ],
    [
        0,
        14,
        0
    ],
    [
        2,
        14,
        0
    ],
    [
        4,
        14,
        0
    ],
    [
        6,
        14,
        0
    ],
    [
        9,
        14,
        0
    ],
    [
        0,
        0,
        1
    ],
    [
        2,
        0,
        1
    ],
    [
        4,
        0,
        1
    ],
    [
        6,
        0,
        1
    ],
    [
        9,
        0,
        1
    ],
    [
        11,
        1,
        1
    ],
    [
        2,
        2,
        1
    ],
    [
        4,
        2,
        1
    ],
    [
        6,
        2,
        1
    ],
    [
        9,
        2,
        1
    ],
    [
        11,
        3,
        1
    ],
    [
        0,
        4,
        1
    ],
    [
        2,
        4,
        1
    ],
    [
        4,
        4,
        1
    ],
    [
        6,
        4,
        1
    ],
    [
        9,
        4,
        1
    ],
    [
        2,
        6,
        1
    ],
    [
        4,
        6,
        1
    ],
    [
        9,
        6,
        1
    ],
    [
        2,
        8,
        1
    ],
    [
        4,
        8,
        1
    ],
    [
        9,
        8,
        1
    ],
    [
        0,
        10,
        1
    ],
    [
        2,
        10,
        1
    ],
    [
        4,
        10,
        1
    ],
    [
        6,
        10,
        1
    ],
    [
        9,
        10,
        1
    ],
    [
        11,
        11,
        1
    ],
    [
        2,
        12,
        1
    ],
    [
        4,
        12,
        1
    ],
    [
        6,
        12,
        1
    ],
    [
        9,
        12,
        1
    ],
    [
        11,
        13,
        1
    ],
    [
        0,
        14,
        1
    ],
    [
        2,
        14,
        1
    ],
    [
        4,
        14,
        1
    ],
    [
        6,
        14,
        1
    ],
    [
        9,
        14,
        1
    ],
    [
        0,
        0,
        2
    ],
    [
        2,
        0,
        2
    ],
    [
        4,
        0,
        2
    ],
    [
        11,
        1,
        2
    ],
    [
        2,
        2,
        2
    ],
    [
        4,
        2,
        2
    ],
    [
        11,
        3,
        2
    ],
    [
        0,
        4,
        2
    ],
    [
        2,
        4,
        2
    ],
    [
        4,
        4,
        2
    ],
    [
        2,
        6,
        2
    ],
    [
        4,
        6,
        2
    ],
    [
        2,
        8,
        2
    ],
    [
        4,
        8,
        2
    ],
    [
        0,
        10,
        2
    ],
    [
        2,
        10,
        2
    ],
    [
        4,
        10,
        2
    ],
    [
        11,
        11,
        2
    ],
    [
        2,
        12,
        2
    ],
    [
        4,
        12,
        2
    ],
    [
        11,
        13,
        2
    ],
    [
        0,
        14,
        2
    ],
    [
        2,
        14,
        2
    ],
    [
        4,
        14,
        2
    ],
    [
        0,
        0,
        3
    ],
    [
        2,
        0,
        3
    ],
    [
        2,
        2,
        3
    ],
    [
        0,
        4,
        3
    ],
    [
        2,
        4,
        3
    ],
    [
        2,
        6,
        3
    ],
    [
        2,
        8,
        3
    ],
    [
        0,
        10,
        3
    ],
    [
        2,
        10,
        3
    ],
    [
        2,
        12,
        3
    ],
    [
        0,
        14,
        3
    ],
    [
        2,
        14,
        3
    ]
]