[
    [
        0,
        0,
        0
    ],
    [
        4,
        0,
        0
    ],
    [
        8,
        0,
        0
    ],
    [
        12,
        0,
        0
    ],
    [
        6,
        1,
        0
    ],
    [
        0,
        2,
        0
    ],
    [
        2,
        2,
        0
    ],
    [
        10,
        2,
        0
    ],
    [
        12,
        2,
        0
    ],
    [
        4,
        3,
        0
    ],
    [
        6,
        3,
        0
    ],
    [
        8,
        3,
        0
    ],
    [
        0,
        4,
        0
    ],
    [
        2,
        4,
        0
    ],
    [
        10,
        4,
        0
    ],
    [
        12,
        4,
        0
    ],
    [
        4,
        5,
        0
    ],
    [
        8,
        5,
        0
    ],
    [
        0,
        6,
        0
    ],
    [
        12,
        6,
        0
    ],
    [
        0,
        8,
        0
    ],
    [
        12,
        8,
        0
    ],
    [
        4,
        9,
        0
    ],
    [
        8,
        9,
        0
    ],
    [
        0,
        10,
        0
    ],
    [
        2,
        10,
        0
    ],
    [
        10,
        10,
        0
    ],
    [
        12,
        10,
        0
    ],
    [
        4,
        11,
        0
    ],
    [
        6,
        11,
        0
    ],
    [
        8,
        11,
        0
    ],
    [
        0,
        12,
        0
    ],
    [
        2,
        12,
        0
    ],
    [
        10,
        12,
        0
    ],
    [
        12,
        12,
        0
    ],
    [
        6,
        13,
        0
    ],
    [
        0,
        14,
        0
    ],
    [
        4,
        14,
        0
    ],
    [
        8,
        14,
        0
    ],
    [
        12,
        14,
        0
    ],
    [
        0,
        0,
        1
    ],
    [
        4,
        0,
        1
    ],
    [
        8,
        0,
        1
    ],
    [
        12,
        0,
        1
    ],
    [
        0,
        2,
        1
    ],
    [
        2,
        2,
        1
    ],
    [
        10,
        2,
        1
    ],
    [
        12,
        2,
        1
    ],
    [
        0,
        4,
        1
    ],
    [
        2,
        4,
        1
    ],
    [
        10,
        4,
        1
    ],
    [
        12,
        4,
        1
    ],
    [
        4,
        5,
        1
    ],
    [
        8,
        5,
        1
    ],
    [
        0,
        6,
        1
    ],
    [
        12,
        6,
        1
    ],
    [
        0,
        8,
        1
    ],
    [
        12,
        8,
        1
    ],
    [
        4,
        9,
        1
    ],
    [
        8,
        9,
        1
    ],
    [
        0,
        10,
        1
    ],
    [
        2,
        10,
        1
    ],
    [
        10,
        10,
        1
    ],
    [
        12,
        10,
        1
    ],
    [
        0,
        12,
        1
    ],
    [
        2,
        12,
        1
    ],
    [
        10,
        12,
        1
    ],
    [
        12,
        12,
        1
    ],
    [
        0,
        14,
        1
    ],
    [
        4,
        14,
        1
    ],
    [
        8,
        14,
        1
    ],
    [
        12,
        14,
        1
    ],
    [
        4,
        0,
        2
    ],
    [
        8,
        0,
        2
    ],
    [
        0,
        2,
        2
    ],
    [
        2,
        2,
        2
    ],
    [
        10,
        2,
        2
    ],
    [
        12,
        2,
        2
    ],
    [
        0,
        4,
        2
    ],
    [
        2,
        4,
        2
    ],
    [
        10,
        4,
        2
    ],
    [
        12,
        4,
        2
    ],
    [
        4,
        5,
        2
    ],
    [
        8,
        5,
        2
    ],
    [
        4,
        9,
        2
    ],
    [
        8,
        9,
        2
    ],
    [
        0,
        10,
        2
    ],
    [
        2,
        10,
        2
    ],
    [
        10,
        10,
        2
    ],
    [
        12,
        10,
        2
    ],
    [
        0,
        12,
        2
    ],
    [
        2,
        12,
        2
    ],
    [
        10,
        12,
        2
    ],
    [
        12,
        12,
        2
    ],
    [
        4,
        14,
        2
    ],
    [
        8,
        14,
        2
    ],
    [
        0,
        2,
        3
    ],
    [
        2,
        2,
        3
    ],
    [
        10,
        2,
        3
    ],
    [
        12,
        2,
        3
    ],
    [
        0,
        4,
        3
    ],
    [
        2,
        4,
        3
    ],
    [
        10,
        4,
        3
    ],
    [
        12,
        4,
        3
    ],
    [
        0,
        10,
        3
    ],
    [
        2,
        10,
        3
    ],
    [
        10,
        10,
        3
    ],
    [
        12,
        10,
        3
    ],
    [
        0,
        12,
        3
    ],
    [
        2,
        12,
        3
    ],
    [
        10,
        12,
        3
    ],
    [
        12,
        12,
        3
    ],
    [
        0,
        2,
        4
    ],
    [
        2,
        2,
        4
    ],
    [
        10,
        2,
        4
    ],
    [
        12,
        2,
        4
    ],
    [
        0,
        4,
        4
    ],
    [
        2,
        4,
        4
    ],
    [
        10,
        4,
        4
    ],
    [
        12,
        4,
        4
    ],
    [
        0,
        10,
        4
    ],
    [
        2,
        10,
        4
    ],
    [
        10,
        10,
        4
    ],
    [
        12,
        10,
        4
    ],
    [
        0,
        12,
        4
    ],
    [
        2,
        12,
        4
    ],
    [
        10,
        12,
        4
    ],
    [
        12,
        12,
        4
    ],
    [
        0,
        2,
        5
    ],
    [
        2,
        2,
        5
    ],
    [
        10,
        2,
        5
    ],
    [
        12,
        2,
        5
    ],
    [
        0,
        4,
        5
    ],
    [
        2,
        4,
        5
    ],
    [
        10,
        4,
        5
    ],
    [
        12,
        4,
        5
    ],
    [
        0,
        10,
        5
    ],
    [
        2,
        10,
        5
    ],
    [
        10,
        10,
        5
    ],
    [
        12,
        10,
        5
    ],
    [
        0,
        12,
        5
    ],
    [
        2,
        12,
        5
    ],
    [
        10,
        12,
        5
    ],
    [
        12,
        12,
        5
    ]
]