[
    [
        0,
        0,
        0
    ],
    [
        3,
        0,
        0
    ],
    [
        5,
        0,
        0
    ],
    [
        7,
        0,
        0
    ],
    [
        9,
        0,
        0
    ],
    [
        12,
        0,
        0
    ],
    [
        0,
        2,
        0
    ],
    [
        3,
        2,
        0
    ],
    [
        5,
        2,
        0
    ],
    [
        7,
        2,
        0
    ],
    [
        9,
        2,
        0
    ],
    [
        12,
        2,
        0
    ],
    [
        0,
        4,
        0
    ],
    [
        3,
        4,
        0
    ],
    [
        5,
        4,
        0
    ],
    [
        7,
        4,
        0
    ],
    [
        9,
        4,
        0
    ],
    [
        12,
        4,
        0
    ],
    [
        0,
        6,
        0
    ],
    [
        3,
        6,
        0
    ],
    [
        5,
        6,
        0
    ],
    [
        7,
        6,
        0
    ],
    [
        9,
        6,
        0
    ],
    [
        12,
        6,
        0
    ],
    [
        0,
        8,
        0
    ],
    [
        3,
        8,
        0
    ],
    [
        5,
        8,
        0
    ],
    [
        7,
        8,
        0
    ],
    [
        9,
        8,
        0
    ],
    [
        12,
        8,
        0
    ],
    [
        0,
        10,
        0
    ],
    [
        3,
        10,
        0
    ],
    [
        5,
        10,
        0
    ],
    [
        7,
        10,
        0
    ],
    [
        9,
        10,
        0
    ],
    [
        12,
        10,
        0
    ],
    [
        0,
        12,
        0
    ],
    [
        3,
        12,
        0
    ],
    [
        5,
        12,
        0
    ],
    [
        7,
        12,
        0
    ],
    [
        9,
        12,
        0
    ],
    [
        12,
        12,
        0
    ],
    [
        0,
        14,
        0
    ],
    [
        3,
        14,
        0
    ],
    [
        5,
        14,
        0
    ],
    [
        7,
        14,
        0
    ],
    [
        9,
        14,
        0
    ],
    [
        12,
        14,
        0
    ],
    [
        3,
        0,
        1
    ],
    [
        5,
        0,
        1
    ],
    [
        7,
        0,
        1
    ],
    [
        9,
        0,
        1
    ],
    [
        3,
        2,
        1
    ],
    [
        5,
        2,
        1
    ],
    [
        7,
        2,
        1
    ],
    [
        9,
        2,
        1
    ],
    [
        3,
        4,
        1
    ],
    [
        5,
        4,
        1
    ],
    [
        7,
        4,
        1
    ],
    [
        9,
        4,
        1
    ],
    [
        3,
        6,
        1
    ],
    [
        5,
        6,
        1
    ],
    [
        7,
        6,
        1
    ],
    [
        9,
        6,
        1
    ],
    [
        3,
        8,
        1
    ],
    [
        5,
        8,
        1
    ],
    [
        7,
        8,
        1
    ],
    [
        9,
        8,
        1
    ],
    [
        3,
        10,
        1
    ],
    [
        5,
        10,
        1
    ],
    [
        7,
        10,
        1
    ],
    [
        9,
        10,
        1
    ],
    [
        3,
        12,
        1
    ],
    [
        5,
        12,
        1
    ],
    [
        7,
        12,
        1
    ],
    [
        9,
        12,
        1
    ],
    [
        3,
        14,
        1
    ],
    [
        5,
        14,
        1
    ],
    [
        7,
        14,
        1
    ],
    [
        9,
        14,
        1
    ],
    [
        5,
        0,
        2
    ],
    [
        7,
        0,
        2
    ],
    [
        5,
        2,
        2
    ],
    [
        7,
        2,
        2
    ],
    [
        5,
        4,
        2
    ],
    [
        7,
        4,
        2
    ],
    [
        5,
        6,
        2
    ],
    [
        7,
        6,
        2
    ],
    [
        5,
        8,
        2
    ],
    [
        7,
        8,
        2
    ],
    [
        5,
        10,
        2
    ],
    [
        7,
        10,
        2
    ],
    [
        5,
        12,
        2
    ],
    [
        7,
        12,
        2
    ],
    [
        5,
        14,
        2
    ],
    [
        7,
        14,
        2
    ],
    [
        5,
        6,
        3
    ],
    [
        7,
        6,
        3
    ],
    [
        5,
        8,
        3
    ],
    [
        7,
        8,
        3
    ]
]