[
    [
        5,
        13,
        0
    ],
    [
        7,
        13,
        0
    ],
    [
        7,
        15,
        0
    ],
    [
        10,
        15,
        0
    ],
    [
        12,
        15,
        0
    ],
    [
        10,
        17,
        0
    ]
]