[
    [
        5,
        0,
        0
    ],
    [
        7,
        0,
        0
    ],
    [
        9,
        0,
        0
    ],
    [
        2,
        1,
        0
    ],
    [
        12,
        1,
        0
    ],
    [
        4,
        2,
        0
    ],
    [
        10,
        2,
        0
    ],
    [
        2,
        3,
        0
    ],
    [
        6,
        3,
        0
    ],
    [
        8,
        3,
        0
    ],
    [
        12,
        3,
        0
    ],
    [
        4,
        4,
        0
    ],
    [
        10,
        4,
        0
    ],
    [
        0,
        5,
        0
    ],
    [
        2,
        5,
        0
    ],
    [
        6,
        5,
        0
    ],
    [
        8,
        5,
        0
    ],
    [
        12,
        5,
        0
    ],
    [
        14,
        5,
        0
    ],
    [
        4,
        6,
        0
    ],
    [
        10,
        6,
        0
    ],
    [
        2,
        7,
        0
    ],
    [
        6,
        7,
        0
    ],
    [
        8,
        7,
        0
    ],
    [
        12,
        7,
        0
    ],
    [
        4,
        8,
        0
    ],
    [
        10,
        8,
        0
    ],
    [
        2,
        9,
        0
    ],
    [
        12,
        9,
        0
    ],
    [
        5,
        10,
        0
    ],
    [
        7,
        10,
        0
    ],
    [
        9,
        10,
        0
    ],
    [
        6,
        0,
        1
    ],
    [
        8,
        0,
        1
    ],
    [
        2,
        2,
        1
    ],
    [
        4,
        2,
        1
    ],
    [
        10,
        2,
        1
    ],
    [
        12,
        2,
        1
    ],
    [
        6,
        3,
        1
    ],
    [
        8,
        3,
        1
    ],
    [
        2,
        4,
        1
    ],
    [
        4,
        4,
        1
    ],
    [
        10,
        4,
        1
    ],
    [
        12,
        4,
        1
    ],
    [
        2,
        6,
        1
    ],
    [
        4,
        6,
        1
    ],
    [
        10,
        6,
        1
    ],
    [
        12,
        6,
        1
    ],
    [
        6,
        7,
        1
    ],
    [
        8,
        7,
        1
    ],
    [
        2,
        8,
        1
    ],
    [
        4,
        8,
        1
    ],
    [
        10,
        8,
        1
    ],
    [
        12,
        8,
        1
    ],
    [
        6,
        10,
        1
    ],
    [
        8,
        10,
        1
    ],
    [
        2,
        2,
        2
    ],
    [
        4,
        2,
        2
    ],
    [
        10,
        2,
        2
    ],
    [
        12,
        2,
        2
    ],
    [
        6,
        3,
        2
    ],
    [
        8,
        3,
        2
    ],
    [
        2,
        4,
        2
    ],
    [
        4,
        4,
        2
    ],
    [
        10,
        4,
        2
    ],
    [
        12,
        4,
        2
    ],
    [
        2,
        6,
        2
    ],
    [
        4,
        6,
        2
    ],
    [
        10,
        6,
        2
    ],
    [
        12,
        6,
        2
    ],
    [
        6,
        7,
        2
    ],
    [
        8,
        7,
        2
    ],
    [
        2,
        8,
        2
    ],
    [
        4,
        8,
        2
    ],
    [
        10,
        8,
        2
    ],
    [
        12,
        8,
        2
    ],
    [
        4,
        2,
        3
    ],
    [
        10,
        2,
        3
    ],
    [
        6,
        3,
        3
    ],
    [
        8,
        3,
        3
    ],
    [
        2,
        4,
        3
    ],
    [
        4,
        4,
        3
    ],
    [
        10,
        4,
        3
    ],
    [
        12,
        4,
        3
    ],
    [
        2,
        6,
        3
    ],
    [
        4,
        6,
        3
    ],
    [
        10,
        6,
        3
    ],
    [
        12,
        6,
        3
    ],
    [
        6,
        7,
        3
    ],
    [
        8,
        7,
        3
    ],
    [
        4,
        8,
        3
    ],
    [
        10,
        8,
        3
    ],
    [
        6,
        3,
        4
    ],
    [
        8,
        3,
        4
    ],
    [
        2,
        4,
        4
    ],
    [
        4,
        4,
        4
    ],
    [
        10,
        4,
        4
    ],
    [
        12,
        4,
        4
    ],
    [
        2,
        6,
        4
    ],
    [
        4,
        6,
        4
    ],
    [
        10,
        6,
        4
    ],
    [
        12,
        6,
        4
    ],
    [
        6,
        7,
        4
    ],
    [
        8,
        7,
        4
    ],
    [
        6,
        3,
        5
    ],
    [
        8,
        3,
        5
    ],
    [
        4,
        4,
        5
    ],
    [
        10,
        4,
        5
    ],
    [
        4,
        6,
        5
    ],
    [
        10,
        6,
        5
    ],
    [
        6,
        7,
        5
    ],
    [
        8,
        7,
        5
    ],
    [
        6,
        3,
        6
    ],
    [
        8,
        3,
        6
    ],
    [
        6,
        7,
        6
    ],
    [
        8,
        7,
        6
    ]
]