[
    [
        0,
        0,
        0
    ],
    [
        2,
        0,
        0
    ],
    [
        4,
        0,
        0
    ],
    [
        6,
        0,
        0
    ],
    [
        8,
        0,
        0
    ],
    [
        10,
        0,
        0
    ],
    [
        12,
        0,
        0
    ],
    [
        14,
        0,
        0
    ],
    [
        2,
        2,
        0
    ],
    [
        4,
        2,
        0
    ],
    [
        6,
        2,
        0
    ],
    [
        8,
        2,
        0
    ],
    [
        10,
        2,
        0
    ],
    [
        12,
        2,
        0
    ],
    [
        4,
        4,
        0
    ],
    [
        6,
        4,
        0
    ],
    [
        8,
        4,
        0
    ],
    [
        10,
        4,
        0
    ],
    [
        6,
        6,
        0
    ],
    [
        8,
        6,
        0
    ],
    [
        6,
        8,
        0
    ],
    [
        8,
        8,
        0
    ],
    [
        4,
        10,
        0
    ],
    [
        6,
        10,
        0
    ],
    [
        8,
        10,
        0
    ],
    [
        10,
        10,
        0
    ],
    [
        2,
        12,
        0
    ],
    [
        4,
        12,
        0
    ],
    [
        6,
        12,
        0
    ],
    [
        8,
        12,
        0
    ],
    [
        10,
        12,
        0
    ],
    [
        12,
        12,
        0
    ],
    [
        0,
        14,
        0
    ],
    [
        2,
        14,
        0
    ],
    [
        4,
        14,
        0
    ],
    [
        6,
        14,
        0
    ],
    [
        8,
        14,
        0
    ],
    [
        10,
        14,
        0
    ],
    [
        12,
        14,
        0
    ],
    [
        14,
        14,
        0
    ],
    [
        0,
        0,
        1
    ],
    [
        2,
        0,
        1
    ],
    [
        4,
        0,
        1
    ],
    [
        6,
        0,
        1
    ],
    [
        8,
        0,
        1
    ],
    [
        10,
        0,
        1
    ],
    [
        12,
        0,
        1
    ],
    [
        14,
        0,
        1
    ],
    [
        2,
        2,
        1
    ],
    [
        4,
        2,
        1
    ],
    [
        6,
        2,
        1
    ],
    [
        8,
        2,
        1
    ],
    [
        10,
        2,
        1
    ],
    [
        12,
        2,
        1
    ],
    [
        4,
        4,
        1
    ],
    [
        6,
        4,
        1
    ],
    [
        8,
        4,
        1
    ],
    [
        10,
        4,
        1
    ],
    [
        6,
        6,
        1
    ],
    [
        8,
        6,
        1
    ],
    [
        6,
        8,
        1
    ],
    [
        8,
        8,
        1
    ],
    [
        4,
        10,
        1
    ],
    [
        6,
        10,
        1
    ],
    [
        8,
        10,
        1
    ],
    [
        10,
        10,
        1
    ],
    [
        2,
        12,
        1
    ],
    [
        4,
        12,
        1
    ],
    [
        6,
        12,
        1
    ],
    [
        8,
        12,
        1
    ],
    [
        10,
        12,
        1
    ],
    [
        12,
        12,
        1
    ],
    [
        0,
        14,
        1
    ],
    [
        2,
        14,
        1
    ],
    [
        4,
        14,
        1
    ],
    [
        6,
        14,
        1
    ],
    [
        8,
        14,
        1
    ],
    [
        10,
        14,
        1
    ],
    [
        12,
        14,
        1
    ],
    [
        14,
        14,
        1
    ],
    [
        0,
        0,
        2
    ],
    [
        2,
        0,
        2
    ],
    [
        4,
        0,
        2
    ],
    [
        6,
        0,
        2
    ],
    [
        8,
        0,
        2
    ],
    [
        10,
        0,
        2
    ],
    [
        12,
        0,
        2
    ],
    [
        14,
        0,
        2
    ],
    [
        6,
        2,
        2
    ],
    [
        8,
        2,
        2
    ],
    [
        6,
        4,
        2
    ],
    [
        8,
        4,
        2
    ],
    [
        6,
        6,
        2
    ],
    [
        8,
        6,
        2
    ],
    [
        6,
        8,
        2
    ],
    [
        8,
        8,
        2
    ],
    [
        6,
        10,
        2
    ],
    [
        8,
        10,
        2
    ],
    [
        6,
        12,
        2
    ],
    [
        8,
        12,
        2
    ],
    [
        0,
        14,
        2
    ],
    [
        2,
        14,
        2
    ],
    [
        4,
        14,
        2
    ],
    [
        6,
        14,
        2
    ],
    [
        8,
        14,
        2
    ],
    [
        10,
        14,
        2
    ],
    [
        12,
        14,
        2
    ],
    [
        14,
        14,
        2
    ]
]