[
    [
        4,
        0,
        0
    ],
    [
        6,
        0,
        0
    ],
    [
        8,
        0,
        0
    ],
    [
        10,
        0,
        0
    ],
    [
        2,
        2,
        0
    ],
    [
        4,
        2,
        0
    ],
    [
        6,
        2,
        0
    ],
    [
        8,
        2,
        0
    ],
    [
        10,
        2,
        0
    ],
    [
        12,
        2,
        0
    ],
    [
        2,
        4,
        0
    ],
    [
        4,
        4,
        0
    ],
    [
        6,
        4,
        0
    ],
    [
        8,
        4,
        0
    ],
    [
        10,
        4,
        0
    ],
    [
        12,
        4,
        0
    ],
    [
        0,
        6,
        0
    ],
    [
        2,
        6,
        0
    ],
    [
        4,
        6,
        0
    ],
    [
        6,
        6,
        0
    ],
    [
        8,
        6,
        0
    ],
    [
        10,
        6,
        0
    ],
    [
        12,
        6,
        0
    ],
    [
        14,
        6,
        0
    ],
    [
        0,
        9,
        0
    ],
    [
        2,
        9,
        0
    ],
    [
        4,
        9,
        0
    ],
    [
        6,
        9,
        0
    ],
    [
        8,
        9,
        0
    ],
    [
        10,
        9,
        0
    ],
    [
        12,
        9,
        0
    ],
    [
        14,
        9,
        0
    ],
    [
        2,
        11,
        0
    ],
    [
        4,
        11,
        0
    ],
    [
        6,
        11,
        0
    ],
    [
        8,
        11,
        0
    ],
    [
        10,
        11,
        0
    ],
    [
        12,
        11,
        0
    ],
    [
        2,
        13,
        0
    ],
    [
        4,
        13,
        0
    ],
    [
        6,
        13,
        0
    ],
    [
        8,
        13,
        0
    ],
    [
        10,
        13,
        0
    ],
    [
        12,
        13,
        0
    ],
    [
        4,
        0,
        1
    ],
    [
        6,
        0,
        1
    ],
    [
        8,
        0,
        1
    ],
    [
        10,
        0,
        1
    ],
    [
        2,
        2,
        1
    ],
    [
        12,
        2,
        1
    ],
    [
        2,
        4,
        1
    ],
    [
        12,
        4,
        1
    ],
    [
        0,
        6,
        1
    ],
    [
        2,
        6,
        1
    ],
    [
        4,
        6,
        1
    ],
    [
        6,
        6,
        1
    ],
    [
        8,
        6,
        1
    ],
    [
        10,
        6,
        1
    ],
    [
        12,
        6,
        1
    ],
    [
        14,
        6,
        1
    ],
    [
        0,
        9,
        1
    ],
    [
        2,
        9,
        1
    ],
    [
        4,
        9,
        1
    ],
    [
        6,
        9,
        1
    ],
    [
        8,
        9,
        1
    ],
    [
        10,
        9,
        1
    ],
    [
        12,
        9,
        1
    ],
    [
        14,
        9,
        1
    ],
    [
        2,
        11,
        1
    ],
    [
        12,
        11,
        1
    ],
    [
        2,
        13,
        1
    ],
    [
        12,
        13,
        1
    ],
    [
        2,
        4,
        2
    ],
    [
        12,
        4,
        2
    ],
    [
        0,
        6,
        2
    ],
    [
        2,
        6,
        2
    ],
    [
        4,
        6,
        2
    ],
    [
        6,
        6,
        2
    ],
    [
        8,
        6,
        2
    ],
    [
        10,
        6,
        2
    ],
    [
        12,
        6,
        2
    ],
    [
        14,
        6,
        2
    ],
    [
        0,
        9,
        2
    ],
    [
        2,
        9,
        2
    ],
    [
        4,
        9,
        2
    ],
    [
        6,
        9,
        2
    ],
    [
        8,
        9,
        2
    ],
    [
        10,
        9,
        2
    ],
    [
        12,
        9,
        2
    ],
    [
        14,
        9,
        2
    ],
    [
        2,
        11,
        2
    ],
    [
        12,
        11,
        2
    ],
    [
        0,
        6,
        3
    ],
    [
        2,
        6,
        3
    ],
    [
        4,
        6,
        3
    ],
    [
        6,
        6,
        3
    ],
    [
        8,
        6,
        3
    ],
    [
        10,
        6,
        3
    ],
    [
        12,
        6,
        3
    ],
    [
        14,
        6,
        3
    ],
    [
        0,
        9,
        3
    ],
    [
        2,
        9,
        3
    ],
    [
        4,
        9,
        3
    ],
    [
        6,
        9,
        3
    ],
    [
        8,
        9,
        3
    ],
    [
        10,
        9,
        3
    ],
    [
        12,
        9,
        3
    ],
    [
        14,
        9,
        3
    ]
]