[
    [
        6,
        0,
        0
    ],
    [
        8,
        0,
        0
    ],
    [
        6,
        2,
        0
    ],
    [
        8,
        2,
        0
    ],
    [
        2,
        4,
        0
    ],
    [
        4,
        4,
        0
    ],
    [
        6,
        4,
        0
    ],
    [
        8,
        4,
        0
    ],
    [
        10,
        4,
        0
    ],
    [
        12,
        4,
        0
    ],
    [
        0,
        5,
        0
    ],
    [
        14,
        5,
        0
    ],
    [
        2,
        6,
        0
    ],
    [
        4,
        6,
        0
    ],
    [
        6,
        6,
        0
    ],
    [
        8,
        6,
        0
    ],
    [
        10,
        6,
        0
    ],
    [
        12,
        6,
        0
    ],
    [
        2,
        8,
        0
    ],
    [
        4,
        8,
        0
    ],
    [
        6,
        8,
        0
    ],
    [
        8,
        8,
        0
    ],
    [
        10,
        8,
        0
    ],
    [
        12,
        8,
        0
    ],
    [
        0,
        9,
        0
    ],
    [
        14,
        9,
        0
    ],
    [
        2,
        10,
        0
    ],
    [
        4,
        10,
        0
    ],
    [
        6,
        10,
        0
    ],
    [
        8,
        10,
        0
    ],
    [
        10,
        10,
        0
    ],
    [
        12,
        10,
        0
    ],
    [
        6,
        12,
        0
    ],
    [
        8,
        12,
        0
    ],
    [
        6,
        14,
        0
    ],
    [
        8,
        14,
        0
    ],
    [
        6,
        0,
        1
    ],
    [
        8,
        0,
        1
    ],
    [
        6,
        2,
        1
    ],
    [
        8,
        2,
        1
    ],
    [
        2,
        4,
        1
    ],
    [
        4,
        4,
        1
    ],
    [
        6,
        4,
        1
    ],
    [
        8,
        4,
        1
    ],
    [
        10,
        4,
        1
    ],
    [
        12,
        4,
        1
    ],
    [
        0,
        5,
        1
    ],
    [
        14,
        5,
        1
    ],
    [
        2,
        6,
        1
    ],
    [
        4,
        6,
        1
    ],
    [
        6,
        6,
        1
    ],
    [
        8,
        6,
        1
    ],
    [
        10,
        6,
        1
    ],
    [
        12,
        6,
        1
    ],
    [
        2,
        8,
        1
    ],
    [
        4,
        8,
        1
    ],
    [
        6,
        8,
        1
    ],
    [
        8,
        8,
        1
    ],
    [
        10,
        8,
        1
    ],
    [
        12,
        8,
        1
    ],
    [
        0,
        9,
        1
    ],
    [
        14,
        9,
        1
    ],
    [
        2,
        10,
        1
    ],
    [
        4,
        10,
        1
    ],
    [
        6,
        10,
        1
    ],
    [
        8,
        10,
        1
    ],
    [
        10,
        10,
        1
    ],
    [
        12,
        10,
        1
    ],
    [
        6,
        12,
        1
    ],
    [
        8,
        12,
        1
    ],
    [
        6,
        14,
        1
    ],
    [
        8,
        14,
        1
    ],
    [
        2,
        4,
        2
    ],
    [
        12,
        4,
        2
    ],
    [
        0,
        5,
        2
    ],
    [
        4,
        5,
        2
    ],
    [
        6,
        5,
        2
    ],
    [
        8,
        5,
        2
    ],
    [
        10,
        5,
        2
    ],
    [
        14,
        5,
        2
    ],
    [
        2,
        6,
        2
    ],
    [
        12,
        6,
        2
    ],
    [
        2,
        8,
        2
    ],
    [
        12,
        8,
        2
    ],
    [
        0,
        9,
        2
    ],
    [
        4,
        9,
        2
    ],
    [
        6,
        9,
        2
    ],
    [
        8,
        9,
        2
    ],
    [
        10,
        9,
        2
    ],
    [
        14,
        9,
        2
    ],
    [
        2,
        10,
        2
    ],
    [
        12,
        10,
        2
    ]
]