[
    [
        7,
        0,
        0
    ],
    [
        5,
        1,
        0
    ],
    [
        9,
        1,
        0
    ],
    [
        3,
        2,
        0
    ],
    [
        11,
        2,
        0
    ],
    [
        1,
        3,
        0
    ],
    [
        7,
        3,
        0
    ],
    [
        13,
        3,
        0
    ],
    [
        5,
        4,
        0
    ],
    [
        9,
        4,
        0
    ],
    [
        3,
        5,
        0
    ],
    [
        11,
        5,
        0
    ],
    [
        1,
        6,
        0
    ],
    [
        7,
        6,
        0
    ],
    [
        13,
        6,
        0
    ],
    [
        5,
        7,
        0
    ],
    [
        9,
        7,
        0
    ],
    [
        0,
        8,
        0
    ],
    [
        3,
        8,
        0
    ],
    [
        11,
        8,
        0
    ],
    [
        14,
        8,
        0
    ],
    [
        7,
        9,
        0
    ],
    [
        2,
        10,
        0
    ],
    [
        5,
        10,
        0
    ],
    [
        9,
        10,
        0
    ],
    [
        12,
        10,
        0
    ],
    [
        1,
        12,
        0
    ],
    [
        4,
        12,
        0
    ],
    [
        7,
        12,
        0
    ],
    [
        10,
        12,
        0
    ],
    [
        13,
        12,
        0
    ],
    [
        7,
        0,
        1
    ],
    [
        5,
        1,
        1
    ],
    [
        9,
        1,
        1
    ],
    [
        3,
        2,
        1
    ],
    [
        11,
        2,
        1
    ],
    [
        1,
        3,
        1
    ],
    [
        7,
        3,
        1
    ],
    [
        13,
        3,
        1
    ],
    [
        5,
        4,
        1
    ],
    [
        9,
        4,
        1
    ],
    [
        3,
        5,
        1
    ],
    [
        11,
        5,
        1
    ],
    [
        1,
        6,
        1
    ],
    [
        7,
        6,
        1
    ],
    [
        13,
        6,
        1
    ],
    [
        5,
        7,
        1
    ],
    [
        9,
        7,
        1
    ],
    [
        0,
        8,
        1
    ],
    [
        3,
        8,
        1
    ],
    [
        11,
        8,
        1
    ],
    [
        14,
        8,
        1
    ],
    [
        7,
        9,
        1
    ],
    [
        2,
        10,
        1
    ],
    [
        5,
        10,
        1
    ],
    [
        9,
        10,
        1
    ],
    [
        12,
        10,
        1
    ],
    [
        1,
        12,
        1
    ],
    [
        4,
        12,
        1
    ],
    [
        7,
        12,
        1
    ],
    [
        10,
        12,
        1
    ],
    [
        13,
        12,
        1
    ],
    [
        7,
        0,
        2
    ],
    [
        5,
        1,
        2
    ],
    [
        9,
        1,
        2
    ],
    [
        3,
        2,
        2
    ],
    [
        11,
        2,
        2
    ],
    [
        1,
        3,
        2
    ],
    [
        7,
        3,
        2
    ],
    [
        13,
        3,
        2
    ],
    [
        5,
        4,
        2
    ],
    [
        9,
        4,
        2
    ],
    [
        3,
        5,
        2
    ],
    [
        11,
        5,
        2
    ],
    [
        1,
        6,
        2
    ],
    [
        7,
        6,
        2
    ],
    [
        13,
        6,
        2
    ],
    [
        5,
        7,
        2
    ],
    [
        9,
        7,
        2
    ],
    [
        0,
        8,
        2
    ],
    [
        3,
        8,
        2
    ],
    [
        11,
        8,
        2
    ],
    [
        14,
        8,
        2
    ],
    [
        7,
        9,
        2
    ],
    [
        2,
        10,
        2
    ],
    [
        5,
        10,
        2
    ],
    [
        9,
        10,
        2
    ],
    [
        12,
        10,
        2
    ],
    [
        1,
        12,
        2
    ],
    [
        4,
        12,
        2
    ],
    [
        7,
        12,
        2
    ],
    [
        10,
        12,
        2
    ],
    [
        13,
        12,
        2
    ],
    [
        7,
        0,
        3
    ],
    [
        5,
        1,
        3
    ],
    [
        9,
        1,
        3
    ],
    [
        3,
        2,
        3
    ],
    [
        11,
        2,
        3
    ],
    [
        1,
        3,
        3
    ],
    [
        7,
        3,
        3
    ],
    [
        13,
        3,
        3
    ],
    [
        5,
        4,
        3
    ],
    [
        9,
        4,
        3
    ],
    [
        3,
        5,
        3
    ],
    [
        11,
        5,
        3
    ],
    [
        1,
        6,
        3
    ],
    [
        13,
        6,
        3
    ],
    [
        0,
        8,
        3
    ],
    [
        14,
        8,
        3
    ],
    [
        7,
        0,
        4
    ],
    [
        5,
        1,
        4
    ],
    [
        9,
        1,
        4
    ],
    [
        3,
        2,
        4
    ],
    [
        11,
        2,
        4
    ],
    [
        1,
        3,
        4
    ],
    [
        13,
        3,
        4
    ]
]