[
    [
        0,
        0,
        0
    ],
    [
        2,
        0,
        0
    ],
    [
        12,
        0,
        0
    ],
    [
        14,
        0,
        0
    ],
    [
        2,
        2,
        0
    ],
    [
        12,
        2,
        0
    ],
    [
        4,
        4,
        0
    ],
    [
        10,
        4,
        0
    ],
    [
        6,
        6,
        0
    ],
    [
        8,
        6,
        0
    ],
    [
        6,
        8,
        0
    ],
    [
        8,
        8,
        0
    ],
    [
        4,
        10,
        0
    ],
    [
        10,
        10,
        0
    ],
    [
        2,
        12,
        0
    ],
    [
        12,
        12,
        0
    ],
    [
        0,
        14,
        0
    ],
    [
        2,
        14,
        0
    ],
    [
        12,
        14,
        0
    ],
    [
        14,
        14,
        0
    ],
    [
        0,
        0,
        1
    ],
    [
        2,
        0,
        1
    ],
    [
        12,
        0,
        1
    ],
    [
        14,
        0,
        1
    ],
    [
        2,
        2,
        1
    ],
    [
        12,
        2,
        1
    ],
    [
        4,
        4,
        1
    ],
    [
        10,
        4,
        1
    ],
    [
        4,
        10,
        1
    ],
    [
        10,
        10,
        1
    ],
    [
        2,
        12,
        1
    ],
    [
        12,
        12,
        1
    ],
    [
        0,
        14,
        1
    ],
    [
        2,
        14,
        1
    ],
    [
        12,
        14,
        1
    ],
    [
        14,
        14,
        1
    ],
    [
        0,
        0,
        2
    ],
    [
        2,
        0,
        2
    ],
    [
        12,
        0,
        2
    ],
    [
        14,
        0,
        2
    ],
    [
        2,
        2,
        2
    ],
    [
        12,
        2,
        2
    ],
    [
        4,
        4,
        2
    ],
    [
        10,
        4,
        2
    ],
    [
        4,
        10,
        2
    ],
    [
        10,
        10,
        2
    ],
    [
        2,
        12,
        2
    ],
    [
        12,
        12,
        2
    ],
    [
        0,
        14,
        2
    ],
    [
        2,
        14,
        2
    ],
    [
        12,
        14,
        2
    ],
    [
        14,
        14,
        2
    ],
    [
        0,
        0,
        3
    ],
    [
        2,
        0,
        3
    ],
    [
        12,
        0,
        3
    ],
    [
        14,
        0,
        3
    ],
    [
        2,
        2,
        3
    ],
    [
        12,
        2,
        3
    ],
    [
        4,
        4,
        3
    ],
    [
        10,
        4,
        3
    ],
    [
        4,
        10,
        3
    ],
    [
        10,
        10,
        3
    ],
    [
        2,
        12,
        3
    ],
    [
        12,
        12,
        3
    ],
    [
        0,
        14,
        3
    ],
    [
        2,
        14,
        3
    ],
    [
        12,
        14,
        3
    ],
    [
        14,
        14,
        3
    ],
    [
        0,
        0,
        4
    ],
    [
        2,
        0,
        4
    ],
    [
        12,
        0,
        4
    ],
    [
        14,
        0,
        4
    ],
    [
        2,
        2,
        4
    ],
    [
        12,
        2,
        4
    ],
    [
        4,
        4,
        4
    ],
    [
        10,
        4,
        4
    ],
    [
        4,
        10,
        4
    ],
    [
        10,
        10,
        4
    ],
    [
        2,
        12,
        4
    ],
    [
        12,
        12,
        4
    ],
    [
        0,
        14,
        4
    ],
    [
        2,
        14,
        4
    ],
    [
        12,
        14,
        4
    ],
    [
        14,
        14,
        4
    ],
    [
        0,
        0,
        5
    ],
    [
        2,
        0,
        5
    ],
    [
        12,
        0,
        5
    ],
    [
        14,
        0,
        5
    ],
    [
        2,
        2,
        5
    ],
    [
        12,
        2,
        5
    ],
    [
        4,
        4,
        5
    ],
    [
        10,
        4,
        5
    ],
    [
        4,
        10,
        5
    ],
    [
        10,
        10,
        5
    ],
    [
        2,
        12,
        5
    ],
    [
        12,
        12,
        5
    ],
    [
        0,
        14,
        5
    ],
    [
        2,
        14,
        5
    ],
    [
        12,
        14,
        5
    ],
    [
        14,
        14,
        5
    ]
]