[
    [
        6,
        0,
        0
    ],
    [
        8,
        0,
        0
    ],
    [
        2,
        1,
        0
    ],
    [
        12,
        1,
        0
    ],
    [
        0,
        2,
        0
    ],
    [
        4,
        2,
        0
    ],
    [
        6,
        2,
        0
    ],
    [
        8,
        2,
        0
    ],
    [
        10,
        2,
        0
    ],
    [
        14,
        2,
        0
    ],
    [
        0,
        4,
        0
    ],
    [
        4,
        4,
        0
    ],
    [
        10,
        4,
        0
    ],
    [
        14,
        4,
        0
    ],
    [
        2,
        5,
        0
    ],
    [
        6,
        5,
        0
    ],
    [
        8,
        5,
        0
    ],
    [
        12,
        5,
        0
    ],
    [
        0,
        6,
        0
    ],
    [
        4,
        6,
        0
    ],
    [
        10,
        6,
        0
    ],
    [
        14,
        6,
        0
    ],
    [
        0,
        8,
        0
    ],
    [
        4,
        8,
        0
    ],
    [
        6,
        8,
        0
    ],
    [
        8,
        8,
        0
    ],
    [
        10,
        8,
        0
    ],
    [
        14,
        8,
        0
    ],
    [
        2,
        9,
        0
    ],
    [
        12,
        9,
        0
    ],
    [
        6,
        10,
        0
    ],
    [
        8,
        10,
        0
    ],
    [
        6,
        0,
        1
    ],
    [
        8,
        0,
        1
    ],
    [
        4,
        2,
        1
    ],
    [
        6,
        2,
        1
    ],
    [
        8,
        2,
        1
    ],
    [
        10,
        2,
        1
    ],
    [
        0,
        4,
        1
    ],
    [
        4,
        4,
        1
    ],
    [
        10,
        4,
        1
    ],
    [
        14,
        4,
        1
    ],
    [
        2,
        5,
        1
    ],
    [
        6,
        5,
        1
    ],
    [
        8,
        5,
        1
    ],
    [
        12,
        5,
        1
    ],
    [
        0,
        6,
        1
    ],
    [
        4,
        6,
        1
    ],
    [
        10,
        6,
        1
    ],
    [
        14,
        6,
        1
    ],
    [
        4,
        8,
        1
    ],
    [
        6,
        8,
        1
    ],
    [
        8,
        8,
        1
    ],
    [
        10,
        8,
        1
    ],
    [
        6,
        10,
        1
    ],
    [
        8,
        10,
        1
    ],
    [
        4,
        2,
        2
    ],
    [
        6,
        2,
        2
    ],
    [
        8,
        2,
        2
    ],
    [
        10,
        2,
        2
    ],
    [
        4,
        4,
        2
    ],
    [
        10,
        4,
        2
    ],
    [
        2,
        5,
        2
    ],
    [
        6,
        5,
        2
    ],
    [
        8,
        5,
        2
    ],
    [
        12,
        5,
        2
    ],
    [
        4,
        6,
        2
    ],
    [
        10,
        6,
        2
    ],
    [
        4,
        8,
        2
    ],
    [
        6,
        8,
        2
    ],
    [
        8,
        8,
        2
    ],
    [
        10,
        8,
        2
    ],
    [
        4,
        2,
        3
    ],
    [
        6,
        2,
        3
    ],
    [
        8,
        2,
        3
    ],
    [
        10,
        2,
        3
    ],
    [
        4,
        4,
        3
    ],
    [
        10,
        4,
        3
    ],
    [
        2,
        5,
        3
    ],
    [
        6,
        5,
        3
    ],
    [
        8,
        5,
        3
    ],
    [
        12,
        5,
        3
    ],
    [
        4,
        6,
        3
    ],
    [
        10,
        6,
        3
    ],
    [
        4,
        8,
        3
    ],
    [
        6,
        8,
        3
    ],
    [
        8,
        8,
        3
    ],
    [
        10,
        8,
        3
    ],
    [
        4,
        2,
        4
    ],
    [
        6,
        2,
        4
    ],
    [
        8,
        2,
        4
    ],
    [
        10,
        2,
        4
    ],
    [
        4,
        4,
        4
    ],
    [
        10,
        4,
        4
    ],
    [
        2,
        5,
        4
    ],
    [
        6,
        5,
        4
    ],
    [
        8,
        5,
        4
    ],
    [
        12,
        5,
        4
    ],
    [
        4,
        6,
        4
    ],
    [
        10,
        6,
        4
    ],
    [
        4,
        8,
        4
    ],
    [
        6,
        8,
        4
    ],
    [
        8,
        8,
        4
    ],
    [
        10,
        8,
        4
    ],
    [
        6,
        2,
        5
    ],
    [
        8,
        2,
        5
    ],
    [
        4,
        4,
        5
    ],
    [
        10,
        4,
        5
    ],
    [
        4,
        6,
        5
    ],
    [
        10,
        6,
        5
    ],
    [
        6,
        8,
        5
    ],
    [
        8,
        8,
        5
    ],
    [
        6,
        2,
        6
    ],
    [
        8,
        2,
        6
    ],
    [
        4,
        4,
        6
    ],
    [
        10,
        4,
        6
    ],
    [
        4,
        6,
        6
    ],
    [
        10,
        6,
        6
    ],
    [
        6,
        8,
        6
    ],
    [
        8,
        8,
        6
    ],
    [
        6,
        2,
        7
    ],
    [
        8,
        2,
        7
    ],
    [
        4,
        4,
        7
    ],
    [
        10,
        4,
        7
    ],
    [
        4,
        6,
        7
    ],
    [
        10,
        6,
        7
    ],
    [
        6,
        8,
        7
    ],
    [
        8,
        8,
        7
    ]
]