[
    [
        4,
        0,
        0
    ],
    [
        10,
        0,
        0
    ],
    [
        6,
        1,
        0
    ],
    [
        8,
        1,
        0
    ],
    [
        3,
        2,
        0
    ],
    [
        11,
        2,
        0
    ],
    [
        1,
        3,
        0
    ],
    [
        6,
        3,
        0
    ],
    [
        8,
        3,
        0
    ],
    [
        13,
        3,
        0
    ],
    [
        3,
        4,
        0
    ],
    [
        11,
        4,
        0
    ],
    [
        0,
        5,
        0
    ],
    [
        6,
        5,
        0
    ],
    [
        8,
        5,
        0
    ],
    [
        14,
        5,
        0
    ],
    [
        3,
        6,
        0
    ],
    [
        11,
        6,
        0
    ],
    [
        1,
        7,
        0
    ],
    [
        5,
        7,
        0
    ],
    [
        9,
        7,
        0
    ],
    [
        13,
        7,
        0
    ],
    [
        3,
        8,
        0
    ],
    [
        11,
        8,
        0
    ],
    [
        0,
        9,
        0
    ],
    [
        6,
        9,
        0
    ],
    [
        8,
        9,
        0
    ],
    [
        14,
        9,
        0
    ],
    [
        3,
        10,
        0
    ],
    [
        11,
        10,
        0
    ],
    [
        1,
        11,
        0
    ],
    [
        6,
        11,
        0
    ],
    [
        8,
        11,
        0
    ],
    [
        13,
        11,
        0
    ],
    [
        3,
        12,
        0
    ],
    [
        11,
        12,
        0
    ],
    [
        6,
        13,
        0
    ],
    [
        8,
        13,
        0
    ],
    [
        4,
        14,
        0
    ],
    [
        10,
        14,
        0
    ],
    [
        4,
        0,
        1
    ],
    [
        10,
        0,
        1
    ],
    [
        3,
        2,
        1
    ],
    [
        11,
        2,
        1
    ],
    [
        1,
        3,
        1
    ],
    [
        6,
        3,
        1
    ],
    [
        8,
        3,
        1
    ],
    [
        13,
        3,
        1
    ],
    [
        3,
        4,
        1
    ],
    [
        11,
        4,
        1
    ],
    [
        6,
        5,
        1
    ],
    [
        8,
        5,
        1
    ],
    [
        3,
        6,
        1
    ],
    [
        11,
        6,
        1
    ],
    [
        1,
        7,
        1
    ],
    [
        5,
        7,
        1
    ],
    [
        9,
        7,
        1
    ],
    [
        13,
        7,
        1
    ],
    [
        3,
        8,
        1
    ],
    [
        11,
        8,
        1
    ],
    [
        6,
        9,
        1
    ],
    [
        8,
        9,
        1
    ],
    [
        3,
        10,
        1
    ],
    [
        11,
        10,
        1
    ],
    [
        1,
        11,
        1
    ],
    [
        6,
        11,
        1
    ],
    [
        8,
        11,
        1
    ],
    [
        13,
        11,
        1
    ],
    [
        3,
        12,
        1
    ],
    [
        11,
        12,
        1
    ],
    [
        4,
        14,
        1
    ],
    [
        10,
        14,
        1
    ],
    [
        4,
        0,
        2
    ],
    [
        10,
        0,
        2
    ],
    [
        3,
        2,
        2
    ],
    [
        11,
        2,
        2
    ],
    [
        1,
        3,
        2
    ],
    [
        6,
        3,
        2
    ],
    [
        8,
        3,
        2
    ],
    [
        13,
        3,
        2
    ],
    [
        3,
        4,
        2
    ],
    [
        11,
        4,
        2
    ],
    [
        6,
        5,
        2
    ],
    [
        8,
        5,
        2
    ],
    [
        3,
        6,
        2
    ],
    [
        11,
        6,
        2
    ],
    [
        1,
        7,
        2
    ],
    [
        5,
        7,
        2
    ],
    [
        9,
        7,
        2
    ],
    [
        13,
        7,
        2
    ],
    [
        3,
        8,
        2
    ],
    [
        11,
        8,
        2
    ],
    [
        6,
        9,
        2
    ],
    [
        8,
        9,
        2
    ],
    [
        3,
        10,
        2
    ],
    [
        11,
        10,
        2
    ],
    [
        1,
        11,
        2
    ],
    [
        6,
        11,
        2
    ],
    [
        8,
        11,
        2
    ],
    [
        13,
        11,
        2
    ],
    [
        3,
        12,
        2
    ],
    [
        11,
        12,
        2
    ],
    [
        4,
        14,
        2
    ],
    [
        10,
        14,
        2
    ],
    [
        3,
        2,
        3
    ],
    [
        11,
        2,
        3
    ],
    [
        6,
        3,
        3
    ],
    [
        8,
        3,
        3
    ],
    [
        3,
        4,
        3
    ],
    [
        11,
        4,
        3
    ],
    [
        6,
        5,
        3
    ],
    [
        8,
        5,
        3
    ],
    [
        6,
        9,
        3
    ],
    [
        8,
        9,
        3
    ],
    [
        3,
        10,
        3
    ],
    [
        11,
        10,
        3
    ],
    [
        6,
        11,
        3
    ],
    [
        8,
        11,
        3
    ],
    [
        3,
        12,
        3
    ],
    [
        11,
        12,
        3
    ],
    [
        3,
        2,
        4
    ],
    [
        11,
        2,
        4
    ],
    [
        6,
        3,
        4
    ],
    [
        8,
        3,
        4
    ],
    [
        3,
        4,
        4
    ],
    [
        11,
        4,
        4
    ],
    [
        6,
        5,
        4
    ],
    [
        8,
        5,
        4
    ],
    [
        6,
        9,
        4
    ],
    [
        8,
        9,
        4
    ],
    [
        3,
        10,
        4
    ],
    [
        11,
        10,
        4
    ],
    [
        6,
        11,
        4
    ],
    [
        8,
        11,
        4
    ],
    [
        3,
        12,
        4
    ],
    [
        11,
        12,
        4
    ],
    [
        3,
        2,
        5
    ],
    [
        11,
        2,
        5
    ],
    [
        6,
        3,
        5
    ],
    [
        8,
        3,
        5
    ],
    [
        3,
        4,
        5
    ],
    [
        11,
        4,
        5
    ],
    [
        6,
        5,
        5
    ],
    [
        8,
        5,
        5
    ],
    [
        6,
        9,
        5
    ],
    [
        8,
        9,
        5
    ],
    [
        3,
        10,
        5
    ],
    [
        11,
        10,
        5
    ],
    [
        6,
        11,
        5
    ],
    [
        8,
        11,
        5
    ],
    [
        3,
        12,
        5
    ],
    [
        11,
        12,
        5
    ],
    [
        3,
        4,
        6
    ],
    [
        11,
        4,
        6
    ],
    [
        6,
        5,
        6
    ],
    [
        8,
        5,
        6
    ],
    [
        6,
        9,
        6
    ],
    [
        8,
        9,
        6
    ],
    [
        3,
        10,
        6
    ],
    [
        11,
        10,
        6
    ]
]