[
    [
        4,
        0,
        0
    ],
    [
        6,
        0,
        0
    ],
    [
        8,
        0,
        0
    ],
    [
        10,
        0,
        0
    ],
    [
        2,
        2,
        0
    ],
    [
        4,
        2,
        0
    ],
    [
        6,
        2,
        0
    ],
    [
        8,
        2,
        0
    ],
    [
        10,
        2,
        0
    ],
    [
        12,
        2,
        0
    ],
    [
        3,
        4,
        0
    ],
    [
        5,
        4,
        0
    ],
    [
        7,
        4,
        0
    ],
    [
        9,
        4,
        0
    ],
    [
        11,
        4,
        0
    ],
    [
        0,
        6,
        0
    ],
    [
        2,
        6,
        0
    ],
    [
        4,
        6,
        0
    ],
    [
        6,
        6,
        0
    ],
    [
        8,
        6,
        0
    ],
    [
        10,
        6,
        0
    ],
    [
        12,
        6,
        0
    ],
    [
        14,
        6,
        0
    ],
    [
        0,
        8,
        0
    ],
    [
        2,
        8,
        0
    ],
    [
        4,
        8,
        0
    ],
    [
        6,
        8,
        0
    ],
    [
        8,
        8,
        0
    ],
    [
        10,
        8,
        0
    ],
    [
        12,
        8,
        0
    ],
    [
        14,
        8,
        0
    ],
    [
        3,
        10,
        0
    ],
    [
        5,
        10,
        0
    ],
    [
        7,
        10,
        0
    ],
    [
        9,
        10,
        0
    ],
    [
        11,
        10,
        0
    ],
    [
        2,
        12,
        0
    ],
    [
        4,
        12,
        0
    ],
    [
        6,
        12,
        0
    ],
    [
        8,
        12,
        0
    ],
    [
        10,
        12,
        0
    ],
    [
        12,
        12,
        0
    ],
    [
        4,
        14,
        0
    ],
    [
        6,
        14,
        0
    ],
    [
        8,
        14,
        0
    ],
    [
        10,
        14,
        0
    ],
    [
        4,
        0,
        1
    ],
    [
        6,
        0,
        1
    ],
    [
        8,
        0,
        1
    ],
    [
        10,
        0,
        1
    ],
    [
        4,
        2,
        1
    ],
    [
        6,
        2,
        1
    ],
    [
        8,
        2,
        1
    ],
    [
        10,
        2,
        1
    ],
    [
        4,
        4,
        1
    ],
    [
        6,
        4,
        1
    ],
    [
        8,
        4,
        1
    ],
    [
        10,
        4,
        1
    ],
    [
        4,
        6,
        1
    ],
    [
        6,
        6,
        1
    ],
    [
        8,
        6,
        1
    ],
    [
        10,
        6,
        1
    ],
    [
        2,
        7,
        1
    ],
    [
        12,
        7,
        1
    ],
    [
        4,
        8,
        1
    ],
    [
        6,
        8,
        1
    ],
    [
        8,
        8,
        1
    ],
    [
        10,
        8,
        1
    ],
    [
        4,
        10,
        1
    ],
    [
        6,
        10,
        1
    ],
    [
        8,
        10,
        1
    ],
    [
        10,
        10,
        1
    ],
    [
        4,
        12,
        1
    ],
    [
        6,
        12,
        1
    ],
    [
        8,
        12,
        1
    ],
    [
        10,
        12,
        1
    ],
    [
        4,
        14,
        1
    ],
    [
        6,
        14,
        1
    ],
    [
        8,
        14,
        1
    ],
    [
        10,
        14,
        1
    ],
    [
        6,
        0,
        2
    ],
    [
        8,
        0,
        2
    ],
    [
        6,
        2,
        2
    ],
    [
        8,
        2,
        2
    ],
    [
        6,
        4,
        2
    ],
    [
        8,
        4,
        2
    ],
    [
        6,
        6,
        2
    ],
    [
        8,
        6,
        2
    ],
    [
        6,
        8,
        2
    ],
    [
        8,
        8,
        2
    ],
    [
        6,
        10,
        2
    ],
    [
        8,
        10,
        2
    ],
    [
        6,
        12,
        2
    ],
    [
        8,
        12,
        2
    ],
    [
        6,
        14,
        2
    ],
    [
        8,
        14,
        2
    ],
    [
        6,
        2,
        3
    ],
    [
        8,
        2,
        3
    ],
    [
        6,
        4,
        3
    ],
    [
        8,
        4,
        3
    ],
    [
        6,
        10,
        3
    ],
    [
        8,
        10,
        3
    ],
    [
        6,
        12,
        3
    ],
    [
        8,
        12,
        3
    ],
    [
        6,
        2,
        4
    ],
    [
        8,
        2,
        4
    ],
    [
        6,
        4,
        4
    ],
    [
        8,
        4,
        4
    ],
    [
        6,
        10,
        4
    ],
    [
        8,
        10,
        4
    ],
    [
        6,
        12,
        4
    ],
    [
        8,
        12,
        4
    ]
]