[
    [
        6,
        9,
        0
    ],
    [
        4,
        10,
        0
    ],
    [
        8,
        10,
        0
    ],
    [
        12,
        10,
        0
    ],
    [
        10,
        11,
        0
    ],
    [
        14,
        11,
        0
    ],
    [
        4,
        12,
        0
    ],
    [
        6,
        12,
        0
    ],
    [
        8,
        12,
        0
    ],
    [
        12,
        12,
        0
    ],
    [
        4,
        14,
        0
    ],
    [
        8,
        14,
        0
    ],
    [
        10,
        14,
        0
    ],
    [
        12,
        14,
        0
    ],
    [
        14,
        14,
        0
    ],
    [
        6,
        15,
        0
    ],
    [
        4,
        16,
        0
    ],
    [
        8,
        16,
        0
    ],
    [
        12,
        16,
        0
    ],
    [
        10,
        17,
        0
    ],
    [
        14,
        17,
        0
    ],
    [
        4,
        18,
        0
    ],
    [
        6,
        18,
        0
    ],
    [
        8,
        18,
        0
    ],
    [
        12,
        18,
        0
    ],
    [
        4,
        20,
        0
    ],
    [
        8,
        20,
        0
    ],
    [
        10,
        20,
        0
    ],
    [
        12,
        20,
        0
    ],
    [
        14,
        20,
        0
    ],
    [
        6,
        21,
        0
    ],
    [
        4,
        22,
        0
    ],
    [
        8,
        22,
        0
    ],
    [
        12,
        22,
        0
    ],
    [
        10,
        23,
        0
    ],
    [
        14,
        23,
        0
    ],
    [
        6,
        24,
        0
    ],
    [
        12,
        24,
        0
    ],
    [
        6,
        9,
        1
    ],
    [
        4,
        10,
        1
    ],
    [
        8,
        10,
        1
    ],
    [
        12,
        10,
        1
    ],
    [
        10,
        11,
        1
    ],
    [
        14,
        11,
        1
    ],
    [
        4,
        12,
        1
    ],
    [
        6,
        12,
        1
    ],
    [
        8,
        12,
        1
    ],
    [
        12,
        12,
        1
    ],
    [
        4,
        14,
        1
    ],
    [
        8,
        14,
        1
    ],
    [
        10,
        14,
        1
    ],
    [
        12,
        14,
        1
    ],
    [
        14,
        14,
        1
    ],
    [
        6,
        15,
        1
    ],
    [
        4,
        16,
        1
    ],
    [
        8,
        16,
        1
    ],
    [
        12,
        16,
        1
    ],
    [
        10,
        17,
        1
    ],
    [
        14,
        17,
        1
    ],
    [
        4,
        18,
        1
    ],
    [
        6,
        18,
        1
    ],
    [
        8,
        18,
        1
    ],
    [
        12,
        18,
        1
    ],
    [
        4,
        20,
        1
    ],
    [
        8,
        20,
        1
    ],
    [
        10,
        20,
        1
    ],
    [
        12,
        20,
        1
    ],
    [
        14,
        20,
        1
    ],
    [
        6,
        21,
        1
    ],
    [
        4,
        22,
        1
    ],
    [
        8,
        22,
        1
    ],
    [
        12,
        22,
        1
    ],
    [
        10,
        23,
        1
    ],
    [
        14,
        23,
        1
    ],
    [
        6,
        24,
        1
    ],
    [
        12,
        24,
        1
    ],
    [
        6,
        9,
        2
    ],
    [
        4,
        10,
        2
    ],
    [
        8,
        10,
        2
    ],
    [
        12,
        10,
        2
    ],
    [
        10,
        11,
        2
    ],
    [
        14,
        11,
        2
    ],
    [
        4,
        12,
        2
    ],
    [
        6,
        12,
        2
    ],
    [
        8,
        12,
        2
    ],
    [
        12,
        12,
        2
    ],
    [
        4,
        14,
        2
    ],
    [
        8,
        14,
        2
    ],
    [
        10,
        14,
        2
    ],
    [
        12,
        14,
        2
    ],
    [
        14,
        14,
        2
    ],
    [
        6,
        15,
        2
    ],
    [
        4,
        16,
        2
    ],
    [
        8,
        16,
        2
    ],
    [
        12,
        16,
        2
    ],
    [
        10,
        17,
        2
    ],
    [
        14,
        17,
        2
    ],
    [
        4,
        18,
        2
    ],
    [
        6,
        18,
        2
    ],
    [
        8,
        18,
        2
    ],
    [
        12,
        18,
        2
    ],
    [
        4,
        20,
        2
    ],
    [
        8,
        20,
        2
    ],
    [
        10,
        20,
        2
    ],
    [
        12,
        20,
        2
    ],
    [
        14,
        20,
        2
    ],
    [
        6,
        21,
        2
    ],
    [
        4,
        22,
        2
    ],
    [
        8,
        22,
        2
    ],
    [
        12,
        22,
        2
    ],
    [
        10,
        23,
        2
    ],
    [
        14,
        23,
        2
    ],
    [
        6,
        24,
        2
    ],
    [
        12,
        24,
        2
    ],
    [
        6,
        9,
        3
    ],
    [
        4,
        10,
        3
    ],
    [
        8,
        10,
        3
    ],
    [
        12,
        10,
        3
    ],
    [
        10,
        11,
        3
    ],
    [
        14,
        11,
        3
    ],
    [
        4,
        12,
        3
    ],
    [
        6,
        12,
        3
    ],
    [
        8,
        12,
        3
    ],
    [
        12,
        12,
        3
    ],
    [
        4,
        14,
        3
    ],
    [
        8,
        14,
        3
    ],
    [
        10,
        14,
        3
    ],
    [
        12,
        14,
        3
    ],
    [
        14,
        14,
        3
    ],
    [
        6,
        15,
        3
    ],
    [
        4,
        16,
        3
    ],
    [
        8,
        16,
        3
    ],
    [
        12,
        16,
        3
    ],
    [
        10,
        17,
        3
    ],
    [
        14,
        17,
        3
    ],
    [
        4,
        18,
        3
    ],
    [
        6,
        18,
        3
    ],
    [
        8,
        18,
        3
    ],
    [
        12,
        18,
        3
    ],
    [
        4,
        20,
        3
    ],
    [
        8,
        20,
        3
    ],
    [
        10,
        20,
        3
    ],
    [
        12,
        20,
        3
    ],
    [
        14,
        20,
        3
    ],
    [
        6,
        21,
        3
    ],
    [
        4,
        22,
        3
    ],
    [
        8,
        22,
        3
    ],
    [
        12,
        22,
        3
    ],
    [
        10,
        23,
        3
    ],
    [
        14,
        23,
        3
    ],
    [
        6,
        24,
        3
    ],
    [
        12,
        24,
        3
    ]
]