[
    [
        4,
        7,
        0
    ],
    [
        6,
        7,
        0
    ],
    [
        8,
        7,
        0
    ],
    [
        10,
        7,
        0
    ],
    [
        12,
        7,
        0
    ],
    [
        14,
        7,
        0
    ],
    [
        3,
        9,
        0
    ],
    [
        5,
        9,
        0
    ],
    [
        7,
        9,
        0
    ],
    [
        9,
        9,
        0
    ],
    [
        11,
        9,
        0
    ],
    [
        13,
        9,
        0
    ],
    [
        2,
        11,
        0
    ],
    [
        4,
        11,
        0
    ],
    [
        6,
        11,
        0
    ],
    [
        8,
        11,
        0
    ],
    [
        10,
        11,
        0
    ],
    [
        12,
        11,
        0
    ],
    [
        14,
        11,
        0
    ],
    [
        1,
        13,
        0
    ],
    [
        3,
        13,
        0
    ],
    [
        5,
        13,
        0
    ],
    [
        7,
        13,
        0
    ],
    [
        9,
        13,
        0
    ],
    [
        11,
        13,
        0
    ],
    [
        13,
        13,
        0
    ],
    [
        15,
        13,
        0
    ],
    [
        1,
        15,
        0
    ],
    [
        3,
        15,
        0
    ],
    [
        5,
        15,
        0
    ],
    [
        7,
        15,
        0
    ],
    [
        9,
        15,
        0
    ],
    [
        11,
        15,
        0
    ],
    [
        13,
        15,
        0
    ],
    [
        15,
        15,
        0
    ],
    [
        2,
        17,
        0
    ],
    [
        4,
        17,
        0
    ],
    [
        6,
        17,
        0
    ],
    [
        8,
        17,
        0
    ],
    [
        10,
        17,
        0
    ],
    [
        12,
        17,
        0
    ],
    [
        14,
        17,
        0
    ],
    [
        3,
        19,
        0
    ],
    [
        5,
        19,
        0
    ],
    [
        7,
        19,
        0
    ],
    [
        9,
        19,
        0
    ],
    [
        11,
        19,
        0
    ],
    [
        13,
        19,
        0
    ],
    [
        15,
        19,
        0
    ],
    [
        2,
        21,
        0
    ],
    [
        4,
        21,
        0
    ],
    [
        6,
        21,
        0
    ],
    [
        8,
        21,
        0
    ],
    [
        10,
        21,
        0
    ],
    [
        12,
        21,
        0
    ],
    [
        5,
        23,
        0
    ],
    [
        7,
        23,
        0
    ],
    [
        9,
        23,
        0
    ],
    [
        11,
        23,
        0
    ],
    [
        4,
        7,
        1
    ],
    [
        6,
        7,
        1
    ],
    [
        8,
        7,
        1
    ],
    [
        10,
        7,
        1
    ],
    [
        12,
        7,
        1
    ],
    [
        14,
        7,
        1
    ],
    [
        3,
        9,
        1
    ],
    [
        5,
        9,
        1
    ],
    [
        7,
        9,
        1
    ],
    [
        9,
        9,
        1
    ],
    [
        11,
        9,
        1
    ],
    [
        13,
        9,
        1
    ],
    [
        2,
        11,
        1
    ],
    [
        4,
        11,
        1
    ],
    [
        6,
        11,
        1
    ],
    [
        8,
        11,
        1
    ],
    [
        10,
        11,
        1
    ],
    [
        12,
        11,
        1
    ],
    [
        14,
        11,
        1
    ],
    [
        1,
        13,
        1
    ],
    [
        3,
        13,
        1
    ],
    [
        5,
        13,
        1
    ],
    [
        7,
        13,
        1
    ],
    [
        9,
        13,
        1
    ],
    [
        11,
        13,
        1
    ],
    [
        13,
        13,
        1
    ],
    [
        15,
        13,
        1
    ],
    [
        1,
        15,
        1
    ],
    [
        3,
        15,
        1
    ],
    [
        5,
        15,
        1
    ],
    [
        7,
        15,
        1
    ],
    [
        9,
        15,
        1
    ],
    [
        11,
        15,
        1
    ],
    [
        13,
        15,
        1
    ],
    [
        15,
        15,
        1
    ],
    [
        2,
        17,
        1
    ],
    [
        4,
        17,
        1
    ],
    [
        6,
        17,
        1
    ],
    [
        8,
        17,
        1
    ],
    [
        10,
        17,
        1
    ],
    [
        12,
        17,
        1
    ],
    [
        14,
        17,
        1
    ],
    [
        3,
        19,
        1
    ],
    [
        5,
        19,
        1
    ],
    [
        7,
        19,
        1
    ],
    [
        9,
        19,
        1
    ],
    [
        11,
        19,
        1
    ],
    [
        13,
        19,
        1
    ],
    [
        15,
        19,
        1
    ],
    [
        2,
        21,
        1
    ],
    [
        4,
        21,
        1
    ],
    [
        6,
        21,
        1
    ],
    [
        8,
        21,
        1
    ],
    [
        10,
        21,
        1
    ],
    [
        12,
        21,
        1
    ],
    [
        5,
        23,
        1
    ],
    [
        7,
        23,
        1
    ],
    [
        9,
        23,
        1
    ],
    [
        11,
        23,
        1
    ],
    [
        6,
        11,
        2
    ],
    [
        8,
        11,
        2
    ],
    [
        10,
        11,
        2
    ],
    [
        5,
        13,
        2
    ],
    [
        7,
        13,
        2
    ],
    [
        9,
        13,
        2
    ],
    [
        11,
        13,
        2
    ],
    [
        5,
        15,
        2
    ],
    [
        7,
        15,
        2
    ],
    [
        9,
        15,
        2
    ],
    [
        11,
        15,
        2
    ],
    [
        6,
        17,
        2
    ],
    [
        8,
        17,
        2
    ],
    [
        10,
        17,
        2
    ],
    [
        6,
        11,
        3
    ],
    [
        8,
        11,
        3
    ],
    [
        10,
        11,
        3
    ],
    [
        5,
        13,
        3
    ],
    [
        7,
        13,
        3
    ],
    [
        9,
        13,
        3
    ],
    [
        11,
        13,
        3
    ],
    [
        5,
        15,
        3
    ],
    [
        7,
        15,
        3
    ],
    [
        9,
        15,
        3
    ],
    [
        11,
        15,
        3
    ],
    [
        6,
        17,
        3
    ],
    [
        8,
        17,
        3
    ],
    [
        10,
        17,
        3
    ],
    [
        7,
        13,
        4
    ],
    [
        9,
        13,
        4
    ],
    [
        7,
        15,
        4
    ],
    [
        9,
        15,
        4
    ]
]