[
    [
        9,
        7,
        0
    ],
    [
        5,
        8,
        0
    ],
    [
        11,
        8,
        0
    ],
    [
        7,
        9,
        0
    ],
    [
        9,
        9,
        0
    ],
    [
        2,
        10,
        0
    ],
    [
        4,
        10,
        0
    ],
    [
        13,
        10,
        0
    ],
    [
        6,
        11,
        0
    ],
    [
        8,
        11,
        0
    ],
    [
        10,
        11,
        0
    ],
    [
        2,
        12,
        0
    ],
    [
        13,
        12,
        0
    ],
    [
        15,
        12,
        0
    ],
    [
        4,
        13,
        0
    ],
    [
        6,
        13,
        0
    ],
    [
        9,
        13,
        0
    ],
    [
        11,
        14,
        0
    ],
    [
        13,
        14,
        0
    ],
    [
        15,
        14,
        0
    ],
    [
        3,
        15,
        0
    ],
    [
        5,
        15,
        0
    ],
    [
        7,
        15,
        0
    ],
    [
        9,
        15,
        0
    ],
    [
        1,
        16,
        0
    ],
    [
        11,
        16,
        0
    ],
    [
        13,
        16,
        0
    ],
    [
        15,
        16,
        0
    ],
    [
        5,
        17,
        0
    ],
    [
        9,
        17,
        0
    ],
    [
        1,
        18,
        0
    ],
    [
        3,
        18,
        0
    ],
    [
        7,
        18,
        0
    ],
    [
        11,
        18,
        0
    ],
    [
        13,
        18,
        0
    ],
    [
        15,
        18,
        0
    ],
    [
        5,
        19,
        0
    ],
    [
        9,
        19,
        0
    ],
    [
        1,
        20,
        0
    ],
    [
        11,
        20,
        0
    ],
    [
        13,
        20,
        0
    ],
    [
        15,
        20,
        0
    ],
    [
        3,
        21,
        0
    ],
    [
        5,
        21,
        0
    ],
    [
        7,
        21,
        0
    ],
    [
        9,
        21,
        0
    ],
    [
        11,
        22,
        0
    ],
    [
        13,
        22,
        0
    ],
    [
        15,
        22,
        0
    ],
    [
        4,
        23,
        0
    ],
    [
        6,
        23,
        0
    ],
    [
        9,
        23,
        0
    ],
    [
        9,
        8,
        1
    ],
    [
        11,
        8,
        1
    ],
    [
        6,
        9,
        1
    ],
    [
        10,
        10,
        1
    ],
    [
        12,
        10,
        1
    ],
    [
        3,
        11,
        1
    ],
    [
        7,
        11,
        1
    ],
    [
        11,
        12,
        1
    ],
    [
        13,
        12,
        1
    ],
    [
        7,
        13,
        1
    ],
    [
        9,
        13,
        1
    ],
    [
        3,
        14,
        1
    ],
    [
        11,
        14,
        1
    ],
    [
        13,
        14,
        1
    ],
    [
        15,
        14,
        1
    ],
    [
        5,
        15,
        1
    ],
    [
        9,
        15,
        1
    ],
    [
        2,
        16,
        1
    ],
    [
        7,
        16,
        1
    ],
    [
        11,
        16,
        1
    ],
    [
        13,
        16,
        1
    ],
    [
        15,
        16,
        1
    ],
    [
        4,
        17,
        1
    ],
    [
        9,
        17,
        1
    ],
    [
        6,
        18,
        1
    ],
    [
        11,
        18,
        1
    ],
    [
        13,
        18,
        1
    ],
    [
        15,
        18,
        1
    ],
    [
        4,
        19,
        1
    ],
    [
        9,
        19,
        1
    ],
    [
        2,
        20,
        1
    ],
    [
        7,
        20,
        1
    ],
    [
        11,
        20,
        1
    ],
    [
        13,
        20,
        1
    ],
    [
        15,
        20,
        1
    ],
    [
        9,
        21,
        1
    ],
    [
        3,
        22,
        1
    ],
    [
        11,
        22,
        1
    ],
    [
        13,
        22,
        1
    ],
    [
        15,
        22,
        1
    ],
    [
        7,
        23,
        1
    ],
    [
        9,
        23,
        1
    ],
    [
        11,
        12,
        2
    ],
    [
        13,
        12,
        2
    ],
    [
        9,
        13,
        2
    ],
    [
        11,
        14,
        2
    ],
    [
        13,
        14,
        2
    ],
    [
        15,
        14,
        2
    ],
    [
        9,
        15,
        2
    ],
    [
        7,
        16,
        2
    ],
    [
        11,
        16,
        2
    ],
    [
        15,
        16,
        2
    ],
    [
        3,
        17,
        2
    ],
    [
        9,
        17,
        2
    ],
    [
        1,
        18,
        2
    ],
    [
        5,
        18,
        2
    ],
    [
        7,
        18,
        2
    ],
    [
        12,
        18,
        2
    ],
    [
        3,
        19,
        2
    ],
    [
        9,
        19,
        2
    ],
    [
        7,
        20,
        2
    ],
    [
        11,
        20,
        2
    ],
    [
        15,
        20,
        2
    ],
    [
        9,
        21,
        2
    ],
    [
        11,
        22,
        2
    ],
    [
        13,
        22,
        2
    ],
    [
        15,
        22,
        2
    ],
    [
        9,
        23,
        2
    ],
    [
        13,
        14,
        3
    ],
    [
        11,
        16,
        3
    ],
    [
        9,
        17,
        3
    ],
    [
        11,
        18,
        3
    ],
    [
        9,
        19,
        3
    ],
    [
        11,
        20,
        3
    ]
]