[
    [
        3,
        5,
        0
    ],
    [
        5,
        5,
        0
    ],
    [
        7,
        5,
        0
    ],
    [
        9,
        6,
        0
    ],
    [
        11,
        6,
        0
    ],
    [
        13,
        6,
        0
    ],
    [
        15,
        6,
        0
    ],
    [
        3,
        7,
        0
    ],
    [
        5,
        7,
        0
    ],
    [
        7,
        7,
        0
    ],
    [
        3,
        9,
        0
    ],
    [
        5,
        9,
        0
    ],
    [
        7,
        9,
        0
    ],
    [
        9,
        9,
        0
    ],
    [
        11,
        9,
        0
    ],
    [
        13,
        9,
        0
    ],
    [
        15,
        10,
        0
    ],
    [
        3,
        12,
        0
    ],
    [
        5,
        12,
        0
    ],
    [
        7,
        12,
        0
    ],
    [
        11,
        12,
        0
    ],
    [
        13,
        12,
        0
    ],
    [
        15,
        12,
        0
    ],
    [
        9,
        13,
        0
    ],
    [
        3,
        14,
        0
    ],
    [
        5,
        14,
        0
    ],
    [
        7,
        14,
        0
    ],
    [
        9,
        15,
        0
    ],
    [
        11,
        15,
        0
    ],
    [
        13,
        15,
        0
    ],
    [
        15,
        15,
        0
    ],
    [
        3,
        16,
        0
    ],
    [
        5,
        16,
        0
    ],
    [
        7,
        16,
        0
    ],
    [
        15,
        17,
        0
    ],
    [
        3,
        18,
        0
    ],
    [
        5,
        18,
        0
    ],
    [
        7,
        18,
        0
    ],
    [
        9,
        18,
        0
    ],
    [
        13,
        18,
        0
    ],
    [
        11,
        19,
        0
    ],
    [
        3,
        20,
        0
    ],
    [
        5,
        20,
        0
    ],
    [
        7,
        20,
        0
    ],
    [
        13,
        20,
        0
    ],
    [
        15,
        20,
        0
    ],
    [
        3,
        5,
        1
    ],
    [
        5,
        5,
        1
    ],
    [
        7,
        5,
        1
    ],
    [
        9,
        6,
        1
    ],
    [
        11,
        6,
        1
    ],
    [
        13,
        6,
        1
    ],
    [
        15,
        6,
        1
    ],
    [
        3,
        7,
        1
    ],
    [
        5,
        7,
        1
    ],
    [
        7,
        7,
        1
    ],
    [
        3,
        9,
        1
    ],
    [
        5,
        9,
        1
    ],
    [
        7,
        9,
        1
    ],
    [
        9,
        9,
        1
    ],
    [
        11,
        9,
        1
    ],
    [
        13,
        9,
        1
    ],
    [
        15,
        10,
        1
    ],
    [
        3,
        12,
        1
    ],
    [
        5,
        12,
        1
    ],
    [
        7,
        12,
        1
    ],
    [
        11,
        12,
        1
    ],
    [
        13,
        12,
        1
    ],
    [
        15,
        12,
        1
    ],
    [
        9,
        13,
        1
    ],
    [
        3,
        14,
        1
    ],
    [
        5,
        14,
        1
    ],
    [
        7,
        14,
        1
    ],
    [
        9,
        15,
        1
    ],
    [
        11,
        15,
        1
    ],
    [
        13,
        15,
        1
    ],
    [
        15,
        15,
        1
    ],
    [
        3,
        16,
        1
    ],
    [
        5,
        16,
        1
    ],
    [
        7,
        16,
        1
    ],
    [
        15,
        17,
        1
    ],
    [
        3,
        18,
        1
    ],
    [
        5,
        18,
        1
    ],
    [
        7,
        18,
        1
    ],
    [
        9,
        18,
        1
    ],
    [
        13,
        18,
        1
    ],
    [
        11,
        19,
        1
    ],
    [
        3,
        20,
        1
    ],
    [
        5,
        20,
        1
    ],
    [
        7,
        20,
        1
    ],
    [
        13,
        20,
        1
    ],
    [
        15,
        20,
        1
    ],
    [
        3,
        5,
        2
    ],
    [
        5,
        5,
        2
    ],
    [
        7,
        5,
        2
    ],
    [
        9,
        6,
        2
    ],
    [
        11,
        6,
        2
    ],
    [
        13,
        6,
        2
    ],
    [
        15,
        6,
        2
    ],
    [
        3,
        7,
        2
    ],
    [
        5,
        7,
        2
    ],
    [
        7,
        7,
        2
    ],
    [
        3,
        9,
        2
    ],
    [
        5,
        9,
        2
    ],
    [
        7,
        9,
        2
    ],
    [
        9,
        9,
        2
    ],
    [
        11,
        9,
        2
    ],
    [
        13,
        9,
        2
    ],
    [
        15,
        10,
        2
    ],
    [
        3,
        12,
        2
    ],
    [
        5,
        12,
        2
    ],
    [
        7,
        12,
        2
    ],
    [
        11,
        12,
        2
    ],
    [
        13,
        12,
        2
    ],
    [
        15,
        12,
        2
    ],
    [
        9,
        13,
        2
    ],
    [
        3,
        14,
        2
    ],
    [
        5,
        14,
        2
    ],
    [
        7,
        14,
        2
    ],
    [
        9,
        15,
        2
    ],
    [
        11,
        15,
        2
    ],
    [
        13,
        15,
        2
    ],
    [
        15,
        15,
        2
    ],
    [
        3,
        16,
        2
    ],
    [
        5,
        16,
        2
    ],
    [
        7,
        16,
        2
    ],
    [
        15,
        17,
        2
    ],
    [
        3,
        18,
        2
    ],
    [
        5,
        18,
        2
    ],
    [
        7,
        18,
        2
    ],
    [
        9,
        18,
        2
    ],
    [
        13,
        18,
        2
    ],
    [
        11,
        19,
        2
    ],
    [
        3,
        20,
        2
    ],
    [
        5,
        20,
        2
    ],
    [
        7,
        20,
        2
    ],
    [
        13,
        20,
        2
    ],
    [
        15,
        20,
        2
    ]
]