[
    [
        7,
        2,
        0
    ],
    [
        11,
        2,
        0
    ],
    [
        13,
        3,
        0
    ],
    [
        3,
        4,
        0
    ],
    [
        5,
        4,
        0
    ],
    [
        7,
        4,
        0
    ],
    [
        9,
        4,
        0
    ],
    [
        11,
        4,
        0
    ],
    [
        13,
        5,
        0
    ],
    [
        15,
        5,
        0
    ],
    [
        3,
        6,
        0
    ],
    [
        5,
        6,
        0
    ],
    [
        7,
        6,
        0
    ],
    [
        9,
        6,
        0
    ],
    [
        11,
        6,
        0
    ],
    [
        13,
        7,
        0
    ],
    [
        15,
        7,
        0
    ],
    [
        3,
        8,
        0
    ],
    [
        13,
        9,
        0
    ],
    [
        15,
        9,
        0
    ],
    [
        5,
        10,
        0
    ],
    [
        7,
        10,
        0
    ],
    [
        9,
        10,
        0
    ],
    [
        13,
        11,
        0
    ],
    [
        15,
        11,
        0
    ],
    [
        5,
        12,
        0
    ],
    [
        7,
        12,
        0
    ],
    [
        9,
        12,
        0
    ],
    [
        13,
        13,
        0
    ],
    [
        15,
        13,
        0
    ],
    [
        5,
        14,
        0
    ],
    [
        7,
        14,
        0
    ],
    [
        9,
        14,
        0
    ],
    [
        13,
        15,
        0
    ],
    [
        15,
        15,
        0
    ],
    [
        1,
        16,
        0
    ],
    [
        3,
        16,
        0
    ],
    [
        5,
        16,
        0
    ],
    [
        7,
        16,
        0
    ],
    [
        9,
        16,
        0
    ],
    [
        11,
        16,
        0
    ],
    [
        13,
        17,
        0
    ],
    [
        15,
        17,
        0
    ],
    [
        2,
        18,
        0
    ],
    [
        5,
        18,
        0
    ],
    [
        7,
        18,
        0
    ],
    [
        9,
        18,
        0
    ],
    [
        13,
        19,
        0
    ],
    [
        15,
        19,
        0
    ],
    [
        2,
        20,
        0
    ],
    [
        5,
        20,
        0
    ],
    [
        7,
        20,
        0
    ],
    [
        9,
        20,
        0
    ],
    [
        13,
        21,
        0
    ],
    [
        15,
        21,
        0
    ],
    [
        2,
        22,
        0
    ],
    [
        5,
        22,
        0
    ],
    [
        7,
        22,
        0
    ],
    [
        9,
        22,
        0
    ],
    [
        11,
        23,
        0
    ],
    [
        13,
        23,
        0
    ],
    [
        15,
        23,
        0
    ],
    [
        7,
        2,
        1
    ],
    [
        11,
        2,
        1
    ],
    [
        3,
        4,
        1
    ],
    [
        5,
        4,
        1
    ],
    [
        7,
        4,
        1
    ],
    [
        9,
        4,
        1
    ],
    [
        11,
        4,
        1
    ],
    [
        13,
        5,
        1
    ],
    [
        3,
        6,
        1
    ],
    [
        13,
        7,
        1
    ],
    [
        15,
        7,
        1
    ],
    [
        3,
        8,
        1
    ],
    [
        13,
        9,
        1
    ],
    [
        7,
        10,
        1
    ],
    [
        15,
        10,
        1
    ],
    [
        13,
        11,
        1
    ],
    [
        5,
        12,
        1
    ],
    [
        7,
        12,
        1
    ],
    [
        9,
        12,
        1
    ],
    [
        13,
        13,
        1
    ],
    [
        15,
        13,
        1
    ],
    [
        5,
        14,
        1
    ],
    [
        7,
        14,
        1
    ],
    [
        9,
        14,
        1
    ],
    [
        13,
        15,
        1
    ],
    [
        1,
        16,
        1
    ],
    [
        3,
        16,
        1
    ],
    [
        5,
        16,
        1
    ],
    [
        7,
        16,
        1
    ],
    [
        9,
        16,
        1
    ],
    [
        11,
        16,
        1
    ],
    [
        15,
        16,
        1
    ],
    [
        13,
        17,
        1
    ],
    [
        5,
        18,
        1
    ],
    [
        7,
        18,
        1
    ],
    [
        9,
        18,
        1
    ],
    [
        13,
        19,
        1
    ],
    [
        15,
        19,
        1
    ],
    [
        5,
        20,
        1
    ],
    [
        7,
        20,
        1
    ],
    [
        9,
        20,
        1
    ],
    [
        13,
        21,
        1
    ],
    [
        2,
        22,
        1
    ],
    [
        7,
        22,
        1
    ],
    [
        15,
        22,
        1
    ],
    [
        11,
        23,
        1
    ],
    [
        13,
        23,
        1
    ],
    [
        15,
        7,
        2
    ],
    [
        15,
        10,
        2
    ],
    [
        15,
        13,
        2
    ],
    [
        5,
        14,
        2
    ],
    [
        7,
        14,
        2
    ],
    [
        9,
        14,
        2
    ],
    [
        3,
        16,
        2
    ],
    [
        5,
        16,
        2
    ],
    [
        7,
        16,
        2
    ],
    [
        9,
        16,
        2
    ],
    [
        15,
        16,
        2
    ],
    [
        5,
        18,
        2
    ],
    [
        7,
        18,
        2
    ],
    [
        9,
        18,
        2
    ],
    [
        15,
        19,
        2
    ],
    [
        15,
        22,
        2
    ],
    [
        5,
        16,
        3
    ],
    [
        7,
        16,
        3
    ],
    [
        9,
        16,
        3
    ]
]