[
    [
        6,
        6,
        0
    ],
    [
        8,
        6,
        0
    ],
    [
        10,
        6,
        0
    ],
    [
        5,
        8,
        0
    ],
    [
        7,
        8,
        0
    ],
    [
        9,
        8,
        0
    ],
    [
        11,
        8,
        0
    ],
    [
        4,
        10,
        0
    ],
    [
        6,
        10,
        0
    ],
    [
        8,
        10,
        0
    ],
    [
        10,
        10,
        0
    ],
    [
        12,
        10,
        0
    ],
    [
        3,
        12,
        0
    ],
    [
        5,
        12,
        0
    ],
    [
        7,
        12,
        0
    ],
    [
        9,
        12,
        0
    ],
    [
        11,
        12,
        0
    ],
    [
        13,
        12,
        0
    ],
    [
        2,
        14,
        0
    ],
    [
        4,
        14,
        0
    ],
    [
        6,
        14,
        0
    ],
    [
        10,
        14,
        0
    ],
    [
        12,
        14,
        0
    ],
    [
        14,
        14,
        0
    ],
    [
        1,
        16,
        0
    ],
    [
        3,
        16,
        0
    ],
    [
        5,
        16,
        0
    ],
    [
        11,
        16,
        0
    ],
    [
        13,
        16,
        0
    ],
    [
        15,
        16,
        0
    ],
    [
        2,
        18,
        0
    ],
    [
        4,
        18,
        0
    ],
    [
        12,
        18,
        0
    ],
    [
        14,
        18,
        0
    ],
    [
        3,
        20,
        0
    ],
    [
        5,
        20,
        0
    ],
    [
        7,
        20,
        0
    ],
    [
        9,
        20,
        0
    ],
    [
        11,
        20,
        0
    ],
    [
        13,
        20,
        0
    ],
    [
        4,
        22,
        0
    ],
    [
        6,
        22,
        0
    ],
    [
        8,
        22,
        0
    ],
    [
        10,
        22,
        0
    ],
    [
        12,
        22,
        0
    ],
    [
        5,
        24,
        0
    ],
    [
        7,
        24,
        0
    ],
    [
        9,
        24,
        0
    ],
    [
        11,
        24,
        0
    ],
    [
        6,
        26,
        0
    ],
    [
        8,
        26,
        0
    ],
    [
        10,
        26,
        0
    ],
    [
        6,
        6,
        1
    ],
    [
        8,
        6,
        1
    ],
    [
        10,
        6,
        1
    ],
    [
        5,
        8,
        1
    ],
    [
        7,
        8,
        1
    ],
    [
        9,
        8,
        1
    ],
    [
        11,
        8,
        1
    ],
    [
        4,
        10,
        1
    ],
    [
        6,
        10,
        1
    ],
    [
        8,
        10,
        1
    ],
    [
        10,
        10,
        1
    ],
    [
        12,
        10,
        1
    ],
    [
        3,
        12,
        1
    ],
    [
        5,
        12,
        1
    ],
    [
        7,
        12,
        1
    ],
    [
        9,
        12,
        1
    ],
    [
        11,
        12,
        1
    ],
    [
        13,
        12,
        1
    ],
    [
        2,
        14,
        1
    ],
    [
        4,
        14,
        1
    ],
    [
        6,
        14,
        1
    ],
    [
        10,
        14,
        1
    ],
    [
        12,
        14,
        1
    ],
    [
        14,
        14,
        1
    ],
    [
        1,
        16,
        1
    ],
    [
        3,
        16,
        1
    ],
    [
        5,
        16,
        1
    ],
    [
        11,
        16,
        1
    ],
    [
        13,
        16,
        1
    ],
    [
        15,
        16,
        1
    ],
    [
        2,
        18,
        1
    ],
    [
        4,
        18,
        1
    ],
    [
        12,
        18,
        1
    ],
    [
        14,
        18,
        1
    ],
    [
        3,
        20,
        1
    ],
    [
        5,
        20,
        1
    ],
    [
        7,
        20,
        1
    ],
    [
        9,
        20,
        1
    ],
    [
        11,
        20,
        1
    ],
    [
        13,
        20,
        1
    ],
    [
        4,
        22,
        1
    ],
    [
        6,
        22,
        1
    ],
    [
        8,
        22,
        1
    ],
    [
        10,
        22,
        1
    ],
    [
        12,
        22,
        1
    ],
    [
        5,
        24,
        1
    ],
    [
        7,
        24,
        1
    ],
    [
        9,
        24,
        1
    ],
    [
        11,
        24,
        1
    ],
    [
        6,
        26,
        1
    ],
    [
        8,
        26,
        1
    ],
    [
        10,
        26,
        1
    ],
    [
        8,
        6,
        2
    ],
    [
        1,
        16,
        2
    ],
    [
        3,
        16,
        2
    ],
    [
        5,
        16,
        2
    ],
    [
        11,
        16,
        2
    ],
    [
        13,
        16,
        2
    ],
    [
        15,
        16,
        2
    ],
    [
        2,
        18,
        2
    ],
    [
        4,
        18,
        2
    ],
    [
        12,
        18,
        2
    ],
    [
        14,
        18,
        2
    ],
    [
        3,
        20,
        2
    ],
    [
        5,
        20,
        2
    ],
    [
        7,
        20,
        2
    ],
    [
        9,
        20,
        2
    ],
    [
        11,
        20,
        2
    ],
    [
        13,
        20,
        2
    ],
    [
        4,
        22,
        2
    ],
    [
        6,
        22,
        2
    ],
    [
        8,
        22,
        2
    ],
    [
        10,
        22,
        2
    ],
    [
        12,
        22,
        2
    ],
    [
        5,
        24,
        2
    ],
    [
        7,
        24,
        2
    ],
    [
        9,
        24,
        2
    ],
    [
        11,
        24,
        2
    ],
    [
        6,
        26,
        2
    ],
    [
        10,
        26,
        2
    ]
]