[
    [
        2,
        0,
        0
    ],
    [
        14,
        0,
        0
    ],
    [
        4,
        1,
        0
    ],
    [
        12,
        1,
        0
    ],
    [
        6,
        2,
        0
    ],
    [
        10,
        2,
        0
    ],
    [
        0,
        3,
        0
    ],
    [
        16,
        3,
        0
    ],
    [
        2,
        4,
        0
    ],
    [
        8,
        4,
        0
    ],
    [
        14,
        4,
        0
    ],
    [
        0,
        5,
        0
    ],
    [
        4,
        5,
        0
    ],
    [
        12,
        5,
        0
    ],
    [
        16,
        5,
        0
    ],
    [
        2,
        6,
        0
    ],
    [
        6,
        6,
        0
    ],
    [
        10,
        6,
        0
    ],
    [
        14,
        6,
        0
    ],
    [
        4,
        7,
        0
    ],
    [
        12,
        7,
        0
    ],
    [
        6,
        8,
        0
    ],
    [
        10,
        8,
        0
    ],
    [
        6,
        11,
        0
    ],
    [
        10,
        11,
        0
    ],
    [
        4,
        12,
        0
    ],
    [
        12,
        12,
        0
    ],
    [
        2,
        13,
        0
    ],
    [
        6,
        13,
        0
    ],
    [
        10,
        13,
        0
    ],
    [
        14,
        13,
        0
    ],
    [
        0,
        14,
        0
    ],
    [
        4,
        14,
        0
    ],
    [
        12,
        14,
        0
    ],
    [
        16,
        14,
        0
    ],
    [
        2,
        0,
        1
    ],
    [
        14,
        0,
        1
    ],
    [
        4,
        1,
        1
    ],
    [
        12,
        1,
        1
    ],
    [
        6,
        2,
        1
    ],
    [
        10,
        2,
        1
    ],
    [
        0,
        3,
        1
    ],
    [
        16,
        3,
        1
    ],
    [
        2,
        4,
        1
    ],
    [
        8,
        4,
        1
    ],
    [
        14,
        4,
        1
    ],
    [
        0,
        5,
        1
    ],
    [
        4,
        5,
        1
    ],
    [
        12,
        5,
        1
    ],
    [
        16,
        5,
        1
    ],
    [
        2,
        6,
        1
    ],
    [
        6,
        6,
        1
    ],
    [
        10,
        6,
        1
    ],
    [
        14,
        6,
        1
    ],
    [
        4,
        7,
        1
    ],
    [
        12,
        7,
        1
    ],
    [
        6,
        8,
        1
    ],
    [
        10,
        8,
        1
    ],
    [
        6,
        11,
        1
    ],
    [
        10,
        11,
        1
    ],
    [
        4,
        12,
        1
    ],
    [
        12,
        12,
        1
    ],
    [
        2,
        13,
        1
    ],
    [
        6,
        13,
        1
    ],
    [
        10,
        13,
        1
    ],
    [
        14,
        13,
        1
    ],
    [
        0,
        14,
        1
    ],
    [
        4,
        14,
        1
    ],
    [
        12,
        14,
        1
    ],
    [
        16,
        14,
        1
    ],
    [
        2,
        0,
        2
    ],
    [
        14,
        0,
        2
    ],
    [
        4,
        1,
        2
    ],
    [
        12,
        1,
        2
    ],
    [
        6,
        2,
        2
    ],
    [
        10,
        2,
        2
    ],
    [
        0,
        4,
        2
    ],
    [
        8,
        4,
        2
    ],
    [
        16,
        4,
        2
    ],
    [
        2,
        5,
        2
    ],
    [
        14,
        5,
        2
    ],
    [
        4,
        6,
        2
    ],
    [
        12,
        6,
        2
    ],
    [
        6,
        7,
        2
    ],
    [
        10,
        7,
        2
    ],
    [
        6,
        12,
        2
    ],
    [
        10,
        12,
        2
    ],
    [
        4,
        13,
        2
    ],
    [
        12,
        13,
        2
    ],
    [
        4,
        1,
        3
    ],
    [
        12,
        1,
        3
    ],
    [
        6,
        2,
        3
    ],
    [
        10,
        2,
        3
    ],
    [
        8,
        4,
        3
    ],
    [
        2,
        5,
        3
    ],
    [
        14,
        5,
        3
    ],
    [
        4,
        6,
        3
    ],
    [
        12,
        6,
        3
    ],
    [
        6,
        7,
        3
    ],
    [
        10,
        7,
        3
    ],
    [
        6,
        12,
        3
    ],
    [
        10,
        12,
        3
    ],
    [
        4,
        13,
        3
    ],
    [
        12,
        13,
        3
    ],
    [
        6,
        2,
        4
    ],
    [
        10,
        2,
        4
    ],
    [
        4,
        6,
        4
    ],
    [
        12,
        6,
        4
    ],
    [
        6,
        7,
        4
    ],
    [
        10,
        7,
        4
    ],
    [
        6,
        12,
        4
    ],
    [
        10,
        12,
        4
    ],
    [
        4,
        13,
        4
    ],
    [
        12,
        13,
        4
    ],
    [
        6,
        7,
        5
    ],
    [
        10,
        7,
        5
    ]
]