[
    [
        0,
        0,
        0
    ],
    [
        2,
        0,
        0
    ],
    [
        4,
        0,
        0
    ],
    [
        6,
        0,
        0
    ],
    [
        10,
        0,
        0
    ],
    [
        12,
        0,
        0
    ],
    [
        14,
        0,
        0
    ],
    [
        16,
        0,
        0
    ],
    [
        0,
        2,
        0
    ],
    [
        6,
        2,
        0
    ],
    [
        10,
        2,
        0
    ],
    [
        16,
        2,
        0
    ],
    [
        0,
        4,
        0
    ],
    [
        2,
        4,
        0
    ],
    [
        4,
        4,
        0
    ],
    [
        6,
        4,
        0
    ],
    [
        10,
        4,
        0
    ],
    [
        12,
        4,
        0
    ],
    [
        14,
        4,
        0
    ],
    [
        16,
        4,
        0
    ],
    [
        6,
        6,
        0
    ],
    [
        10,
        6,
        0
    ],
    [
        6,
        8,
        0
    ],
    [
        10,
        8,
        0
    ],
    [
        0,
        10,
        0
    ],
    [
        2,
        10,
        0
    ],
    [
        4,
        10,
        0
    ],
    [
        6,
        10,
        0
    ],
    [
        10,
        10,
        0
    ],
    [
        12,
        10,
        0
    ],
    [
        14,
        10,
        0
    ],
    [
        16,
        10,
        0
    ],
    [
        0,
        12,
        0
    ],
    [
        6,
        12,
        0
    ],
    [
        10,
        12,
        0
    ],
    [
        16,
        12,
        0
    ],
    [
        0,
        14,
        0
    ],
    [
        2,
        14,
        0
    ],
    [
        4,
        14,
        0
    ],
    [
        6,
        14,
        0
    ],
    [
        8,
        14,
        0
    ],
    [
        10,
        14,
        0
    ],
    [
        12,
        14,
        0
    ],
    [
        14,
        14,
        0
    ],
    [
        16,
        14,
        0
    ],
    [
        0,
        0,
        1
    ],
    [
        2,
        0,
        1
    ],
    [
        4,
        0,
        1
    ],
    [
        6,
        0,
        1
    ],
    [
        10,
        0,
        1
    ],
    [
        12,
        0,
        1
    ],
    [
        14,
        0,
        1
    ],
    [
        16,
        0,
        1
    ],
    [
        0,
        2,
        1
    ],
    [
        6,
        2,
        1
    ],
    [
        10,
        2,
        1
    ],
    [
        16,
        2,
        1
    ],
    [
        0,
        4,
        1
    ],
    [
        2,
        4,
        1
    ],
    [
        4,
        4,
        1
    ],
    [
        6,
        4,
        1
    ],
    [
        10,
        4,
        1
    ],
    [
        12,
        4,
        1
    ],
    [
        14,
        4,
        1
    ],
    [
        16,
        4,
        1
    ],
    [
        6,
        6,
        1
    ],
    [
        10,
        6,
        1
    ],
    [
        6,
        8,
        1
    ],
    [
        10,
        8,
        1
    ],
    [
        0,
        10,
        1
    ],
    [
        2,
        10,
        1
    ],
    [
        4,
        10,
        1
    ],
    [
        6,
        10,
        1
    ],
    [
        10,
        10,
        1
    ],
    [
        12,
        10,
        1
    ],
    [
        14,
        10,
        1
    ],
    [
        16,
        10,
        1
    ],
    [
        0,
        12,
        1
    ],
    [
        6,
        12,
        1
    ],
    [
        10,
        12,
        1
    ],
    [
        16,
        12,
        1
    ],
    [
        0,
        14,
        1
    ],
    [
        2,
        14,
        1
    ],
    [
        4,
        14,
        1
    ],
    [
        6,
        14,
        1
    ],
    [
        8,
        14,
        1
    ],
    [
        10,
        14,
        1
    ],
    [
        12,
        14,
        1
    ],
    [
        14,
        14,
        1
    ],
    [
        16,
        14,
        1
    ],
    [
        6,
        0,
        2
    ],
    [
        10,
        0,
        2
    ],
    [
        6,
        2,
        2
    ],
    [
        10,
        2,
        2
    ],
    [
        6,
        4,
        2
    ],
    [
        10,
        4,
        2
    ],
    [
        6,
        6,
        2
    ],
    [
        10,
        6,
        2
    ],
    [
        6,
        8,
        2
    ],
    [
        10,
        8,
        2
    ],
    [
        6,
        10,
        2
    ],
    [
        10,
        10,
        2
    ],
    [
        6,
        12,
        2
    ],
    [
        10,
        12,
        2
    ],
    [
        6,
        14,
        2
    ],
    [
        8,
        14,
        2
    ],
    [
        10,
        14,
        2
    ],
    [
        6,
        0,
        3
    ],
    [
        10,
        0,
        3
    ],
    [
        6,
        2,
        3
    ],
    [
        10,
        2,
        3
    ],
    [
        6,
        4,
        3
    ],
    [
        10,
        4,
        3
    ],
    [
        6,
        6,
        3
    ],
    [
        10,
        6,
        3
    ],
    [
        6,
        8,
        3
    ],
    [
        10,
        8,
        3
    ],
    [
        6,
        10,
        3
    ],
    [
        10,
        10,
        3
    ],
    [
        6,
        12,
        3
    ],
    [
        10,
        12,
        3
    ],
    [
        6,
        14,
        3
    ],
    [
        8,
        14,
        3
    ],
    [
        10,
        14,
        3
    ]
]