[
    [
        0,
        0,
        0
    ],
    [
        16,
        0,
        0
    ],
    [
        2,
        1,
        0
    ],
    [
        4,
        1,
        0
    ],
    [
        6,
        1,
        0
    ],
    [
        8,
        1,
        0
    ],
    [
        10,
        1,
        0
    ],
    [
        12,
        1,
        0
    ],
    [
        14,
        1,
        0
    ],
    [
        0,
        2,
        0
    ],
    [
        16,
        2,
        0
    ],
    [
        4,
        3,
        0
    ],
    [
        6,
        3,
        0
    ],
    [
        8,
        3,
        0
    ],
    [
        10,
        3,
        0
    ],
    [
        12,
        3,
        0
    ],
    [
        6,
        5,
        0
    ],
    [
        8,
        5,
        0
    ],
    [
        10,
        5,
        0
    ],
    [
        0,
        6,
        0
    ],
    [
        16,
        6,
        0
    ],
    [
        2,
        7,
        0
    ],
    [
        4,
        7,
        0
    ],
    [
        6,
        7,
        0
    ],
    [
        8,
        7,
        0
    ],
    [
        10,
        7,
        0
    ],
    [
        12,
        7,
        0
    ],
    [
        14,
        7,
        0
    ],
    [
        0,
        8,
        0
    ],
    [
        16,
        8,
        0
    ],
    [
        4,
        9,
        0
    ],
    [
        6,
        9,
        0
    ],
    [
        8,
        9,
        0
    ],
    [
        10,
        9,
        0
    ],
    [
        12,
        9,
        0
    ],
    [
        0,
        10,
        0
    ],
    [
        16,
        10,
        0
    ],
    [
        2,
        11,
        0
    ],
    [
        4,
        11,
        0
    ],
    [
        6,
        11,
        0
    ],
    [
        8,
        11,
        0
    ],
    [
        10,
        11,
        0
    ],
    [
        12,
        11,
        0
    ],
    [
        14,
        11,
        0
    ],
    [
        0,
        12,
        0
    ],
    [
        16,
        12,
        0
    ],
    [
        2,
        14,
        0
    ],
    [
        4,
        14,
        0
    ],
    [
        6,
        14,
        0
    ],
    [
        8,
        14,
        0
    ],
    [
        10,
        14,
        0
    ],
    [
        12,
        14,
        0
    ],
    [
        14,
        14,
        0
    ],
    [
        0,
        0,
        1
    ],
    [
        16,
        0,
        1
    ],
    [
        2,
        1,
        1
    ],
    [
        4,
        1,
        1
    ],
    [
        6,
        1,
        1
    ],
    [
        8,
        1,
        1
    ],
    [
        10,
        1,
        1
    ],
    [
        12,
        1,
        1
    ],
    [
        14,
        1,
        1
    ],
    [
        0,
        2,
        1
    ],
    [
        16,
        2,
        1
    ],
    [
        4,
        3,
        1
    ],
    [
        6,
        3,
        1
    ],
    [
        8,
        3,
        1
    ],
    [
        10,
        3,
        1
    ],
    [
        12,
        3,
        1
    ],
    [
        6,
        5,
        1
    ],
    [
        8,
        5,
        1
    ],
    [
        10,
        5,
        1
    ],
    [
        0,
        6,
        1
    ],
    [
        16,
        6,
        1
    ],
    [
        2,
        7,
        1
    ],
    [
        4,
        7,
        1
    ],
    [
        6,
        7,
        1
    ],
    [
        8,
        7,
        1
    ],
    [
        10,
        7,
        1
    ],
    [
        12,
        7,
        1
    ],
    [
        14,
        7,
        1
    ],
    [
        0,
        8,
        1
    ],
    [
        16,
        8,
        1
    ],
    [
        4,
        9,
        1
    ],
    [
        6,
        9,
        1
    ],
    [
        8,
        9,
        1
    ],
    [
        10,
        9,
        1
    ],
    [
        12,
        9,
        1
    ],
    [
        0,
        10,
        1
    ],
    [
        16,
        10,
        1
    ],
    [
        2,
        11,
        1
    ],
    [
        4,
        11,
        1
    ],
    [
        6,
        11,
        1
    ],
    [
        8,
        11,
        1
    ],
    [
        10,
        11,
        1
    ],
    [
        12,
        11,
        1
    ],
    [
        14,
        11,
        1
    ],
    [
        0,
        12,
        1
    ],
    [
        16,
        12,
        1
    ],
    [
        2,
        14,
        1
    ],
    [
        4,
        14,
        1
    ],
    [
        6,
        14,
        1
    ],
    [
        8,
        14,
        1
    ],
    [
        10,
        14,
        1
    ],
    [
        12,
        14,
        1
    ],
    [
        14,
        14,
        1
    ],
    [
        0,
        0,
        2
    ],
    [
        16,
        0,
        2
    ],
    [
        2,
        1,
        2
    ],
    [
        4,
        1,
        2
    ],
    [
        6,
        1,
        2
    ],
    [
        8,
        1,
        2
    ],
    [
        10,
        1,
        2
    ],
    [
        12,
        1,
        2
    ],
    [
        14,
        1,
        2
    ],
    [
        0,
        2,
        2
    ],
    [
        16,
        2,
        2
    ],
    [
        8,
        3,
        2
    ],
    [
        8,
        5,
        2
    ],
    [
        8,
        7,
        2
    ],
    [
        8,
        9,
        2
    ],
    [
        0,
        11,
        2
    ],
    [
        2,
        11,
        2
    ],
    [
        4,
        11,
        2
    ],
    [
        6,
        11,
        2
    ],
    [
        8,
        11,
        2
    ],
    [
        10,
        11,
        2
    ],
    [
        12,
        11,
        2
    ],
    [
        14,
        11,
        2
    ],
    [
        16,
        11,
        2
    ],
    [
        7,
        14,
        2
    ],
    [
        9,
        14,
        2
    ]
]