[
    [
        3,
        0,
        0
    ],
    [
        5,
        0,
        0
    ],
    [
        11,
        0,
        0
    ],
    [
        13,
        0,
        0
    ],
    [
        2,
        2,
        0
    ],
    [
        4,
        2,
        0
    ],
    [
        6,
        2,
        0
    ],
    [
        10,
        2,
        0
    ],
    [
        12,
        2,
        0
    ],
    [
        14,
        2,
        0
    ],
    [
        0,
        3,
        0
    ],
    [
        16,
        3,
        0
    ],
    [
        2,
        4,
        0
    ],
    [
        5,
        4,
        0
    ],
    [
        7,
        4,
        0
    ],
    [
        9,
        4,
        0
    ],
    [
        11,
        4,
        0
    ],
    [
        14,
        4,
        0
    ],
    [
        0,
        6,
        0
    ],
    [
        6,
        6,
        0
    ],
    [
        10,
        6,
        0
    ],
    [
        16,
        6,
        0
    ],
    [
        2,
        8,
        0
    ],
    [
        5,
        8,
        0
    ],
    [
        7,
        8,
        0
    ],
    [
        9,
        8,
        0
    ],
    [
        11,
        8,
        0
    ],
    [
        14,
        8,
        0
    ],
    [
        0,
        9,
        0
    ],
    [
        16,
        9,
        0
    ],
    [
        2,
        10,
        0
    ],
    [
        4,
        10,
        0
    ],
    [
        6,
        10,
        0
    ],
    [
        10,
        10,
        0
    ],
    [
        12,
        10,
        0
    ],
    [
        14,
        10,
        0
    ],
    [
        3,
        12,
        0
    ],
    [
        5,
        12,
        0
    ],
    [
        11,
        12,
        0
    ],
    [
        13,
        12,
        0
    ],
    [
        3,
        0,
        1
    ],
    [
        5,
        0,
        1
    ],
    [
        11,
        0,
        1
    ],
    [
        13,
        0,
        1
    ],
    [
        2,
        2,
        1
    ],
    [
        4,
        2,
        1
    ],
    [
        6,
        2,
        1
    ],
    [
        10,
        2,
        1
    ],
    [
        12,
        2,
        1
    ],
    [
        14,
        2,
        1
    ],
    [
        0,
        3,
        1
    ],
    [
        16,
        3,
        1
    ],
    [
        2,
        4,
        1
    ],
    [
        5,
        4,
        1
    ],
    [
        7,
        4,
        1
    ],
    [
        9,
        4,
        1
    ],
    [
        11,
        4,
        1
    ],
    [
        14,
        4,
        1
    ],
    [
        0,
        6,
        1
    ],
    [
        6,
        6,
        1
    ],
    [
        10,
        6,
        1
    ],
    [
        16,
        6,
        1
    ],
    [
        2,
        8,
        1
    ],
    [
        5,
        8,
        1
    ],
    [
        7,
        8,
        1
    ],
    [
        9,
        8,
        1
    ],
    [
        11,
        8,
        1
    ],
    [
        14,
        8,
        1
    ],
    [
        0,
        9,
        1
    ],
    [
        16,
        9,
        1
    ],
    [
        2,
        10,
        1
    ],
    [
        4,
        10,
        1
    ],
    [
        6,
        10,
        1
    ],
    [
        10,
        10,
        1
    ],
    [
        12,
        10,
        1
    ],
    [
        14,
        10,
        1
    ],
    [
        3,
        12,
        1
    ],
    [
        5,
        12,
        1
    ],
    [
        11,
        12,
        1
    ],
    [
        13,
        12,
        1
    ],
    [
        3,
        0,
        2
    ],
    [
        5,
        0,
        2
    ],
    [
        11,
        0,
        2
    ],
    [
        13,
        0,
        2
    ],
    [
        4,
        2,
        2
    ],
    [
        6,
        2,
        2
    ],
    [
        10,
        2,
        2
    ],
    [
        12,
        2,
        2
    ],
    [
        5,
        4,
        2
    ],
    [
        7,
        4,
        2
    ],
    [
        9,
        4,
        2
    ],
    [
        11,
        4,
        2
    ],
    [
        5,
        8,
        2
    ],
    [
        7,
        8,
        2
    ],
    [
        9,
        8,
        2
    ],
    [
        11,
        8,
        2
    ],
    [
        4,
        10,
        2
    ],
    [
        6,
        10,
        2
    ],
    [
        10,
        10,
        2
    ],
    [
        12,
        10,
        2
    ],
    [
        3,
        12,
        2
    ],
    [
        5,
        12,
        2
    ],
    [
        11,
        12,
        2
    ],
    [
        13,
        12,
        2
    ],
    [
        3,
        0,
        3
    ],
    [
        5,
        0,
        3
    ],
    [
        11,
        0,
        3
    ],
    [
        13,
        0,
        3
    ],
    [
        4,
        2,
        3
    ],
    [
        6,
        2,
        3
    ],
    [
        10,
        2,
        3
    ],
    [
        12,
        2,
        3
    ],
    [
        5,
        4,
        3
    ],
    [
        7,
        4,
        3
    ],
    [
        9,
        4,
        3
    ],
    [
        11,
        4,
        3
    ],
    [
        5,
        8,
        3
    ],
    [
        7,
        8,
        3
    ],
    [
        9,
        8,
        3
    ],
    [
        11,
        8,
        3
    ],
    [
        4,
        10,
        3
    ],
    [
        6,
        10,
        3
    ],
    [
        10,
        10,
        3
    ],
    [
        12,
        10,
        3
    ],
    [
        3,
        12,
        3
    ],
    [
        5,
        12,
        3
    ],
    [
        11,
        12,
        3
    ],
    [
        13,
        12,
        3
    ],
    [
        5,
        0,
        4
    ],
    [
        11,
        0,
        4
    ],
    [
        6,
        2,
        4
    ],
    [
        10,
        2,
        4
    ],
    [
        5,
        4,
        4
    ],
    [
        7,
        4,
        4
    ],
    [
        9,
        4,
        4
    ],
    [
        11,
        4,
        4
    ],
    [
        5,
        8,
        4
    ],
    [
        7,
        8,
        4
    ],
    [
        9,
        8,
        4
    ],
    [
        11,
        8,
        4
    ],
    [
        6,
        10,
        4
    ],
    [
        10,
        10,
        4
    ],
    [
        5,
        12,
        4
    ],
    [
        11,
        12,
        4
    ],
    [
        5,
        4,
        5
    ],
    [
        7,
        4,
        5
    ],
    [
        9,
        4,
        5
    ],
    [
        11,
        4,
        5
    ],
    [
        5,
        8,
        5
    ],
    [
        7,
        8,
        5
    ],
    [
        9,
        8,
        5
    ],
    [
        11,
        8,
        5
    ]
]