[
    [
        0,
        0,
        0
    ],
    [
        2,
        0,
        0
    ],
    [
        4,
        0,
        0
    ],
    [
        6,
        0,
        0
    ],
    [
        8,
        0,
        0
    ],
    [
        10,
        0,
        0
    ],
    [
        12,
        0,
        0
    ],
    [
        14,
        0,
        0
    ],
    [
        16,
        0,
        0
    ],
    [
        0,
        2,
        0
    ],
    [
        16,
        2,
        0
    ],
    [
        4,
        3,
        0
    ],
    [
        6,
        3,
        0
    ],
    [
        8,
        3,
        0
    ],
    [
        10,
        3,
        0
    ],
    [
        12,
        3,
        0
    ],
    [
        0,
        4,
        0
    ],
    [
        16,
        4,
        0
    ],
    [
        4,
        5,
        0
    ],
    [
        12,
        5,
        0
    ],
    [
        0,
        6,
        0
    ],
    [
        7,
        6,
        0
    ],
    [
        9,
        6,
        0
    ],
    [
        16,
        6,
        0
    ],
    [
        4,
        7,
        0
    ],
    [
        12,
        7,
        0
    ],
    [
        0,
        8,
        0
    ],
    [
        16,
        8,
        0
    ],
    [
        4,
        9,
        0
    ],
    [
        6,
        9,
        0
    ],
    [
        8,
        9,
        0
    ],
    [
        10,
        9,
        0
    ],
    [
        12,
        9,
        0
    ],
    [
        0,
        10,
        0
    ],
    [
        16,
        10,
        0
    ],
    [
        0,
        12,
        0
    ],
    [
        2,
        12,
        0
    ],
    [
        4,
        12,
        0
    ],
    [
        6,
        12,
        0
    ],
    [
        8,
        12,
        0
    ],
    [
        10,
        12,
        0
    ],
    [
        12,
        12,
        0
    ],
    [
        14,
        12,
        0
    ],
    [
        16,
        12,
        0
    ],
    [
        0,
        15,
        0
    ],
    [
        2,
        15,
        0
    ],
    [
        4,
        15,
        0
    ],
    [
        6,
        15,
        0
    ],
    [
        8,
        15,
        0
    ],
    [
        10,
        15,
        0
    ],
    [
        12,
        15,
        0
    ],
    [
        14,
        15,
        0
    ],
    [
        16,
        15,
        0
    ],
    [
        0,
        3,
        1
    ],
    [
        4,
        3,
        1
    ],
    [
        6,
        3,
        1
    ],
    [
        8,
        3,
        1
    ],
    [
        10,
        3,
        1
    ],
    [
        12,
        3,
        1
    ],
    [
        16,
        3,
        1
    ],
    [
        0,
        5,
        1
    ],
    [
        4,
        5,
        1
    ],
    [
        12,
        5,
        1
    ],
    [
        16,
        5,
        1
    ],
    [
        7,
        6,
        1
    ],
    [
        9,
        6,
        1
    ],
    [
        0,
        7,
        1
    ],
    [
        4,
        7,
        1
    ],
    [
        12,
        7,
        1
    ],
    [
        16,
        7,
        1
    ],
    [
        0,
        9,
        1
    ],
    [
        4,
        9,
        1
    ],
    [
        6,
        9,
        1
    ],
    [
        8,
        9,
        1
    ],
    [
        10,
        9,
        1
    ],
    [
        12,
        9,
        1
    ],
    [
        16,
        9,
        1
    ],
    [
        0,
        3,
        2
    ],
    [
        4,
        3,
        2
    ],
    [
        6,
        3,
        2
    ],
    [
        8,
        3,
        2
    ],
    [
        10,
        3,
        2
    ],
    [
        12,
        3,
        2
    ],
    [
        16,
        3,
        2
    ],
    [
        0,
        5,
        2
    ],
    [
        4,
        5,
        2
    ],
    [
        12,
        5,
        2
    ],
    [
        16,
        5,
        2
    ],
    [
        7,
        6,
        2
    ],
    [
        9,
        6,
        2
    ],
    [
        0,
        7,
        2
    ],
    [
        4,
        7,
        2
    ],
    [
        12,
        7,
        2
    ],
    [
        16,
        7,
        2
    ],
    [
        0,
        9,
        2
    ],
    [
        4,
        9,
        2
    ],
    [
        6,
        9,
        2
    ],
    [
        8,
        9,
        2
    ],
    [
        10,
        9,
        2
    ],
    [
        12,
        9,
        2
    ],
    [
        16,
        9,
        2
    ],
    [
        7,
        6,
        3
    ],
    [
        9,
        6,
        3
    ],
    [
        8,
        6,
        4
    ]
]