[
    [
        2,
        0,
        0
    ],
    [
        4,
        0,
        0
    ],
    [
        6,
        0,
        0
    ],
    [
        8,
        0,
        0
    ],
    [
        10,
        0,
        0
    ],
    [
        12,
        0,
        0
    ],
    [
        14,
        0,
        0
    ],
    [
        0,
        2,
        0
    ],
    [
        2,
        2,
        0
    ],
    [
        4,
        2,
        0
    ],
    [
        6,
        2,
        0
    ],
    [
        8,
        2,
        0
    ],
    [
        10,
        2,
        0
    ],
    [
        12,
        2,
        0
    ],
    [
        14,
        2,
        0
    ],
    [
        16,
        2,
        0
    ],
    [
        0,
        4,
        0
    ],
    [
        2,
        4,
        0
    ],
    [
        8,
        4,
        0
    ],
    [
        14,
        4,
        0
    ],
    [
        16,
        4,
        0
    ],
    [
        0,
        6,
        0
    ],
    [
        2,
        6,
        0
    ],
    [
        4,
        6,
        0
    ],
    [
        6,
        6,
        0
    ],
    [
        8,
        6,
        0
    ],
    [
        10,
        6,
        0
    ],
    [
        12,
        6,
        0
    ],
    [
        14,
        6,
        0
    ],
    [
        16,
        6,
        0
    ],
    [
        0,
        8,
        0
    ],
    [
        2,
        8,
        0
    ],
    [
        4,
        8,
        0
    ],
    [
        6,
        8,
        0
    ],
    [
        8,
        8,
        0
    ],
    [
        10,
        8,
        0
    ],
    [
        12,
        8,
        0
    ],
    [
        14,
        8,
        0
    ],
    [
        16,
        8,
        0
    ],
    [
        0,
        10,
        0
    ],
    [
        2,
        10,
        0
    ],
    [
        4,
        10,
        0
    ],
    [
        12,
        10,
        0
    ],
    [
        14,
        10,
        0
    ],
    [
        16,
        10,
        0
    ],
    [
        0,
        12,
        0
    ],
    [
        2,
        12,
        0
    ],
    [
        4,
        12,
        0
    ],
    [
        6,
        12,
        0
    ],
    [
        8,
        12,
        0
    ],
    [
        10,
        12,
        0
    ],
    [
        12,
        12,
        0
    ],
    [
        14,
        12,
        0
    ],
    [
        16,
        12,
        0
    ],
    [
        2,
        2,
        1
    ],
    [
        4,
        2,
        1
    ],
    [
        6,
        2,
        1
    ],
    [
        8,
        2,
        1
    ],
    [
        10,
        2,
        1
    ],
    [
        12,
        2,
        1
    ],
    [
        14,
        2,
        1
    ],
    [
        0,
        4,
        1
    ],
    [
        2,
        4,
        1
    ],
    [
        14,
        4,
        1
    ],
    [
        16,
        4,
        1
    ],
    [
        0,
        6,
        1
    ],
    [
        2,
        6,
        1
    ],
    [
        8,
        6,
        1
    ],
    [
        14,
        6,
        1
    ],
    [
        16,
        6,
        1
    ],
    [
        0,
        8,
        1
    ],
    [
        2,
        8,
        1
    ],
    [
        4,
        8,
        1
    ],
    [
        6,
        8,
        1
    ],
    [
        8,
        8,
        1
    ],
    [
        10,
        8,
        1
    ],
    [
        12,
        8,
        1
    ],
    [
        14,
        8,
        1
    ],
    [
        16,
        8,
        1
    ],
    [
        4,
        10,
        1
    ],
    [
        12,
        10,
        1
    ],
    [
        4,
        12,
        1
    ],
    [
        6,
        12,
        1
    ],
    [
        8,
        12,
        1
    ],
    [
        10,
        12,
        1
    ],
    [
        12,
        12,
        1
    ],
    [
        8,
        2,
        2
    ],
    [
        2,
        6,
        2
    ],
    [
        8,
        6,
        2
    ],
    [
        14,
        6,
        2
    ],
    [
        2,
        8,
        2
    ],
    [
        4,
        8,
        2
    ],
    [
        6,
        8,
        2
    ],
    [
        8,
        8,
        2
    ],
    [
        10,
        8,
        2
    ],
    [
        12,
        8,
        2
    ],
    [
        14,
        8,
        2
    ],
    [
        4,
        10,
        2
    ],
    [
        12,
        10,
        2
    ],
    [
        4,
        12,
        2
    ],
    [
        6,
        12,
        2
    ],
    [
        8,
        12,
        2
    ],
    [
        10,
        12,
        2
    ],
    [
        12,
        12,
        2
    ],
    [
        8,
        6,
        3
    ],
    [
        2,
        8,
        3
    ],
    [
        4,
        8,
        3
    ],
    [
        6,
        8,
        3
    ],
    [
        8,
        8,
        3
    ],
    [
        10,
        8,
        3
    ],
    [
        12,
        8,
        3
    ],
    [
        14,
        8,
        3
    ],
    [
        4,
        8,
        4
    ],
    [
        6,
        8,
        4
    ],
    [
        10,
        8,
        4
    ],
    [
        12,
        8,
        4
    ]
]