[
    [
        2,
        0,
        0
    ],
    [
        8,
        0,
        0
    ],
    [
        14,
        0,
        0
    ],
    [
        0,
        1,
        0
    ],
    [
        4,
        1,
        0
    ],
    [
        6,
        1,
        0
    ],
    [
        10,
        1,
        0
    ],
    [
        12,
        1,
        0
    ],
    [
        16,
        1,
        0
    ],
    [
        2,
        3,
        0
    ],
    [
        5,
        3,
        0
    ],
    [
        7,
        3,
        0
    ],
    [
        9,
        3,
        0
    ],
    [
        11,
        3,
        0
    ],
    [
        14,
        3,
        0
    ],
    [
        4,
        5,
        0
    ],
    [
        6,
        5,
        0
    ],
    [
        10,
        5,
        0
    ],
    [
        12,
        5,
        0
    ],
    [
        8,
        6,
        0
    ],
    [
        8,
        8,
        0
    ],
    [
        4,
        9,
        0
    ],
    [
        6,
        9,
        0
    ],
    [
        10,
        9,
        0
    ],
    [
        12,
        9,
        0
    ],
    [
        2,
        11,
        0
    ],
    [
        5,
        11,
        0
    ],
    [
        7,
        11,
        0
    ],
    [
        9,
        11,
        0
    ],
    [
        11,
        11,
        0
    ],
    [
        14,
        11,
        0
    ],
    [
        0,
        13,
        0
    ],
    [
        4,
        13,
        0
    ],
    [
        6,
        13,
        0
    ],
    [
        10,
        13,
        0
    ],
    [
        12,
        13,
        0
    ],
    [
        16,
        13,
        0
    ],
    [
        2,
        14,
        0
    ],
    [
        8,
        14,
        0
    ],
    [
        14,
        14,
        0
    ],
    [
        8,
        0,
        1
    ],
    [
        0,
        1,
        1
    ],
    [
        4,
        1,
        1
    ],
    [
        6,
        1,
        1
    ],
    [
        10,
        1,
        1
    ],
    [
        12,
        1,
        1
    ],
    [
        16,
        1,
        1
    ],
    [
        5,
        3,
        1
    ],
    [
        11,
        3,
        1
    ],
    [
        4,
        5,
        1
    ],
    [
        6,
        5,
        1
    ],
    [
        10,
        5,
        1
    ],
    [
        12,
        5,
        1
    ],
    [
        8,
        6,
        1
    ],
    [
        8,
        8,
        1
    ],
    [
        4,
        9,
        1
    ],
    [
        6,
        9,
        1
    ],
    [
        10,
        9,
        1
    ],
    [
        12,
        9,
        1
    ],
    [
        5,
        11,
        1
    ],
    [
        11,
        11,
        1
    ],
    [
        0,
        13,
        1
    ],
    [
        4,
        13,
        1
    ],
    [
        6,
        13,
        1
    ],
    [
        10,
        13,
        1
    ],
    [
        12,
        13,
        1
    ],
    [
        16,
        13,
        1
    ],
    [
        8,
        14,
        1
    ],
    [
        8,
        0,
        2
    ],
    [
        0,
        1,
        2
    ],
    [
        4,
        1,
        2
    ],
    [
        6,
        1,
        2
    ],
    [
        10,
        1,
        2
    ],
    [
        12,
        1,
        2
    ],
    [
        16,
        1,
        2
    ],
    [
        5,
        3,
        2
    ],
    [
        11,
        3,
        2
    ],
    [
        4,
        5,
        2
    ],
    [
        6,
        5,
        2
    ],
    [
        10,
        5,
        2
    ],
    [
        12,
        5,
        2
    ],
    [
        8,
        6,
        2
    ],
    [
        8,
        8,
        2
    ],
    [
        4,
        9,
        2
    ],
    [
        6,
        9,
        2
    ],
    [
        10,
        9,
        2
    ],
    [
        12,
        9,
        2
    ],
    [
        5,
        11,
        2
    ],
    [
        11,
        11,
        2
    ],
    [
        0,
        13,
        2
    ],
    [
        4,
        13,
        2
    ],
    [
        6,
        13,
        2
    ],
    [
        10,
        13,
        2
    ],
    [
        12,
        13,
        2
    ],
    [
        16,
        13,
        2
    ],
    [
        8,
        14,
        2
    ],
    [
        8,
        0,
        3
    ],
    [
        4,
        1,
        3
    ],
    [
        6,
        1,
        3
    ],
    [
        10,
        1,
        3
    ],
    [
        12,
        1,
        3
    ],
    [
        5,
        3,
        3
    ],
    [
        11,
        3,
        3
    ],
    [
        4,
        5,
        3
    ],
    [
        6,
        5,
        3
    ],
    [
        10,
        5,
        3
    ],
    [
        12,
        5,
        3
    ],
    [
        8,
        6,
        3
    ],
    [
        8,
        8,
        3
    ],
    [
        4,
        9,
        3
    ],
    [
        6,
        9,
        3
    ],
    [
        10,
        9,
        3
    ],
    [
        12,
        9,
        3
    ],
    [
        5,
        11,
        3
    ],
    [
        11,
        11,
        3
    ],
    [
        4,
        13,
        3
    ],
    [
        6,
        13,
        3
    ],
    [
        10,
        13,
        3
    ],
    [
        12,
        13,
        3
    ],
    [
        8,
        14,
        3
    ],
    [
        4,
        1,
        4
    ],
    [
        6,
        1,
        4
    ],
    [
        10,
        1,
        4
    ],
    [
        12,
        1,
        4
    ],
    [
        4,
        5,
        4
    ],
    [
        6,
        5,
        4
    ],
    [
        10,
        5,
        4
    ],
    [
        12,
        5,
        4
    ],
    [
        4,
        9,
        4
    ],
    [
        6,
        9,
        4
    ],
    [
        10,
        9,
        4
    ],
    [
        12,
        9,
        4
    ],
    [
        4,
        13,
        4
    ],
    [
        6,
        13,
        4
    ],
    [
        10,
        13,
        4
    ],
    [
        12,
        13,
        4
    ],
    [
        4,
        1,
        5
    ],
    [
        6,
        1,
        5
    ],
    [
        10,
        1,
        5
    ],
    [
        12,
        1,
        5
    ],
    [
        4,
        5,
        5
    ],
    [
        6,
        5,
        5
    ],
    [
        10,
        5,
        5
    ],
    [
        12,
        5,
        5
    ],
    [
        4,
        9,
        5
    ],
    [
        6,
        9,
        5
    ],
    [
        10,
        9,
        5
    ],
    [
        12,
        9,
        5
    ],
    [
        4,
        13,
        5
    ],
    [
        6,
        13,
        5
    ],
    [
        10,
        13,
        5
    ],
    [
        12,
        13,
        5
    ],
    [
        6,
        1,
        6
    ],
    [
        10,
        1,
        6
    ],
    [
        6,
        5,
        6
    ],
    [
        10,
        5,
        6
    ],
    [
        6,
        9,
        6
    ],
    [
        10,
        9,
        6
    ],
    [
        6,
        13,
        6
    ],
    [
        10,
        13,
        6
    ]
]