[
    [
        0,
        0,
        0
    ],
    [
        4,
        0,
        0
    ],
    [
        8,
        0,
        0
    ],
    [
        12,
        0,
        0
    ],
    [
        16,
        0,
        0
    ],
    [
        2,
        1,
        0
    ],
    [
        6,
        1,
        0
    ],
    [
        10,
        1,
        0
    ],
    [
        14,
        1,
        0
    ],
    [
        0,
        2,
        0
    ],
    [
        4,
        2,
        0
    ],
    [
        8,
        2,
        0
    ],
    [
        12,
        2,
        0
    ],
    [
        16,
        2,
        0
    ],
    [
        6,
        3,
        0
    ],
    [
        14,
        3,
        0
    ],
    [
        1,
        4,
        0
    ],
    [
        3,
        4,
        0
    ],
    [
        9,
        4,
        0
    ],
    [
        11,
        4,
        0
    ],
    [
        1,
        6,
        0
    ],
    [
        3,
        6,
        0
    ],
    [
        9,
        6,
        0
    ],
    [
        11,
        6,
        0
    ],
    [
        6,
        7,
        0
    ],
    [
        14,
        7,
        0
    ],
    [
        0,
        8,
        0
    ],
    [
        4,
        8,
        0
    ],
    [
        8,
        8,
        0
    ],
    [
        12,
        8,
        0
    ],
    [
        16,
        8,
        0
    ],
    [
        2,
        9,
        0
    ],
    [
        6,
        9,
        0
    ],
    [
        10,
        9,
        0
    ],
    [
        14,
        9,
        0
    ],
    [
        0,
        10,
        0
    ],
    [
        4,
        10,
        0
    ],
    [
        8,
        10,
        0
    ],
    [
        12,
        10,
        0
    ],
    [
        16,
        10,
        0
    ],
    [
        0,
        0,
        1
    ],
    [
        4,
        0,
        1
    ],
    [
        8,
        0,
        1
    ],
    [
        12,
        0,
        1
    ],
    [
        16,
        0,
        1
    ],
    [
        2,
        1,
        1
    ],
    [
        6,
        1,
        1
    ],
    [
        10,
        1,
        1
    ],
    [
        14,
        1,
        1
    ],
    [
        0,
        2,
        1
    ],
    [
        4,
        2,
        1
    ],
    [
        8,
        2,
        1
    ],
    [
        12,
        2,
        1
    ],
    [
        16,
        2,
        1
    ],
    [
        6,
        3,
        1
    ],
    [
        14,
        3,
        1
    ],
    [
        1,
        4,
        1
    ],
    [
        3,
        4,
        1
    ],
    [
        9,
        4,
        1
    ],
    [
        11,
        4,
        1
    ],
    [
        1,
        6,
        1
    ],
    [
        3,
        6,
        1
    ],
    [
        9,
        6,
        1
    ],
    [
        11,
        6,
        1
    ],
    [
        6,
        7,
        1
    ],
    [
        14,
        7,
        1
    ],
    [
        0,
        8,
        1
    ],
    [
        4,
        8,
        1
    ],
    [
        8,
        8,
        1
    ],
    [
        12,
        8,
        1
    ],
    [
        16,
        8,
        1
    ],
    [
        2,
        9,
        1
    ],
    [
        6,
        9,
        1
    ],
    [
        10,
        9,
        1
    ],
    [
        14,
        9,
        1
    ],
    [
        0,
        10,
        1
    ],
    [
        4,
        10,
        1
    ],
    [
        8,
        10,
        1
    ],
    [
        12,
        10,
        1
    ],
    [
        16,
        10,
        1
    ],
    [
        0,
        0,
        2
    ],
    [
        4,
        0,
        2
    ],
    [
        8,
        0,
        2
    ],
    [
        12,
        0,
        2
    ],
    [
        16,
        0,
        2
    ],
    [
        0,
        2,
        2
    ],
    [
        4,
        2,
        2
    ],
    [
        8,
        2,
        2
    ],
    [
        12,
        2,
        2
    ],
    [
        16,
        2,
        2
    ],
    [
        1,
        4,
        2
    ],
    [
        3,
        4,
        2
    ],
    [
        9,
        4,
        2
    ],
    [
        11,
        4,
        2
    ],
    [
        1,
        6,
        2
    ],
    [
        3,
        6,
        2
    ],
    [
        9,
        6,
        2
    ],
    [
        11,
        6,
        2
    ],
    [
        0,
        8,
        2
    ],
    [
        4,
        8,
        2
    ],
    [
        8,
        8,
        2
    ],
    [
        12,
        8,
        2
    ],
    [
        16,
        8,
        2
    ],
    [
        0,
        10,
        2
    ],
    [
        4,
        10,
        2
    ],
    [
        8,
        10,
        2
    ],
    [
        12,
        10,
        2
    ],
    [
        16,
        10,
        2
    ],
    [
        0,
        0,
        3
    ],
    [
        12,
        0,
        3
    ],
    [
        16,
        0,
        3
    ],
    [
        0,
        2,
        3
    ],
    [
        12,
        2,
        3
    ],
    [
        16,
        2,
        3
    ],
    [
        1,
        4,
        3
    ],
    [
        3,
        4,
        3
    ],
    [
        9,
        4,
        3
    ],
    [
        11,
        4,
        3
    ],
    [
        1,
        6,
        3
    ],
    [
        3,
        6,
        3
    ],
    [
        9,
        6,
        3
    ],
    [
        11,
        6,
        3
    ],
    [
        0,
        8,
        3
    ],
    [
        12,
        8,
        3
    ],
    [
        16,
        8,
        3
    ],
    [
        0,
        10,
        3
    ],
    [
        12,
        10,
        3
    ],
    [
        16,
        10,
        3
    ],
    [
        0,
        0,
        4
    ],
    [
        12,
        0,
        4
    ],
    [
        0,
        2,
        4
    ],
    [
        12,
        2,
        4
    ],
    [
        0,
        8,
        4
    ],
    [
        12,
        8,
        4
    ],
    [
        0,
        10,
        4
    ],
    [
        12,
        10,
        4
    ],
    [
        0,
        0,
        5
    ],
    [
        12,
        0,
        5
    ],
    [
        0,
        2,
        5
    ],
    [
        12,
        2,
        5
    ],
    [
        0,
        8,
        5
    ],
    [
        12,
        8,
        5
    ],
    [
        0,
        10,
        5
    ],
    [
        12,
        10,
        5
    ]
]