[
    [
        0,
        0,
        0
    ],
    [
        2,
        0,
        0
    ],
    [
        4,
        0,
        0
    ],
    [
        12,
        0,
        0
    ],
    [
        14,
        0,
        0
    ],
    [
        16,
        0,
        0
    ],
    [
        6,
        1,
        0
    ],
    [
        8,
        1,
        0
    ],
    [
        10,
        1,
        0
    ],
    [
        0,
        2,
        0
    ],
    [
        2,
        2,
        0
    ],
    [
        4,
        2,
        0
    ],
    [
        12,
        2,
        0
    ],
    [
        14,
        2,
        0
    ],
    [
        16,
        2,
        0
    ],
    [
        2,
        4,
        0
    ],
    [
        14,
        4,
        0
    ],
    [
        2,
        6,
        0
    ],
    [
        14,
        6,
        0
    ],
    [
        2,
        8,
        0
    ],
    [
        14,
        8,
        0
    ],
    [
        0,
        10,
        0
    ],
    [
        2,
        10,
        0
    ],
    [
        4,
        10,
        0
    ],
    [
        12,
        10,
        0
    ],
    [
        14,
        10,
        0
    ],
    [
        16,
        10,
        0
    ],
    [
        6,
        11,
        0
    ],
    [
        8,
        11,
        0
    ],
    [
        10,
        11,
        0
    ],
    [
        0,
        12,
        0
    ],
    [
        2,
        12,
        0
    ],
    [
        4,
        12,
        0
    ],
    [
        12,
        12,
        0
    ],
    [
        14,
        12,
        0
    ],
    [
        16,
        12,
        0
    ],
    [
        0,
        0,
        1
    ],
    [
        2,
        0,
        1
    ],
    [
        4,
        0,
        1
    ],
    [
        12,
        0,
        1
    ],
    [
        14,
        0,
        1
    ],
    [
        16,
        0,
        1
    ],
    [
        6,
        1,
        1
    ],
    [
        8,
        1,
        1
    ],
    [
        10,
        1,
        1
    ],
    [
        0,
        2,
        1
    ],
    [
        2,
        2,
        1
    ],
    [
        4,
        2,
        1
    ],
    [
        12,
        2,
        1
    ],
    [
        14,
        2,
        1
    ],
    [
        16,
        2,
        1
    ],
    [
        2,
        4,
        1
    ],
    [
        14,
        4,
        1
    ],
    [
        2,
        6,
        1
    ],
    [
        14,
        6,
        1
    ],
    [
        2,
        8,
        1
    ],
    [
        14,
        8,
        1
    ],
    [
        0,
        10,
        1
    ],
    [
        2,
        10,
        1
    ],
    [
        4,
        10,
        1
    ],
    [
        12,
        10,
        1
    ],
    [
        14,
        10,
        1
    ],
    [
        16,
        10,
        1
    ],
    [
        6,
        11,
        1
    ],
    [
        8,
        11,
        1
    ],
    [
        10,
        11,
        1
    ],
    [
        0,
        12,
        1
    ],
    [
        2,
        12,
        1
    ],
    [
        4,
        12,
        1
    ],
    [
        12,
        12,
        1
    ],
    [
        14,
        12,
        1
    ],
    [
        16,
        12,
        1
    ],
    [
        0,
        0,
        2
    ],
    [
        2,
        0,
        2
    ],
    [
        4,
        0,
        2
    ],
    [
        12,
        0,
        2
    ],
    [
        14,
        0,
        2
    ],
    [
        16,
        0,
        2
    ],
    [
        6,
        1,
        2
    ],
    [
        8,
        1,
        2
    ],
    [
        10,
        1,
        2
    ],
    [
        0,
        2,
        2
    ],
    [
        2,
        2,
        2
    ],
    [
        4,
        2,
        2
    ],
    [
        12,
        2,
        2
    ],
    [
        14,
        2,
        2
    ],
    [
        16,
        2,
        2
    ],
    [
        2,
        4,
        2
    ],
    [
        14,
        4,
        2
    ],
    [
        2,
        6,
        2
    ],
    [
        14,
        6,
        2
    ],
    [
        2,
        8,
        2
    ],
    [
        14,
        8,
        2
    ],
    [
        0,
        10,
        2
    ],
    [
        2,
        10,
        2
    ],
    [
        4,
        10,
        2
    ],
    [
        12,
        10,
        2
    ],
    [
        14,
        10,
        2
    ],
    [
        16,
        10,
        2
    ],
    [
        6,
        11,
        2
    ],
    [
        8,
        11,
        2
    ],
    [
        10,
        11,
        2
    ],
    [
        0,
        12,
        2
    ],
    [
        2,
        12,
        2
    ],
    [
        4,
        12,
        2
    ],
    [
        12,
        12,
        2
    ],
    [
        14,
        12,
        2
    ],
    [
        16,
        12,
        2
    ],
    [
        1,
        1,
        3
    ],
    [
        3,
        1,
        3
    ],
    [
        5,
        1,
        3
    ],
    [
        7,
        1,
        3
    ],
    [
        9,
        1,
        3
    ],
    [
        11,
        1,
        3
    ],
    [
        13,
        1,
        3
    ],
    [
        15,
        1,
        3
    ],
    [
        2,
        3,
        3
    ],
    [
        14,
        3,
        3
    ],
    [
        2,
        5,
        3
    ],
    [
        14,
        5,
        3
    ],
    [
        2,
        7,
        3
    ],
    [
        14,
        7,
        3
    ],
    [
        2,
        9,
        3
    ],
    [
        14,
        9,
        3
    ],
    [
        1,
        11,
        3
    ],
    [
        3,
        11,
        3
    ],
    [
        5,
        11,
        3
    ],
    [
        7,
        11,
        3
    ],
    [
        9,
        11,
        3
    ],
    [
        11,
        11,
        3
    ],
    [
        13,
        11,
        3
    ],
    [
        15,
        11,
        3
    ],
    [
        8,
        1,
        4
    ],
    [
        2,
        6,
        4
    ],
    [
        14,
        6,
        4
    ],
    [
        8,
        11,
        4
    ]
]