[
    [
        5,
        0,
        0
    ],
    [
        11,
        0,
        0
    ],
    [
        1,
        1,
        0
    ],
    [
        15,
        1,
        0
    ],
    [
        3,
        2,
        0
    ],
    [
        7,
        2,
        0
    ],
    [
        9,
        2,
        0
    ],
    [
        13,
        2,
        0
    ],
    [
        0,
        3,
        0
    ],
    [
        5,
        3,
        0
    ],
    [
        11,
        3,
        0
    ],
    [
        16,
        3,
        0
    ],
    [
        3,
        4,
        0
    ],
    [
        7,
        4,
        0
    ],
    [
        9,
        4,
        0
    ],
    [
        13,
        4,
        0
    ],
    [
        1,
        5,
        0
    ],
    [
        15,
        5,
        0
    ],
    [
        3,
        6,
        0
    ],
    [
        7,
        6,
        0
    ],
    [
        9,
        6,
        0
    ],
    [
        13,
        6,
        0
    ],
    [
        0,
        7,
        0
    ],
    [
        5,
        7,
        0
    ],
    [
        11,
        7,
        0
    ],
    [
        16,
        7,
        0
    ],
    [
        3,
        8,
        0
    ],
    [
        7,
        8,
        0
    ],
    [
        9,
        8,
        0
    ],
    [
        13,
        8,
        0
    ],
    [
        1,
        9,
        0
    ],
    [
        15,
        9,
        0
    ],
    [
        5,
        10,
        0
    ],
    [
        11,
        10,
        0
    ],
    [
        5,
        0,
        1
    ],
    [
        11,
        0,
        1
    ],
    [
        3,
        2,
        1
    ],
    [
        7,
        2,
        1
    ],
    [
        9,
        2,
        1
    ],
    [
        13,
        2,
        1
    ],
    [
        0,
        3,
        1
    ],
    [
        5,
        3,
        1
    ],
    [
        11,
        3,
        1
    ],
    [
        16,
        3,
        1
    ],
    [
        3,
        4,
        1
    ],
    [
        7,
        4,
        1
    ],
    [
        9,
        4,
        1
    ],
    [
        13,
        4,
        1
    ],
    [
        1,
        5,
        1
    ],
    [
        15,
        5,
        1
    ],
    [
        3,
        6,
        1
    ],
    [
        7,
        6,
        1
    ],
    [
        9,
        6,
        1
    ],
    [
        13,
        6,
        1
    ],
    [
        0,
        7,
        1
    ],
    [
        5,
        7,
        1
    ],
    [
        11,
        7,
        1
    ],
    [
        16,
        7,
        1
    ],
    [
        3,
        8,
        1
    ],
    [
        7,
        8,
        1
    ],
    [
        9,
        8,
        1
    ],
    [
        13,
        8,
        1
    ],
    [
        5,
        10,
        1
    ],
    [
        11,
        10,
        1
    ],
    [
        5,
        0,
        2
    ],
    [
        11,
        0,
        2
    ],
    [
        3,
        2,
        2
    ],
    [
        7,
        2,
        2
    ],
    [
        9,
        2,
        2
    ],
    [
        13,
        2,
        2
    ],
    [
        5,
        3,
        2
    ],
    [
        11,
        3,
        2
    ],
    [
        3,
        4,
        2
    ],
    [
        7,
        4,
        2
    ],
    [
        9,
        4,
        2
    ],
    [
        13,
        4,
        2
    ],
    [
        3,
        6,
        2
    ],
    [
        7,
        6,
        2
    ],
    [
        9,
        6,
        2
    ],
    [
        13,
        6,
        2
    ],
    [
        5,
        7,
        2
    ],
    [
        11,
        7,
        2
    ],
    [
        3,
        8,
        2
    ],
    [
        7,
        8,
        2
    ],
    [
        9,
        8,
        2
    ],
    [
        13,
        8,
        2
    ],
    [
        5,
        10,
        2
    ],
    [
        11,
        10,
        2
    ],
    [
        5,
        0,
        3
    ],
    [
        11,
        0,
        3
    ],
    [
        3,
        2,
        3
    ],
    [
        7,
        2,
        3
    ],
    [
        9,
        2,
        3
    ],
    [
        13,
        2,
        3
    ],
    [
        5,
        3,
        3
    ],
    [
        11,
        3,
        3
    ],
    [
        3,
        4,
        3
    ],
    [
        7,
        4,
        3
    ],
    [
        9,
        4,
        3
    ],
    [
        13,
        4,
        3
    ],
    [
        3,
        6,
        3
    ],
    [
        7,
        6,
        3
    ],
    [
        9,
        6,
        3
    ],
    [
        13,
        6,
        3
    ],
    [
        5,
        7,
        3
    ],
    [
        11,
        7,
        3
    ],
    [
        3,
        8,
        3
    ],
    [
        7,
        8,
        3
    ],
    [
        9,
        8,
        3
    ],
    [
        13,
        8,
        3
    ],
    [
        5,
        10,
        3
    ],
    [
        11,
        10,
        3
    ],
    [
        5,
        0,
        4
    ],
    [
        11,
        0,
        4
    ],
    [
        3,
        2,
        4
    ],
    [
        7,
        2,
        4
    ],
    [
        9,
        2,
        4
    ],
    [
        13,
        2,
        4
    ],
    [
        5,
        3,
        4
    ],
    [
        11,
        3,
        4
    ],
    [
        3,
        4,
        4
    ],
    [
        7,
        4,
        4
    ],
    [
        9,
        4,
        4
    ],
    [
        13,
        4,
        4
    ],
    [
        3,
        6,
        4
    ],
    [
        7,
        6,
        4
    ],
    [
        9,
        6,
        4
    ],
    [
        13,
        6,
        4
    ],
    [
        5,
        7,
        4
    ],
    [
        11,
        7,
        4
    ],
    [
        3,
        8,
        4
    ],
    [
        7,
        8,
        4
    ],
    [
        9,
        8,
        4
    ],
    [
        13,
        8,
        4
    ],
    [
        5,
        10,
        4
    ],
    [
        11,
        10,
        4
    ],
    [
        5,
        3,
        5
    ],
    [
        11,
        3,
        5
    ],
    [
        3,
        5,
        5
    ],
    [
        7,
        5,
        5
    ],
    [
        9,
        5,
        5
    ],
    [
        13,
        5,
        5
    ],
    [
        5,
        7,
        5
    ],
    [
        11,
        7,
        5
    ],
    [
        5,
        3,
        6
    ],
    [
        11,
        3,
        6
    ],
    [
        3,
        5,
        6
    ],
    [
        7,
        5,
        6
    ],
    [
        9,
        5,
        6
    ],
    [
        13,
        5,
        6
    ],
    [
        5,
        7,
        6
    ],
    [
        11,
        7,
        6
    ]
]