[
    [
        4,
        0,
        0
    ],
    [
        12,
        0,
        0
    ],
    [
        2,
        2,
        0
    ],
    [
        6,
        2,
        0
    ],
    [
        10,
        2,
        0
    ],
    [
        14,
        2,
        0
    ],
    [
        0,
        3,
        0
    ],
    [
        16,
        3,
        0
    ],
    [
        2,
        4,
        0
    ],
    [
        8,
        4,
        0
    ],
    [
        14,
        4,
        0
    ],
    [
        0,
        5,
        0
    ],
    [
        16,
        5,
        0
    ],
    [
        2,
        6,
        0
    ],
    [
        8,
        6,
        0
    ],
    [
        14,
        6,
        0
    ],
    [
        0,
        7,
        0
    ],
    [
        16,
        7,
        0
    ],
    [
        2,
        8,
        0
    ],
    [
        14,
        8,
        0
    ],
    [
        0,
        9,
        0
    ],
    [
        16,
        9,
        0
    ],
    [
        2,
        10,
        0
    ],
    [
        14,
        10,
        0
    ],
    [
        0,
        11,
        0
    ],
    [
        16,
        11,
        0
    ],
    [
        2,
        12,
        0
    ],
    [
        14,
        12,
        0
    ],
    [
        0,
        13,
        0
    ],
    [
        16,
        13,
        0
    ],
    [
        4,
        0,
        1
    ],
    [
        12,
        0,
        1
    ],
    [
        2,
        2,
        1
    ],
    [
        6,
        2,
        1
    ],
    [
        10,
        2,
        1
    ],
    [
        14,
        2,
        1
    ],
    [
        0,
        4,
        1
    ],
    [
        2,
        4,
        1
    ],
    [
        8,
        4,
        1
    ],
    [
        14,
        4,
        1
    ],
    [
        16,
        4,
        1
    ],
    [
        0,
        6,
        1
    ],
    [
        2,
        6,
        1
    ],
    [
        8,
        6,
        1
    ],
    [
        14,
        6,
        1
    ],
    [
        16,
        6,
        1
    ],
    [
        0,
        8,
        1
    ],
    [
        2,
        8,
        1
    ],
    [
        14,
        8,
        1
    ],
    [
        16,
        8,
        1
    ],
    [
        0,
        10,
        1
    ],
    [
        2,
        10,
        1
    ],
    [
        14,
        10,
        1
    ],
    [
        16,
        10,
        1
    ],
    [
        0,
        12,
        1
    ],
    [
        2,
        12,
        1
    ],
    [
        14,
        12,
        1
    ],
    [
        16,
        12,
        1
    ],
    [
        4,
        0,
        2
    ],
    [
        12,
        0,
        2
    ],
    [
        8,
        4,
        2
    ],
    [
        0,
        5,
        2
    ],
    [
        2,
        5,
        2
    ],
    [
        14,
        5,
        2
    ],
    [
        16,
        5,
        2
    ],
    [
        8,
        6,
        2
    ],
    [
        0,
        7,
        2
    ],
    [
        2,
        7,
        2
    ],
    [
        14,
        7,
        2
    ],
    [
        16,
        7,
        2
    ],
    [
        0,
        9,
        2
    ],
    [
        2,
        9,
        2
    ],
    [
        14,
        9,
        2
    ],
    [
        16,
        9,
        2
    ],
    [
        0,
        11,
        2
    ],
    [
        2,
        11,
        2
    ],
    [
        14,
        11,
        2
    ],
    [
        16,
        11,
        2
    ],
    [
        4,
        0,
        3
    ],
    [
        12,
        0,
        3
    ],
    [
        8,
        4,
        3
    ],
    [
        0,
        6,
        3
    ],
    [
        8,
        6,
        3
    ],
    [
        16,
        6,
        3
    ],
    [
        0,
        8,
        3
    ],
    [
        16,
        8,
        3
    ],
    [
        0,
        10,
        3
    ],
    [
        16,
        10,
        3
    ]
]