[
    [
        0,
        4,
        0
    ],
    [
        2,
        4,
        0
    ],
    [
        4,
        4,
        0
    ],
    [
        6,
        4,
        0
    ],
    [
        8,
        4,
        0
    ],
    [
        10,
        4,
        0
    ],
    [
        12,
        4,
        0
    ],
    [
        14,
        4,
        0
    ],
    [
        16,
        4,
        0
    ],
    [
        0,
        6,
        0
    ],
    [
        2,
        6,
        0
    ],
    [
        4,
        6,
        0
    ],
    [
        6,
        6,
        0
    ],
    [
        8,
        6,
        0
    ],
    [
        10,
        6,
        0
    ],
    [
        12,
        6,
        0
    ],
    [
        14,
        6,
        0
    ],
    [
        16,
        6,
        0
    ],
    [
        1,
        8,
        0
    ],
    [
        3,
        8,
        0
    ],
    [
        5,
        8,
        0
    ],
    [
        7,
        8,
        0
    ],
    [
        9,
        8,
        0
    ],
    [
        11,
        8,
        0
    ],
    [
        13,
        8,
        0
    ],
    [
        15,
        8,
        0
    ],
    [
        1,
        10,
        0
    ],
    [
        3,
        10,
        0
    ],
    [
        5,
        10,
        0
    ],
    [
        7,
        10,
        0
    ],
    [
        9,
        10,
        0
    ],
    [
        11,
        10,
        0
    ],
    [
        13,
        10,
        0
    ],
    [
        15,
        10,
        0
    ],
    [
        1,
        12,
        0
    ],
    [
        3,
        12,
        0
    ],
    [
        5,
        12,
        0
    ],
    [
        7,
        12,
        0
    ],
    [
        9,
        12,
        0
    ],
    [
        11,
        12,
        0
    ],
    [
        13,
        12,
        0
    ],
    [
        1,
        14,
        0
    ],
    [
        3,
        14,
        0
    ],
    [
        5,
        14,
        0
    ],
    [
        7,
        14,
        0
    ],
    [
        9,
        14,
        0
    ],
    [
        11,
        14,
        0
    ],
    [
        13,
        14,
        0
    ],
    [
        2,
        16,
        0
    ],
    [
        4,
        16,
        0
    ],
    [
        6,
        16,
        0
    ],
    [
        8,
        16,
        0
    ],
    [
        10,
        16,
        0
    ],
    [
        12,
        16,
        0
    ],
    [
        2,
        18,
        0
    ],
    [
        4,
        18,
        0
    ],
    [
        6,
        18,
        0
    ],
    [
        8,
        18,
        0
    ],
    [
        10,
        18,
        0
    ],
    [
        12,
        18,
        0
    ],
    [
        3,
        20,
        0
    ],
    [
        5,
        20,
        0
    ],
    [
        7,
        20,
        0
    ],
    [
        9,
        20,
        0
    ],
    [
        11,
        20,
        0
    ],
    [
        2,
        4,
        1
    ],
    [
        4,
        4,
        1
    ],
    [
        6,
        4,
        1
    ],
    [
        8,
        4,
        1
    ],
    [
        10,
        4,
        1
    ],
    [
        12,
        4,
        1
    ],
    [
        14,
        4,
        1
    ],
    [
        16,
        4,
        1
    ],
    [
        4,
        6,
        1
    ],
    [
        6,
        6,
        1
    ],
    [
        8,
        6,
        1
    ],
    [
        10,
        6,
        1
    ],
    [
        12,
        6,
        1
    ],
    [
        14,
        6,
        1
    ],
    [
        16,
        6,
        1
    ],
    [
        3,
        8,
        1
    ],
    [
        5,
        8,
        1
    ],
    [
        7,
        8,
        1
    ],
    [
        9,
        8,
        1
    ],
    [
        11,
        8,
        1
    ],
    [
        13,
        8,
        1
    ],
    [
        15,
        8,
        1
    ],
    [
        3,
        10,
        1
    ],
    [
        5,
        10,
        1
    ],
    [
        7,
        10,
        1
    ],
    [
        9,
        10,
        1
    ],
    [
        11,
        10,
        1
    ],
    [
        13,
        10,
        1
    ],
    [
        15,
        10,
        1
    ],
    [
        3,
        12,
        1
    ],
    [
        5,
        12,
        1
    ],
    [
        7,
        12,
        1
    ],
    [
        9,
        12,
        1
    ],
    [
        11,
        12,
        1
    ],
    [
        13,
        12,
        1
    ],
    [
        3,
        14,
        1
    ],
    [
        5,
        14,
        1
    ],
    [
        7,
        14,
        1
    ],
    [
        9,
        14,
        1
    ],
    [
        11,
        14,
        1
    ],
    [
        13,
        14,
        1
    ],
    [
        4,
        16,
        1
    ],
    [
        6,
        16,
        1
    ],
    [
        8,
        16,
        1
    ],
    [
        10,
        16,
        1
    ],
    [
        12,
        16,
        1
    ],
    [
        4,
        18,
        1
    ],
    [
        6,
        18,
        1
    ],
    [
        8,
        18,
        1
    ],
    [
        10,
        18,
        1
    ],
    [
        12,
        18,
        1
    ],
    [
        8,
        4,
        2
    ],
    [
        12,
        4,
        2
    ],
    [
        14,
        4,
        2
    ],
    [
        8,
        6,
        2
    ],
    [
        10,
        6,
        2
    ],
    [
        12,
        6,
        2
    ],
    [
        14,
        6,
        2
    ],
    [
        7,
        8,
        2
    ],
    [
        9,
        8,
        2
    ],
    [
        11,
        8,
        2
    ],
    [
        13,
        8,
        2
    ],
    [
        3,
        10,
        2
    ],
    [
        5,
        10,
        2
    ],
    [
        7,
        10,
        2
    ],
    [
        9,
        10,
        2
    ],
    [
        7,
        12,
        2
    ],
    [
        9,
        12,
        2
    ],
    [
        5,
        14,
        2
    ],
    [
        7,
        14,
        2
    ],
    [
        9,
        14,
        2
    ],
    [
        6,
        16,
        2
    ],
    [
        8,
        16,
        2
    ],
    [
        10,
        16,
        2
    ],
    [
        6,
        18,
        2
    ],
    [
        8,
        18,
        2
    ],
    [
        10,
        18,
        2
    ]
]