[
    [
        0,
        3,
        0
    ],
    [
        2,
        3,
        0
    ],
    [
        4,
        3,
        0
    ],
    [
        6,
        3,
        0
    ],
    [
        8,
        3,
        0
    ],
    [
        10,
        3,
        0
    ],
    [
        12,
        3,
        0
    ],
    [
        14,
        3,
        0
    ],
    [
        16,
        3,
        0
    ],
    [
        0,
        5,
        0
    ],
    [
        16,
        5,
        0
    ],
    [
        0,
        7,
        0
    ],
    [
        2,
        7,
        0
    ],
    [
        4,
        7,
        0
    ],
    [
        6,
        7,
        0
    ],
    [
        8,
        7,
        0
    ],
    [
        10,
        7,
        0
    ],
    [
        12,
        7,
        0
    ],
    [
        16,
        7,
        0
    ],
    [
        0,
        9,
        0
    ],
    [
        6,
        9,
        0
    ],
    [
        12,
        9,
        0
    ],
    [
        16,
        9,
        0
    ],
    [
        0,
        11,
        0
    ],
    [
        6,
        11,
        0
    ],
    [
        12,
        11,
        0
    ],
    [
        16,
        11,
        0
    ],
    [
        0,
        13,
        0
    ],
    [
        6,
        13,
        0
    ],
    [
        12,
        13,
        0
    ],
    [
        16,
        13,
        0
    ],
    [
        0,
        15,
        0
    ],
    [
        6,
        15,
        0
    ],
    [
        12,
        15,
        0
    ],
    [
        16,
        15,
        0
    ],
    [
        0,
        17,
        0
    ],
    [
        6,
        17,
        0
    ],
    [
        12,
        17,
        0
    ],
    [
        16,
        17,
        0
    ],
    [
        0,
        19,
        0
    ],
    [
        6,
        19,
        0
    ],
    [
        12,
        19,
        0
    ],
    [
        16,
        19,
        0
    ],
    [
        0,
        21,
        0
    ],
    [
        6,
        21,
        0
    ],
    [
        16,
        21,
        0
    ],
    [
        0,
        23,
        0
    ],
    [
        2,
        23,
        0
    ],
    [
        4,
        23,
        0
    ],
    [
        6,
        23,
        0
    ],
    [
        8,
        23,
        0
    ],
    [
        10,
        23,
        0
    ],
    [
        12,
        23,
        0
    ],
    [
        14,
        23,
        0
    ],
    [
        16,
        23,
        0
    ],
    [
        0,
        7,
        1
    ],
    [
        2,
        7,
        1
    ],
    [
        4,
        7,
        1
    ],
    [
        6,
        7,
        1
    ],
    [
        8,
        7,
        1
    ],
    [
        10,
        7,
        1
    ],
    [
        12,
        7,
        1
    ],
    [
        0,
        9,
        1
    ],
    [
        6,
        9,
        1
    ],
    [
        12,
        9,
        1
    ],
    [
        0,
        11,
        1
    ],
    [
        6,
        11,
        1
    ],
    [
        12,
        11,
        1
    ],
    [
        0,
        13,
        1
    ],
    [
        6,
        13,
        1
    ],
    [
        12,
        13,
        1
    ],
    [
        0,
        15,
        1
    ],
    [
        6,
        15,
        1
    ],
    [
        12,
        15,
        1
    ],
    [
        0,
        17,
        1
    ],
    [
        6,
        17,
        1
    ],
    [
        12,
        17,
        1
    ],
    [
        0,
        19,
        1
    ],
    [
        6,
        19,
        1
    ],
    [
        12,
        19,
        1
    ],
    [
        0,
        7,
        2
    ],
    [
        2,
        7,
        2
    ],
    [
        4,
        7,
        2
    ],
    [
        6,
        7,
        2
    ],
    [
        8,
        7,
        2
    ],
    [
        10,
        7,
        2
    ],
    [
        12,
        7,
        2
    ],
    [
        0,
        9,
        2
    ],
    [
        6,
        9,
        2
    ],
    [
        12,
        9,
        2
    ],
    [
        0,
        11,
        2
    ],
    [
        6,
        11,
        2
    ],
    [
        12,
        11,
        2
    ],
    [
        0,
        13,
        2
    ],
    [
        6,
        13,
        2
    ],
    [
        12,
        13,
        2
    ],
    [
        0,
        15,
        2
    ],
    [
        6,
        15,
        2
    ],
    [
        12,
        15,
        2
    ],
    [
        0,
        17,
        2
    ],
    [
        6,
        17,
        2
    ],
    [
        12,
        17,
        2
    ],
    [
        0,
        19,
        2
    ],
    [
        6,
        19,
        2
    ],
    [
        12,
        19,
        2
    ],
    [
        0,
        7,
        3
    ],
    [
        2,
        7,
        3
    ],
    [
        4,
        7,
        3
    ],
    [
        6,
        7,
        3
    ],
    [
        8,
        7,
        3
    ],
    [
        10,
        7,
        3
    ],
    [
        12,
        7,
        3
    ],
    [
        0,
        9,
        3
    ],
    [
        6,
        9,
        3
    ],
    [
        12,
        9,
        3
    ],
    [
        0,
        11,
        3
    ],
    [
        6,
        11,
        3
    ],
    [
        12,
        11,
        3
    ],
    [
        0,
        13,
        3
    ],
    [
        6,
        13,
        3
    ],
    [
        12,
        13,
        3
    ],
    [
        0,
        15,
        3
    ],
    [
        6,
        15,
        3
    ],
    [
        12,
        15,
        3
    ],
    [
        0,
        17,
        3
    ],
    [
        6,
        17,
        3
    ],
    [
        12,
        17,
        3
    ],
    [
        0,
        19,
        3
    ],
    [
        6,
        19,
        3
    ],
    [
        12,
        19,
        3
    ]
]