[
    [
        8,
        3,
        0
    ],
    [
        10,
        3,
        0
    ],
    [
        12,
        3,
        0
    ],
    [
        14,
        3,
        0
    ],
    [
        16,
        3,
        0
    ],
    [
        5,
        5,
        0
    ],
    [
        9,
        5,
        0
    ],
    [
        11,
        5,
        0
    ],
    [
        13,
        5,
        0
    ],
    [
        15,
        5,
        0
    ],
    [
        17,
        5,
        0
    ],
    [
        4,
        7,
        0
    ],
    [
        8,
        7,
        0
    ],
    [
        10,
        7,
        0
    ],
    [
        12,
        7,
        0
    ],
    [
        14,
        7,
        0
    ],
    [
        16,
        7,
        0
    ],
    [
        6,
        8,
        0
    ],
    [
        4,
        9,
        0
    ],
    [
        8,
        9,
        0
    ],
    [
        10,
        9,
        0
    ],
    [
        12,
        9,
        0
    ],
    [
        14,
        9,
        0
    ],
    [
        16,
        9,
        0
    ],
    [
        3,
        11,
        0
    ],
    [
        5,
        11,
        0
    ],
    [
        7,
        11,
        0
    ],
    [
        9,
        11,
        0
    ],
    [
        11,
        11,
        0
    ],
    [
        13,
        11,
        0
    ],
    [
        15,
        11,
        0
    ],
    [
        17,
        11,
        0
    ],
    [
        4,
        13,
        0
    ],
    [
        8,
        13,
        0
    ],
    [
        10,
        13,
        0
    ],
    [
        12,
        13,
        0
    ],
    [
        14,
        13,
        0
    ],
    [
        16,
        13,
        0
    ],
    [
        6,
        14,
        0
    ],
    [
        4,
        15,
        0
    ],
    [
        8,
        15,
        0
    ],
    [
        10,
        15,
        0
    ],
    [
        12,
        15,
        0
    ],
    [
        14,
        15,
        0
    ],
    [
        16,
        15,
        0
    ],
    [
        5,
        17,
        0
    ],
    [
        9,
        17,
        0
    ],
    [
        11,
        17,
        0
    ],
    [
        13,
        17,
        0
    ],
    [
        15,
        17,
        0
    ],
    [
        17,
        17,
        0
    ],
    [
        8,
        19,
        0
    ],
    [
        10,
        19,
        0
    ],
    [
        12,
        19,
        0
    ],
    [
        14,
        19,
        0
    ],
    [
        16,
        19,
        0
    ],
    [
        8,
        3,
        1
    ],
    [
        10,
        3,
        1
    ],
    [
        12,
        3,
        1
    ],
    [
        14,
        3,
        1
    ],
    [
        16,
        3,
        1
    ],
    [
        5,
        5,
        1
    ],
    [
        9,
        5,
        1
    ],
    [
        11,
        5,
        1
    ],
    [
        13,
        5,
        1
    ],
    [
        15,
        5,
        1
    ],
    [
        17,
        5,
        1
    ],
    [
        4,
        7,
        1
    ],
    [
        8,
        7,
        1
    ],
    [
        10,
        7,
        1
    ],
    [
        12,
        7,
        1
    ],
    [
        14,
        7,
        1
    ],
    [
        16,
        7,
        1
    ],
    [
        6,
        8,
        1
    ],
    [
        4,
        9,
        1
    ],
    [
        8,
        9,
        1
    ],
    [
        10,
        9,
        1
    ],
    [
        12,
        9,
        1
    ],
    [
        14,
        9,
        1
    ],
    [
        16,
        9,
        1
    ],
    [
        3,
        11,
        1
    ],
    [
        5,
        11,
        1
    ],
    [
        7,
        11,
        1
    ],
    [
        9,
        11,
        1
    ],
    [
        11,
        11,
        1
    ],
    [
        13,
        11,
        1
    ],
    [
        15,
        11,
        1
    ],
    [
        17,
        11,
        1
    ],
    [
        4,
        13,
        1
    ],
    [
        8,
        13,
        1
    ],
    [
        10,
        13,
        1
    ],
    [
        12,
        13,
        1
    ],
    [
        14,
        13,
        1
    ],
    [
        16,
        13,
        1
    ],
    [
        6,
        14,
        1
    ],
    [
        4,
        15,
        1
    ],
    [
        8,
        15,
        1
    ],
    [
        10,
        15,
        1
    ],
    [
        12,
        15,
        1
    ],
    [
        14,
        15,
        1
    ],
    [
        16,
        15,
        1
    ],
    [
        5,
        17,
        1
    ],
    [
        9,
        17,
        1
    ],
    [
        11,
        17,
        1
    ],
    [
        13,
        17,
        1
    ],
    [
        15,
        17,
        1
    ],
    [
        17,
        17,
        1
    ],
    [
        8,
        19,
        1
    ],
    [
        10,
        19,
        1
    ],
    [
        12,
        19,
        1
    ],
    [
        14,
        19,
        1
    ],
    [
        16,
        19,
        1
    ],
    [
        5,
        5,
        2
    ],
    [
        4,
        7,
        2
    ],
    [
        6,
        8,
        2
    ],
    [
        4,
        9,
        2
    ],
    [
        3,
        11,
        2
    ],
    [
        5,
        11,
        2
    ],
    [
        4,
        13,
        2
    ],
    [
        6,
        14,
        2
    ],
    [
        4,
        15,
        2
    ],
    [
        5,
        17,
        2
    ]
]