[
    [
        1,
        6,
        0
    ],
    [
        3,
        6,
        0
    ],
    [
        5,
        6,
        0
    ],
    [
        7,
        6,
        0
    ],
    [
        9,
        6,
        0
    ],
    [
        11,
        6,
        0
    ],
    [
        13,
        6,
        0
    ],
    [
        15,
        6,
        0
    ],
    [
        17,
        6,
        0
    ],
    [
        1,
        8,
        0
    ],
    [
        5,
        8,
        0
    ],
    [
        9,
        8,
        0
    ],
    [
        13,
        8,
        0
    ],
    [
        17,
        8,
        0
    ],
    [
        1,
        10,
        0
    ],
    [
        3,
        10,
        0
    ],
    [
        5,
        10,
        0
    ],
    [
        7,
        10,
        0
    ],
    [
        9,
        10,
        0
    ],
    [
        11,
        10,
        0
    ],
    [
        13,
        10,
        0
    ],
    [
        15,
        10,
        0
    ],
    [
        17,
        10,
        0
    ],
    [
        3,
        12,
        0
    ],
    [
        7,
        12,
        0
    ],
    [
        11,
        12,
        0
    ],
    [
        15,
        12,
        0
    ],
    [
        2,
        14,
        0
    ],
    [
        4,
        14,
        0
    ],
    [
        7,
        14,
        0
    ],
    [
        11,
        14,
        0
    ],
    [
        15,
        14,
        0
    ],
    [
        1,
        16,
        0
    ],
    [
        3,
        16,
        0
    ],
    [
        5,
        16,
        0
    ],
    [
        7,
        16,
        0
    ],
    [
        9,
        16,
        0
    ],
    [
        11,
        16,
        0
    ],
    [
        13,
        16,
        0
    ],
    [
        15,
        16,
        0
    ],
    [
        17,
        16,
        0
    ],
    [
        2,
        18,
        0
    ],
    [
        4,
        18,
        0
    ],
    [
        7,
        18,
        0
    ],
    [
        11,
        18,
        0
    ],
    [
        15,
        18,
        0
    ],
    [
        1,
        6,
        1
    ],
    [
        3,
        6,
        1
    ],
    [
        5,
        6,
        1
    ],
    [
        7,
        6,
        1
    ],
    [
        9,
        6,
        1
    ],
    [
        11,
        6,
        1
    ],
    [
        13,
        6,
        1
    ],
    [
        15,
        6,
        1
    ],
    [
        17,
        6,
        1
    ],
    [
        1,
        8,
        1
    ],
    [
        5,
        8,
        1
    ],
    [
        9,
        8,
        1
    ],
    [
        13,
        8,
        1
    ],
    [
        17,
        8,
        1
    ],
    [
        1,
        10,
        1
    ],
    [
        3,
        10,
        1
    ],
    [
        5,
        10,
        1
    ],
    [
        7,
        10,
        1
    ],
    [
        9,
        10,
        1
    ],
    [
        11,
        10,
        1
    ],
    [
        13,
        10,
        1
    ],
    [
        15,
        10,
        1
    ],
    [
        17,
        10,
        1
    ],
    [
        3,
        12,
        1
    ],
    [
        7,
        12,
        1
    ],
    [
        11,
        12,
        1
    ],
    [
        15,
        12,
        1
    ],
    [
        2,
        14,
        1
    ],
    [
        4,
        14,
        1
    ],
    [
        7,
        14,
        1
    ],
    [
        11,
        14,
        1
    ],
    [
        15,
        14,
        1
    ],
    [
        1,
        16,
        1
    ],
    [
        3,
        16,
        1
    ],
    [
        5,
        16,
        1
    ],
    [
        7,
        16,
        1
    ],
    [
        9,
        16,
        1
    ],
    [
        11,
        16,
        1
    ],
    [
        13,
        16,
        1
    ],
    [
        15,
        16,
        1
    ],
    [
        17,
        16,
        1
    ],
    [
        2,
        18,
        1
    ],
    [
        4,
        18,
        1
    ],
    [
        7,
        18,
        1
    ],
    [
        11,
        18,
        1
    ],
    [
        15,
        18,
        1
    ],
    [
        1,
        6,
        2
    ],
    [
        3,
        6,
        2
    ],
    [
        5,
        6,
        2
    ],
    [
        7,
        6,
        2
    ],
    [
        9,
        6,
        2
    ],
    [
        11,
        6,
        2
    ],
    [
        13,
        6,
        2
    ],
    [
        15,
        6,
        2
    ],
    [
        17,
        6,
        2
    ],
    [
        1,
        8,
        2
    ],
    [
        5,
        8,
        2
    ],
    [
        9,
        8,
        2
    ],
    [
        13,
        8,
        2
    ],
    [
        17,
        8,
        2
    ],
    [
        1,
        10,
        2
    ],
    [
        3,
        10,
        2
    ],
    [
        5,
        10,
        2
    ],
    [
        7,
        10,
        2
    ],
    [
        9,
        10,
        2
    ],
    [
        11,
        10,
        2
    ],
    [
        13,
        10,
        2
    ],
    [
        15,
        10,
        2
    ],
    [
        17,
        10,
        2
    ],
    [
        3,
        12,
        2
    ],
    [
        7,
        12,
        2
    ],
    [
        11,
        12,
        2
    ],
    [
        15,
        12,
        2
    ],
    [
        2,
        14,
        2
    ],
    [
        4,
        14,
        2
    ],
    [
        7,
        14,
        2
    ],
    [
        11,
        14,
        2
    ],
    [
        15,
        14,
        2
    ],
    [
        1,
        16,
        2
    ],
    [
        3,
        16,
        2
    ],
    [
        5,
        16,
        2
    ],
    [
        7,
        16,
        2
    ],
    [
        9,
        16,
        2
    ],
    [
        11,
        16,
        2
    ],
    [
        13,
        16,
        2
    ],
    [
        15,
        16,
        2
    ],
    [
        17,
        16,
        2
    ],
    [
        2,
        18,
        2
    ],
    [
        4,
        18,
        2
    ],
    [
        7,
        18,
        2
    ],
    [
        11,
        18,
        2
    ],
    [
        15,
        18,
        2
    ]
]