[
    [
        2,
        0,
        0
    ],
    [
        13,
        0,
        0
    ],
    [
        0,
        2,
        0
    ],
    [
        2,
        2,
        0
    ],
    [
        4,
        2,
        0
    ],
    [
        11,
        2,
        0
    ],
    [
        13,
        2,
        0
    ],
    [
        15,
        2,
        0
    ],
    [
        0,
        4,
        0
    ],
    [
        2,
        4,
        0
    ],
    [
        4,
        4,
        0
    ],
    [
        6,
        4,
        0
    ],
    [
        9,
        4,
        0
    ],
    [
        11,
        4,
        0
    ],
    [
        13,
        4,
        0
    ],
    [
        15,
        4,
        0
    ],
    [
        17,
        4,
        0
    ],
    [
        0,
        6,
        0
    ],
    [
        2,
        6,
        0
    ],
    [
        4,
        6,
        0
    ],
    [
        11,
        6,
        0
    ],
    [
        13,
        6,
        0
    ],
    [
        15,
        6,
        0
    ],
    [
        0,
        8,
        0
    ],
    [
        2,
        8,
        0
    ],
    [
        4,
        8,
        0
    ],
    [
        11,
        8,
        0
    ],
    [
        13,
        8,
        0
    ],
    [
        15,
        8,
        0
    ],
    [
        0,
        10,
        0
    ],
    [
        2,
        10,
        0
    ],
    [
        4,
        10,
        0
    ],
    [
        11,
        10,
        0
    ],
    [
        13,
        10,
        0
    ],
    [
        15,
        10,
        0
    ],
    [
        2,
        12,
        0
    ],
    [
        13,
        12,
        0
    ],
    [
        0,
        14,
        0
    ],
    [
        2,
        14,
        0
    ],
    [
        4,
        14,
        0
    ],
    [
        6,
        14,
        0
    ],
    [
        9,
        14,
        0
    ],
    [
        11,
        14,
        0
    ],
    [
        13,
        14,
        0
    ],
    [
        15,
        14,
        0
    ],
    [
        17,
        14,
        0
    ],
    [
        2,
        1,
        1
    ],
    [
        13,
        1,
        1
    ],
    [
        1,
        3,
        1
    ],
    [
        3,
        3,
        1
    ],
    [
        12,
        3,
        1
    ],
    [
        14,
        3,
        1
    ],
    [
        1,
        5,
        1
    ],
    [
        3,
        5,
        1
    ],
    [
        12,
        5,
        1
    ],
    [
        14,
        5,
        1
    ],
    [
        1,
        7,
        1
    ],
    [
        3,
        7,
        1
    ],
    [
        12,
        7,
        1
    ],
    [
        14,
        7,
        1
    ],
    [
        1,
        9,
        1
    ],
    [
        3,
        9,
        1
    ],
    [
        12,
        9,
        1
    ],
    [
        14,
        9,
        1
    ],
    [
        2,
        11,
        1
    ],
    [
        13,
        11,
        1
    ],
    [
        0,
        14,
        1
    ],
    [
        2,
        14,
        1
    ],
    [
        4,
        14,
        1
    ],
    [
        11,
        14,
        1
    ],
    [
        13,
        14,
        1
    ],
    [
        15,
        14,
        1
    ],
    [
        1,
        3,
        2
    ],
    [
        3,
        3,
        2
    ],
    [
        12,
        3,
        2
    ],
    [
        14,
        3,
        2
    ],
    [
        1,
        5,
        2
    ],
    [
        3,
        5,
        2
    ],
    [
        12,
        5,
        2
    ],
    [
        14,
        5,
        2
    ],
    [
        1,
        7,
        2
    ],
    [
        3,
        7,
        2
    ],
    [
        12,
        7,
        2
    ],
    [
        14,
        7,
        2
    ],
    [
        1,
        9,
        2
    ],
    [
        3,
        9,
        2
    ],
    [
        12,
        9,
        2
    ],
    [
        14,
        9,
        2
    ],
    [
        2,
        11,
        2
    ],
    [
        13,
        11,
        2
    ],
    [
        1,
        14,
        2
    ],
    [
        3,
        14,
        2
    ],
    [
        12,
        14,
        2
    ],
    [
        14,
        14,
        2
    ],
    [
        2,
        3,
        3
    ],
    [
        13,
        3,
        3
    ],
    [
        2,
        5,
        3
    ],
    [
        13,
        5,
        3
    ],
    [
        2,
        7,
        3
    ],
    [
        13,
        7,
        3
    ],
    [
        2,
        9,
        3
    ],
    [
        13,
        9,
        3
    ],
    [
        2,
        14,
        3
    ],
    [
        13,
        14,
        3
    ],
    [
        2,
        4,
        4
    ],
    [
        13,
        4,
        4
    ],
    [
        2,
        6,
        4
    ],
    [
        13,
        6,
        4
    ],
    [
        2,
        8,
        4
    ],
    [
        13,
        8,
        4
    ],
    [
        2,
        6,
        5
    ],
    [
        13,
        6,
        5
    ]
]