[
    [
        7,
        7,
        0
    ],
    [
        7,
        9,
        0
    ],
    [
        13,
        10,
        0
    ],
    [
        15,
        10,
        0
    ],
    [
        7,
        11,
        0
    ],
    [
        9,
        11,
        0
    ],
    [
        11,
        11,
        0
    ],
    [
        17,
        11,
        0
    ],
    [
        13,
        12,
        0
    ],
    [
        15,
        12,
        0
    ],
    [
        3,
        13,
        0
    ],
    [
        5,
        13,
        0
    ],
    [
        7,
        13,
        0
    ],
    [
        9,
        13,
        0
    ],
    [
        11,
        13,
        0
    ],
    [
        13,
        14,
        0
    ],
    [
        15,
        14,
        0
    ],
    [
        3,
        15,
        0
    ],
    [
        5,
        15,
        0
    ],
    [
        7,
        15,
        0
    ],
    [
        9,
        15,
        0
    ],
    [
        11,
        15,
        0
    ],
    [
        17,
        15,
        0
    ],
    [
        13,
        16,
        0
    ],
    [
        15,
        16,
        0
    ],
    [
        7,
        17,
        0
    ],
    [
        9,
        17,
        0
    ],
    [
        11,
        17,
        0
    ],
    [
        6,
        19,
        0
    ],
    [
        12,
        19,
        0
    ],
    [
        14,
        19,
        0
    ],
    [
        8,
        20,
        0
    ],
    [
        10,
        20,
        0
    ],
    [
        6,
        21,
        0
    ],
    [
        12,
        21,
        0
    ],
    [
        15,
        21,
        0
    ],
    [
        17,
        21,
        0
    ],
    [
        2,
        22,
        0
    ],
    [
        4,
        22,
        0
    ],
    [
        8,
        22,
        0
    ],
    [
        10,
        22,
        0
    ],
    [
        6,
        23,
        0
    ],
    [
        12,
        23,
        0
    ],
    [
        14,
        23,
        0
    ],
    [
        2,
        24,
        0
    ],
    [
        4,
        24,
        0
    ],
    [
        8,
        24,
        0
    ],
    [
        10,
        24,
        0
    ],
    [
        6,
        25,
        0
    ],
    [
        12,
        25,
        0
    ],
    [
        15,
        25,
        0
    ],
    [
        17,
        25,
        0
    ],
    [
        8,
        26,
        0
    ],
    [
        10,
        26,
        0
    ],
    [
        6,
        27,
        0
    ],
    [
        12,
        27,
        0
    ],
    [
        14,
        27,
        0
    ],
    [
        7,
        9,
        1
    ],
    [
        7,
        11,
        1
    ],
    [
        9,
        11,
        1
    ],
    [
        11,
        11,
        1
    ],
    [
        3,
        13,
        1
    ],
    [
        5,
        13,
        1
    ],
    [
        7,
        13,
        1
    ],
    [
        9,
        13,
        1
    ],
    [
        11,
        13,
        1
    ],
    [
        3,
        15,
        1
    ],
    [
        5,
        15,
        1
    ],
    [
        7,
        15,
        1
    ],
    [
        9,
        15,
        1
    ],
    [
        11,
        15,
        1
    ],
    [
        7,
        17,
        1
    ],
    [
        9,
        17,
        1
    ],
    [
        11,
        17,
        1
    ],
    [
        6,
        19,
        1
    ],
    [
        12,
        19,
        1
    ],
    [
        14,
        19,
        1
    ],
    [
        8,
        20,
        1
    ],
    [
        10,
        20,
        1
    ],
    [
        6,
        21,
        1
    ],
    [
        12,
        21,
        1
    ],
    [
        15,
        21,
        1
    ],
    [
        17,
        21,
        1
    ],
    [
        2,
        22,
        1
    ],
    [
        4,
        22,
        1
    ],
    [
        8,
        22,
        1
    ],
    [
        10,
        22,
        1
    ],
    [
        6,
        23,
        1
    ],
    [
        12,
        23,
        1
    ],
    [
        14,
        23,
        1
    ],
    [
        2,
        24,
        1
    ],
    [
        4,
        24,
        1
    ],
    [
        8,
        24,
        1
    ],
    [
        10,
        24,
        1
    ],
    [
        6,
        25,
        1
    ],
    [
        12,
        25,
        1
    ],
    [
        15,
        25,
        1
    ],
    [
        17,
        25,
        1
    ],
    [
        8,
        26,
        1
    ],
    [
        10,
        26,
        1
    ],
    [
        6,
        27,
        1
    ],
    [
        12,
        27,
        1
    ],
    [
        14,
        27,
        1
    ],
    [
        11,
        13,
        2
    ],
    [
        9,
        15,
        2
    ],
    [
        11,
        15,
        2
    ],
    [
        11,
        17,
        2
    ],
    [
        12,
        19,
        2
    ],
    [
        14,
        19,
        2
    ],
    [
        12,
        21,
        2
    ],
    [
        15,
        21,
        2
    ],
    [
        10,
        22,
        2
    ],
    [
        12,
        23,
        2
    ],
    [
        14,
        23,
        2
    ],
    [
        10,
        24,
        2
    ],
    [
        12,
        25,
        2
    ],
    [
        15,
        25,
        2
    ],
    [
        8,
        26,
        2
    ],
    [
        10,
        26,
        2
    ],
    [
        6,
        27,
        2
    ],
    [
        11,
        13,
        3
    ],
    [
        9,
        15,
        3
    ],
    [
        11,
        15,
        3
    ],
    [
        11,
        17,
        3
    ]
]