[
    [
        7,
        5,
        0
    ],
    [
        9,
        5,
        0
    ],
    [
        11,
        5,
        0
    ],
    [
        13,
        5,
        0
    ],
    [
        15,
        5,
        0
    ],
    [
        17,
        5,
        0
    ],
    [
        7,
        7,
        0
    ],
    [
        10,
        7,
        0
    ],
    [
        12,
        7,
        0
    ],
    [
        14,
        7,
        0
    ],
    [
        7,
        9,
        0
    ],
    [
        9,
        9,
        0
    ],
    [
        11,
        9,
        0
    ],
    [
        13,
        9,
        0
    ],
    [
        15,
        9,
        0
    ],
    [
        17,
        9,
        0
    ],
    [
        7,
        11,
        0
    ],
    [
        10,
        11,
        0
    ],
    [
        12,
        11,
        0
    ],
    [
        14,
        11,
        0
    ],
    [
        7,
        13,
        0
    ],
    [
        9,
        13,
        0
    ],
    [
        11,
        13,
        0
    ],
    [
        13,
        13,
        0
    ],
    [
        15,
        13,
        0
    ],
    [
        17,
        13,
        0
    ],
    [
        2,
        15,
        0
    ],
    [
        4,
        15,
        0
    ],
    [
        6,
        15,
        0
    ],
    [
        8,
        15,
        0
    ],
    [
        10,
        15,
        0
    ],
    [
        12,
        15,
        0
    ],
    [
        14,
        15,
        0
    ],
    [
        1,
        17,
        0
    ],
    [
        3,
        17,
        0
    ],
    [
        5,
        17,
        0
    ],
    [
        7,
        17,
        0
    ],
    [
        9,
        17,
        0
    ],
    [
        11,
        17,
        0
    ],
    [
        13,
        17,
        0
    ],
    [
        15,
        17,
        0
    ],
    [
        17,
        17,
        0
    ],
    [
        0,
        19,
        0
    ],
    [
        4,
        19,
        0
    ],
    [
        6,
        19,
        0
    ],
    [
        8,
        19,
        0
    ],
    [
        10,
        19,
        0
    ],
    [
        12,
        19,
        0
    ],
    [
        14,
        19,
        0
    ],
    [
        1,
        21,
        0
    ],
    [
        3,
        21,
        0
    ],
    [
        5,
        21,
        0
    ],
    [
        7,
        21,
        0
    ],
    [
        9,
        21,
        0
    ],
    [
        11,
        21,
        0
    ],
    [
        13,
        21,
        0
    ],
    [
        15,
        21,
        0
    ],
    [
        17,
        21,
        0
    ],
    [
        7,
        5,
        1
    ],
    [
        9,
        5,
        1
    ],
    [
        11,
        5,
        1
    ],
    [
        13,
        5,
        1
    ],
    [
        15,
        5,
        1
    ],
    [
        17,
        5,
        1
    ],
    [
        7,
        7,
        1
    ],
    [
        10,
        7,
        1
    ],
    [
        12,
        7,
        1
    ],
    [
        14,
        7,
        1
    ],
    [
        7,
        9,
        1
    ],
    [
        9,
        9,
        1
    ],
    [
        11,
        9,
        1
    ],
    [
        13,
        9,
        1
    ],
    [
        15,
        9,
        1
    ],
    [
        17,
        9,
        1
    ],
    [
        7,
        11,
        1
    ],
    [
        10,
        11,
        1
    ],
    [
        12,
        11,
        1
    ],
    [
        14,
        11,
        1
    ],
    [
        7,
        13,
        1
    ],
    [
        9,
        13,
        1
    ],
    [
        11,
        13,
        1
    ],
    [
        13,
        13,
        1
    ],
    [
        15,
        13,
        1
    ],
    [
        17,
        13,
        1
    ],
    [
        2,
        15,
        1
    ],
    [
        4,
        15,
        1
    ],
    [
        6,
        15,
        1
    ],
    [
        8,
        15,
        1
    ],
    [
        10,
        15,
        1
    ],
    [
        12,
        15,
        1
    ],
    [
        14,
        15,
        1
    ],
    [
        1,
        17,
        1
    ],
    [
        3,
        17,
        1
    ],
    [
        5,
        17,
        1
    ],
    [
        7,
        17,
        1
    ],
    [
        9,
        17,
        1
    ],
    [
        11,
        17,
        1
    ],
    [
        13,
        17,
        1
    ],
    [
        15,
        17,
        1
    ],
    [
        17,
        17,
        1
    ],
    [
        0,
        19,
        1
    ],
    [
        4,
        19,
        1
    ],
    [
        6,
        19,
        1
    ],
    [
        8,
        19,
        1
    ],
    [
        10,
        19,
        1
    ],
    [
        12,
        19,
        1
    ],
    [
        14,
        19,
        1
    ],
    [
        1,
        21,
        1
    ],
    [
        3,
        21,
        1
    ],
    [
        5,
        21,
        1
    ],
    [
        7,
        21,
        1
    ],
    [
        9,
        21,
        1
    ],
    [
        11,
        21,
        1
    ],
    [
        13,
        21,
        1
    ],
    [
        15,
        21,
        1
    ],
    [
        17,
        21,
        1
    ],
    [
        7,
        5,
        2
    ],
    [
        9,
        5,
        2
    ],
    [
        11,
        5,
        2
    ],
    [
        13,
        5,
        2
    ],
    [
        15,
        5,
        2
    ],
    [
        17,
        5,
        2
    ],
    [
        7,
        7,
        2
    ],
    [
        7,
        9,
        2
    ],
    [
        9,
        9,
        2
    ],
    [
        11,
        9,
        2
    ],
    [
        13,
        9,
        2
    ],
    [
        15,
        9,
        2
    ],
    [
        17,
        9,
        2
    ],
    [
        7,
        11,
        2
    ],
    [
        7,
        13,
        2
    ],
    [
        9,
        13,
        2
    ],
    [
        11,
        13,
        2
    ],
    [
        13,
        13,
        2
    ],
    [
        15,
        13,
        2
    ],
    [
        17,
        13,
        2
    ],
    [
        1,
        17,
        2
    ],
    [
        3,
        17,
        2
    ],
    [
        0,
        19,
        2
    ],
    [
        4,
        19,
        2
    ],
    [
        1,
        21,
        2
    ],
    [
        3,
        21,
        2
    ]
]