[
    [
        9,
        7,
        0
    ],
    [
        11,
        7,
        0
    ],
    [
        13,
        7,
        0
    ],
    [
        17,
        7,
        0
    ],
    [
        5,
        8,
        0
    ],
    [
        7,
        8,
        0
    ],
    [
        0,
        9,
        0
    ],
    [
        2,
        9,
        0
    ],
    [
        17,
        9,
        0
    ],
    [
        10,
        10,
        0
    ],
    [
        12,
        10,
        0
    ],
    [
        4,
        11,
        0
    ],
    [
        6,
        11,
        0
    ],
    [
        17,
        11,
        0
    ],
    [
        14,
        12,
        0
    ],
    [
        1,
        14,
        0
    ],
    [
        5,
        14,
        0
    ],
    [
        8,
        14,
        0
    ],
    [
        10,
        14,
        0
    ],
    [
        14,
        14,
        0
    ],
    [
        17,
        15,
        0
    ],
    [
        1,
        16,
        0
    ],
    [
        5,
        16,
        0
    ],
    [
        14,
        16,
        0
    ],
    [
        8,
        17,
        0
    ],
    [
        10,
        17,
        0
    ],
    [
        17,
        17,
        0
    ],
    [
        0,
        19,
        0
    ],
    [
        17,
        19,
        0
    ],
    [
        3,
        20,
        0
    ],
    [
        5,
        20,
        0
    ],
    [
        7,
        20,
        0
    ],
    [
        0,
        21,
        0
    ],
    [
        11,
        21,
        0
    ],
    [
        13,
        21,
        0
    ],
    [
        15,
        21,
        0
    ],
    [
        9,
        7,
        1
    ],
    [
        11,
        7,
        1
    ],
    [
        13,
        7,
        1
    ],
    [
        17,
        7,
        1
    ],
    [
        5,
        8,
        1
    ],
    [
        7,
        8,
        1
    ],
    [
        0,
        9,
        1
    ],
    [
        2,
        9,
        1
    ],
    [
        17,
        9,
        1
    ],
    [
        10,
        10,
        1
    ],
    [
        12,
        10,
        1
    ],
    [
        4,
        11,
        1
    ],
    [
        6,
        11,
        1
    ],
    [
        17,
        11,
        1
    ],
    [
        14,
        12,
        1
    ],
    [
        1,
        14,
        1
    ],
    [
        5,
        14,
        1
    ],
    [
        8,
        14,
        1
    ],
    [
        10,
        14,
        1
    ],
    [
        14,
        14,
        1
    ],
    [
        17,
        15,
        1
    ],
    [
        1,
        16,
        1
    ],
    [
        5,
        16,
        1
    ],
    [
        14,
        16,
        1
    ],
    [
        8,
        17,
        1
    ],
    [
        10,
        17,
        1
    ],
    [
        17,
        17,
        1
    ],
    [
        0,
        19,
        1
    ],
    [
        17,
        19,
        1
    ],
    [
        3,
        20,
        1
    ],
    [
        5,
        20,
        1
    ],
    [
        7,
        20,
        1
    ],
    [
        0,
        21,
        1
    ],
    [
        11,
        21,
        1
    ],
    [
        13,
        21,
        1
    ],
    [
        15,
        21,
        1
    ],
    [
        9,
        7,
        2
    ],
    [
        11,
        7,
        2
    ],
    [
        13,
        7,
        2
    ],
    [
        17,
        7,
        2
    ],
    [
        5,
        8,
        2
    ],
    [
        7,
        8,
        2
    ],
    [
        0,
        9,
        2
    ],
    [
        2,
        9,
        2
    ],
    [
        17,
        9,
        2
    ],
    [
        10,
        10,
        2
    ],
    [
        12,
        10,
        2
    ],
    [
        4,
        11,
        2
    ],
    [
        6,
        11,
        2
    ],
    [
        17,
        11,
        2
    ],
    [
        14,
        12,
        2
    ],
    [
        1,
        14,
        2
    ],
    [
        5,
        14,
        2
    ],
    [
        8,
        14,
        2
    ],
    [
        10,
        14,
        2
    ],
    [
        14,
        14,
        2
    ],
    [
        17,
        15,
        2
    ],
    [
        1,
        16,
        2
    ],
    [
        5,
        16,
        2
    ],
    [
        14,
        16,
        2
    ],
    [
        8,
        17,
        2
    ],
    [
        10,
        17,
        2
    ],
    [
        17,
        17,
        2
    ],
    [
        0,
        19,
        2
    ],
    [
        17,
        19,
        2
    ],
    [
        3,
        20,
        2
    ],
    [
        5,
        20,
        2
    ],
    [
        7,
        20,
        2
    ],
    [
        0,
        21,
        2
    ],
    [
        11,
        21,
        2
    ],
    [
        13,
        21,
        2
    ],
    [
        15,
        21,
        2
    ],
    [
        5,
        8,
        3
    ],
    [
        7,
        8,
        3
    ],
    [
        0,
        9,
        3
    ],
    [
        2,
        9,
        3
    ],
    [
        10,
        10,
        3
    ],
    [
        12,
        10,
        3
    ],
    [
        4,
        11,
        3
    ],
    [
        6,
        11,
        3
    ],
    [
        1,
        14,
        3
    ],
    [
        5,
        14,
        3
    ],
    [
        8,
        14,
        3
    ],
    [
        10,
        14,
        3
    ],
    [
        1,
        16,
        3
    ],
    [
        5,
        16,
        3
    ],
    [
        8,
        17,
        3
    ],
    [
        10,
        17,
        3
    ],
    [
        0,
        19,
        3
    ],
    [
        0,
        21,
        3
    ]
]