[
    [
        6,
        7,
        0
    ],
    [
        8,
        7,
        0
    ],
    [
        10,
        7,
        0
    ],
    [
        4,
        8,
        0
    ],
    [
        7,
        9,
        0
    ],
    [
        9,
        9,
        0
    ],
    [
        11,
        9,
        0
    ],
    [
        15,
        9,
        0
    ],
    [
        17,
        9,
        0
    ],
    [
        3,
        10,
        0
    ],
    [
        6,
        11,
        0
    ],
    [
        8,
        11,
        0
    ],
    [
        10,
        11,
        0
    ],
    [
        12,
        11,
        0
    ],
    [
        14,
        11,
        0
    ],
    [
        16,
        11,
        0
    ],
    [
        2,
        12,
        0
    ],
    [
        5,
        13,
        0
    ],
    [
        7,
        13,
        0
    ],
    [
        9,
        13,
        0
    ],
    [
        11,
        13,
        0
    ],
    [
        13,
        13,
        0
    ],
    [
        15,
        13,
        0
    ],
    [
        1,
        14,
        0
    ],
    [
        6,
        15,
        0
    ],
    [
        8,
        15,
        0
    ],
    [
        10,
        15,
        0
    ],
    [
        12,
        15,
        0
    ],
    [
        2,
        16,
        0
    ],
    [
        7,
        17,
        0
    ],
    [
        9,
        17,
        0
    ],
    [
        11,
        17,
        0
    ],
    [
        6,
        19,
        0
    ],
    [
        8,
        19,
        0
    ],
    [
        10,
        19,
        0
    ],
    [
        12,
        19,
        0
    ],
    [
        0,
        20,
        0
    ],
    [
        3,
        21,
        0
    ],
    [
        5,
        21,
        0
    ],
    [
        7,
        21,
        0
    ],
    [
        9,
        21,
        0
    ],
    [
        11,
        21,
        0
    ],
    [
        13,
        21,
        0
    ],
    [
        1,
        22,
        0
    ],
    [
        3,
        23,
        0
    ],
    [
        13,
        23,
        0
    ],
    [
        6,
        7,
        1
    ],
    [
        8,
        7,
        1
    ],
    [
        10,
        7,
        1
    ],
    [
        4,
        8,
        1
    ],
    [
        7,
        9,
        1
    ],
    [
        9,
        9,
        1
    ],
    [
        11,
        9,
        1
    ],
    [
        15,
        9,
        1
    ],
    [
        17,
        9,
        1
    ],
    [
        3,
        10,
        1
    ],
    [
        6,
        11,
        1
    ],
    [
        8,
        11,
        1
    ],
    [
        10,
        11,
        1
    ],
    [
        12,
        11,
        1
    ],
    [
        14,
        11,
        1
    ],
    [
        16,
        11,
        1
    ],
    [
        2,
        12,
        1
    ],
    [
        5,
        13,
        1
    ],
    [
        7,
        13,
        1
    ],
    [
        9,
        13,
        1
    ],
    [
        11,
        13,
        1
    ],
    [
        13,
        13,
        1
    ],
    [
        15,
        13,
        1
    ],
    [
        1,
        14,
        1
    ],
    [
        6,
        15,
        1
    ],
    [
        8,
        15,
        1
    ],
    [
        10,
        15,
        1
    ],
    [
        12,
        15,
        1
    ],
    [
        2,
        16,
        1
    ],
    [
        7,
        17,
        1
    ],
    [
        9,
        17,
        1
    ],
    [
        11,
        17,
        1
    ],
    [
        6,
        19,
        1
    ],
    [
        8,
        19,
        1
    ],
    [
        10,
        19,
        1
    ],
    [
        12,
        19,
        1
    ],
    [
        0,
        20,
        1
    ],
    [
        3,
        21,
        1
    ],
    [
        5,
        21,
        1
    ],
    [
        7,
        21,
        1
    ],
    [
        9,
        21,
        1
    ],
    [
        11,
        21,
        1
    ],
    [
        13,
        21,
        1
    ],
    [
        1,
        22,
        1
    ],
    [
        3,
        23,
        1
    ],
    [
        13,
        23,
        1
    ],
    [
        6,
        7,
        2
    ],
    [
        8,
        7,
        2
    ],
    [
        10,
        7,
        2
    ],
    [
        4,
        8,
        2
    ],
    [
        7,
        9,
        2
    ],
    [
        9,
        9,
        2
    ],
    [
        11,
        9,
        2
    ],
    [
        15,
        9,
        2
    ],
    [
        17,
        9,
        2
    ],
    [
        3,
        10,
        2
    ],
    [
        6,
        11,
        2
    ],
    [
        8,
        11,
        2
    ],
    [
        10,
        11,
        2
    ],
    [
        12,
        11,
        2
    ],
    [
        14,
        11,
        2
    ],
    [
        16,
        11,
        2
    ],
    [
        2,
        12,
        2
    ],
    [
        5,
        13,
        2
    ],
    [
        7,
        13,
        2
    ],
    [
        9,
        13,
        2
    ],
    [
        11,
        13,
        2
    ],
    [
        13,
        13,
        2
    ],
    [
        15,
        13,
        2
    ],
    [
        1,
        14,
        2
    ],
    [
        6,
        15,
        2
    ],
    [
        8,
        15,
        2
    ],
    [
        10,
        15,
        2
    ],
    [
        12,
        15,
        2
    ],
    [
        2,
        16,
        2
    ],
    [
        7,
        17,
        2
    ],
    [
        9,
        17,
        2
    ],
    [
        11,
        17,
        2
    ],
    [
        6,
        19,
        2
    ],
    [
        8,
        19,
        2
    ],
    [
        10,
        19,
        2
    ],
    [
        12,
        19,
        2
    ],
    [
        0,
        20,
        2
    ],
    [
        3,
        21,
        2
    ],
    [
        5,
        21,
        2
    ],
    [
        7,
        21,
        2
    ],
    [
        9,
        21,
        2
    ],
    [
        11,
        21,
        2
    ],
    [
        13,
        21,
        2
    ],
    [
        1,
        22,
        2
    ],
    [
        3,
        23,
        2
    ],
    [
        13,
        23,
        2
    ]
]