[
    [
        0,
        5,
        0
    ],
    [
        2,
        5,
        0
    ],
    [
        4,
        5,
        0
    ],
    [
        6,
        5,
        0
    ],
    [
        10,
        5,
        0
    ],
    [
        14,
        5,
        0
    ],
    [
        16,
        6,
        0
    ],
    [
        10,
        7,
        0
    ],
    [
        2,
        8,
        0
    ],
    [
        4,
        8,
        0
    ],
    [
        6,
        8,
        0
    ],
    [
        17,
        8,
        0
    ],
    [
        10,
        9,
        0
    ],
    [
        15,
        9,
        0
    ],
    [
        13,
        10,
        0
    ],
    [
        4,
        11,
        0
    ],
    [
        6,
        11,
        0
    ],
    [
        10,
        11,
        0
    ],
    [
        13,
        12,
        0
    ],
    [
        15,
        13,
        0
    ],
    [
        0,
        14,
        0
    ],
    [
        2,
        14,
        0
    ],
    [
        4,
        14,
        0
    ],
    [
        6,
        14,
        0
    ],
    [
        10,
        14,
        0
    ],
    [
        17,
        14,
        0
    ],
    [
        15,
        15,
        0
    ],
    [
        10,
        16,
        0
    ],
    [
        13,
        16,
        0
    ],
    [
        2,
        17,
        0
    ],
    [
        4,
        17,
        0
    ],
    [
        6,
        17,
        0
    ],
    [
        10,
        18,
        0
    ],
    [
        13,
        18,
        0
    ],
    [
        15,
        18,
        0
    ],
    [
        17,
        18,
        0
    ],
    [
        0,
        20,
        0
    ],
    [
        2,
        20,
        0
    ],
    [
        4,
        20,
        0
    ],
    [
        6,
        20,
        0
    ],
    [
        10,
        20,
        0
    ],
    [
        16,
        20,
        0
    ],
    [
        14,
        21,
        0
    ],
    [
        0,
        5,
        1
    ],
    [
        2,
        5,
        1
    ],
    [
        4,
        5,
        1
    ],
    [
        6,
        5,
        1
    ],
    [
        10,
        5,
        1
    ],
    [
        14,
        5,
        1
    ],
    [
        16,
        6,
        1
    ],
    [
        10,
        7,
        1
    ],
    [
        2,
        8,
        1
    ],
    [
        4,
        8,
        1
    ],
    [
        6,
        8,
        1
    ],
    [
        17,
        8,
        1
    ],
    [
        10,
        9,
        1
    ],
    [
        15,
        9,
        1
    ],
    [
        13,
        10,
        1
    ],
    [
        4,
        11,
        1
    ],
    [
        6,
        11,
        1
    ],
    [
        10,
        11,
        1
    ],
    [
        13,
        12,
        1
    ],
    [
        15,
        13,
        1
    ],
    [
        0,
        14,
        1
    ],
    [
        2,
        14,
        1
    ],
    [
        4,
        14,
        1
    ],
    [
        6,
        14,
        1
    ],
    [
        10,
        14,
        1
    ],
    [
        17,
        14,
        1
    ],
    [
        15,
        15,
        1
    ],
    [
        10,
        16,
        1
    ],
    [
        13,
        16,
        1
    ],
    [
        2,
        17,
        1
    ],
    [
        4,
        17,
        1
    ],
    [
        6,
        17,
        1
    ],
    [
        10,
        18,
        1
    ],
    [
        13,
        18,
        1
    ],
    [
        15,
        18,
        1
    ],
    [
        17,
        18,
        1
    ],
    [
        0,
        20,
        1
    ],
    [
        2,
        20,
        1
    ],
    [
        4,
        20,
        1
    ],
    [
        6,
        20,
        1
    ],
    [
        10,
        20,
        1
    ],
    [
        16,
        20,
        1
    ],
    [
        14,
        21,
        1
    ],
    [
        0,
        5,
        2
    ],
    [
        2,
        5,
        2
    ],
    [
        4,
        5,
        2
    ],
    [
        6,
        5,
        2
    ],
    [
        10,
        5,
        2
    ],
    [
        14,
        5,
        2
    ],
    [
        16,
        6,
        2
    ],
    [
        10,
        7,
        2
    ],
    [
        2,
        8,
        2
    ],
    [
        4,
        8,
        2
    ],
    [
        6,
        8,
        2
    ],
    [
        17,
        8,
        2
    ],
    [
        10,
        9,
        2
    ],
    [
        15,
        9,
        2
    ],
    [
        13,
        10,
        2
    ],
    [
        4,
        11,
        2
    ],
    [
        6,
        11,
        2
    ],
    [
        10,
        11,
        2
    ],
    [
        13,
        12,
        2
    ],
    [
        15,
        13,
        2
    ],
    [
        0,
        14,
        2
    ],
    [
        2,
        14,
        2
    ],
    [
        4,
        14,
        2
    ],
    [
        6,
        14,
        2
    ],
    [
        10,
        14,
        2
    ],
    [
        17,
        14,
        2
    ],
    [
        15,
        15,
        2
    ],
    [
        10,
        16,
        2
    ],
    [
        2,
        17,
        2
    ],
    [
        4,
        17,
        2
    ],
    [
        6,
        17,
        2
    ],
    [
        10,
        18,
        2
    ],
    [
        13,
        18,
        2
    ],
    [
        15,
        18,
        2
    ],
    [
        17,
        18,
        2
    ],
    [
        0,
        20,
        2
    ],
    [
        2,
        20,
        2
    ],
    [
        4,
        20,
        2
    ],
    [
        6,
        20,
        2
    ],
    [
        10,
        20,
        2
    ],
    [
        16,
        20,
        2
    ],
    [
        14,
        21,
        2
    ],
    [
        10,
        5,
        3
    ],
    [
        10,
        7,
        3
    ],
    [
        10,
        9,
        3
    ],
    [
        10,
        11,
        3
    ],
    [
        10,
        14,
        3
    ],
    [
        10,
        16,
        3
    ],
    [
        10,
        18,
        3
    ],
    [
        10,
        20,
        3
    ]
]