[
    [
        16,
        4,
        0
    ],
    [
        11,
        5,
        0
    ],
    [
        13,
        5,
        0
    ],
    [
        4,
        6,
        0
    ],
    [
        6,
        6,
        0
    ],
    [
        15,
        6,
        0
    ],
    [
        17,
        6,
        0
    ],
    [
        10,
        7,
        0
    ],
    [
        12,
        7,
        0
    ],
    [
        2,
        8,
        0
    ],
    [
        4,
        8,
        0
    ],
    [
        6,
        8,
        0
    ],
    [
        8,
        8,
        0
    ],
    [
        14,
        8,
        0
    ],
    [
        16,
        8,
        0
    ],
    [
        10,
        9,
        0
    ],
    [
        12,
        9,
        0
    ],
    [
        2,
        10,
        0
    ],
    [
        4,
        10,
        0
    ],
    [
        6,
        10,
        0
    ],
    [
        8,
        10,
        0
    ],
    [
        15,
        10,
        0
    ],
    [
        17,
        10,
        0
    ],
    [
        10,
        11,
        0
    ],
    [
        12,
        11,
        0
    ],
    [
        2,
        12,
        0
    ],
    [
        4,
        12,
        0
    ],
    [
        6,
        12,
        0
    ],
    [
        8,
        12,
        0
    ],
    [
        14,
        12,
        0
    ],
    [
        16,
        12,
        0
    ],
    [
        10,
        13,
        0
    ],
    [
        12,
        13,
        0
    ],
    [
        2,
        14,
        0
    ],
    [
        4,
        14,
        0
    ],
    [
        6,
        14,
        0
    ],
    [
        8,
        14,
        0
    ],
    [
        15,
        14,
        0
    ],
    [
        17,
        14,
        0
    ],
    [
        10,
        15,
        0
    ],
    [
        12,
        15,
        0
    ],
    [
        2,
        16,
        0
    ],
    [
        4,
        16,
        0
    ],
    [
        6,
        16,
        0
    ],
    [
        8,
        16,
        0
    ],
    [
        14,
        16,
        0
    ],
    [
        16,
        16,
        0
    ],
    [
        10,
        17,
        0
    ],
    [
        12,
        17,
        0
    ],
    [
        2,
        18,
        0
    ],
    [
        4,
        18,
        0
    ],
    [
        6,
        18,
        0
    ],
    [
        8,
        18,
        0
    ],
    [
        15,
        18,
        0
    ],
    [
        17,
        18,
        0
    ],
    [
        10,
        19,
        0
    ],
    [
        12,
        19,
        0
    ],
    [
        4,
        20,
        0
    ],
    [
        6,
        20,
        0
    ],
    [
        14,
        20,
        0
    ],
    [
        16,
        20,
        0
    ],
    [
        11,
        21,
        0
    ],
    [
        13,
        22,
        0
    ],
    [
        15,
        22,
        0
    ],
    [
        17,
        22,
        0
    ],
    [
        16,
        4,
        1
    ],
    [
        15,
        6,
        1
    ],
    [
        17,
        6,
        1
    ],
    [
        4,
        8,
        1
    ],
    [
        6,
        8,
        1
    ],
    [
        14,
        8,
        1
    ],
    [
        16,
        8,
        1
    ],
    [
        2,
        10,
        1
    ],
    [
        4,
        10,
        1
    ],
    [
        6,
        10,
        1
    ],
    [
        8,
        10,
        1
    ],
    [
        15,
        10,
        1
    ],
    [
        17,
        10,
        1
    ],
    [
        2,
        12,
        1
    ],
    [
        4,
        12,
        1
    ],
    [
        6,
        12,
        1
    ],
    [
        8,
        12,
        1
    ],
    [
        14,
        12,
        1
    ],
    [
        16,
        12,
        1
    ],
    [
        2,
        14,
        1
    ],
    [
        4,
        14,
        1
    ],
    [
        6,
        14,
        1
    ],
    [
        8,
        14,
        1
    ],
    [
        15,
        14,
        1
    ],
    [
        17,
        14,
        1
    ],
    [
        2,
        16,
        1
    ],
    [
        4,
        16,
        1
    ],
    [
        6,
        16,
        1
    ],
    [
        8,
        16,
        1
    ],
    [
        14,
        16,
        1
    ],
    [
        16,
        16,
        1
    ],
    [
        2,
        18,
        1
    ],
    [
        4,
        18,
        1
    ],
    [
        6,
        18,
        1
    ],
    [
        15,
        18,
        1
    ],
    [
        17,
        18,
        1
    ],
    [
        4,
        20,
        1
    ],
    [
        6,
        20,
        1
    ],
    [
        14,
        20,
        1
    ],
    [
        16,
        20,
        1
    ],
    [
        13,
        22,
        1
    ],
    [
        15,
        22,
        1
    ],
    [
        17,
        22,
        1
    ],
    [
        4,
        8,
        2
    ],
    [
        6,
        8,
        2
    ],
    [
        2,
        10,
        2
    ],
    [
        8,
        10,
        2
    ],
    [
        6,
        11,
        2
    ],
    [
        2,
        12,
        2
    ],
    [
        8,
        12,
        2
    ],
    [
        5,
        13,
        2
    ],
    [
        2,
        14,
        2
    ],
    [
        8,
        14,
        2
    ],
    [
        4,
        15,
        2
    ],
    [
        2,
        16,
        2
    ],
    [
        8,
        16,
        2
    ],
    [
        4,
        18,
        2
    ],
    [
        6,
        18,
        2
    ],
    [
        4,
        8,
        3
    ],
    [
        6,
        8,
        3
    ],
    [
        2,
        10,
        3
    ],
    [
        8,
        10,
        3
    ],
    [
        6,
        11,
        3
    ],
    [
        2,
        12,
        3
    ],
    [
        8,
        12,
        3
    ],
    [
        5,
        13,
        3
    ],
    [
        2,
        14,
        3
    ],
    [
        8,
        14,
        3
    ],
    [
        4,
        15,
        3
    ],
    [
        2,
        16,
        3
    ],
    [
        8,
        16,
        3
    ],
    [
        4,
        18,
        3
    ],
    [
        6,
        18,
        3
    ]
]