[
    [
        15,
        4,
        0
    ],
    [
        17,
        4,
        0
    ],
    [
        12,
        5,
        0
    ],
    [
        10,
        6,
        0
    ],
    [
        17,
        6,
        0
    ],
    [
        12,
        7,
        0
    ],
    [
        2,
        8,
        0
    ],
    [
        4,
        8,
        0
    ],
    [
        6,
        8,
        0
    ],
    [
        8,
        8,
        0
    ],
    [
        10,
        8,
        0
    ],
    [
        17,
        8,
        0
    ],
    [
        12,
        9,
        0
    ],
    [
        2,
        10,
        0
    ],
    [
        4,
        10,
        0
    ],
    [
        6,
        10,
        0
    ],
    [
        8,
        10,
        0
    ],
    [
        10,
        10,
        0
    ],
    [
        15,
        10,
        0
    ],
    [
        17,
        10,
        0
    ],
    [
        12,
        11,
        0
    ],
    [
        2,
        12,
        0
    ],
    [
        4,
        12,
        0
    ],
    [
        6,
        12,
        0
    ],
    [
        8,
        12,
        0
    ],
    [
        10,
        12,
        0
    ],
    [
        15,
        12,
        0
    ],
    [
        17,
        12,
        0
    ],
    [
        12,
        13,
        0
    ],
    [
        2,
        14,
        0
    ],
    [
        4,
        14,
        0
    ],
    [
        6,
        14,
        0
    ],
    [
        8,
        14,
        0
    ],
    [
        10,
        14,
        0
    ],
    [
        17,
        14,
        0
    ],
    [
        12,
        15,
        0
    ],
    [
        2,
        16,
        0
    ],
    [
        4,
        16,
        0
    ],
    [
        6,
        16,
        0
    ],
    [
        8,
        16,
        0
    ],
    [
        10,
        16,
        0
    ],
    [
        15,
        16,
        0
    ],
    [
        17,
        16,
        0
    ],
    [
        12,
        17,
        0
    ],
    [
        2,
        18,
        0
    ],
    [
        4,
        18,
        0
    ],
    [
        6,
        18,
        0
    ],
    [
        8,
        18,
        0
    ],
    [
        10,
        18,
        0
    ],
    [
        15,
        18,
        0
    ],
    [
        17,
        18,
        0
    ],
    [
        12,
        19,
        0
    ],
    [
        10,
        20,
        0
    ],
    [
        17,
        20,
        0
    ],
    [
        12,
        21,
        0
    ],
    [
        15,
        22,
        0
    ],
    [
        17,
        22,
        0
    ],
    [
        15,
        4,
        1
    ],
    [
        17,
        4,
        1
    ],
    [
        12,
        5,
        1
    ],
    [
        10,
        6,
        1
    ],
    [
        17,
        6,
        1
    ],
    [
        12,
        7,
        1
    ],
    [
        3,
        8,
        1
    ],
    [
        5,
        8,
        1
    ],
    [
        7,
        8,
        1
    ],
    [
        9,
        8,
        1
    ],
    [
        17,
        8,
        1
    ],
    [
        12,
        9,
        1
    ],
    [
        2,
        10,
        1
    ],
    [
        4,
        10,
        1
    ],
    [
        6,
        10,
        1
    ],
    [
        9,
        10,
        1
    ],
    [
        15,
        10,
        1
    ],
    [
        17,
        10,
        1
    ],
    [
        12,
        11,
        1
    ],
    [
        2,
        12,
        1
    ],
    [
        4,
        12,
        1
    ],
    [
        6,
        12,
        1
    ],
    [
        9,
        12,
        1
    ],
    [
        15,
        12,
        1
    ],
    [
        17,
        12,
        1
    ],
    [
        12,
        13,
        1
    ],
    [
        2,
        14,
        1
    ],
    [
        4,
        14,
        1
    ],
    [
        6,
        14,
        1
    ],
    [
        9,
        14,
        1
    ],
    [
        17,
        14,
        1
    ],
    [
        12,
        15,
        1
    ],
    [
        2,
        16,
        1
    ],
    [
        4,
        16,
        1
    ],
    [
        6,
        16,
        1
    ],
    [
        9,
        16,
        1
    ],
    [
        15,
        16,
        1
    ],
    [
        17,
        16,
        1
    ],
    [
        12,
        17,
        1
    ],
    [
        3,
        18,
        1
    ],
    [
        5,
        18,
        1
    ],
    [
        7,
        18,
        1
    ],
    [
        9,
        18,
        1
    ],
    [
        15,
        18,
        1
    ],
    [
        17,
        18,
        1
    ],
    [
        12,
        19,
        1
    ],
    [
        10,
        20,
        1
    ],
    [
        17,
        20,
        1
    ],
    [
        12,
        21,
        1
    ],
    [
        15,
        22,
        1
    ],
    [
        17,
        22,
        1
    ],
    [
        10,
        6,
        2
    ],
    [
        12,
        7,
        2
    ],
    [
        9,
        8,
        2
    ],
    [
        12,
        9,
        2
    ],
    [
        9,
        10,
        2
    ],
    [
        12,
        11,
        2
    ],
    [
        9,
        12,
        2
    ],
    [
        9,
        14,
        2
    ],
    [
        12,
        15,
        2
    ],
    [
        9,
        16,
        2
    ],
    [
        12,
        17,
        2
    ],
    [
        9,
        18,
        2
    ],
    [
        12,
        19,
        2
    ],
    [
        10,
        20,
        2
    ]
]