[
    [
        7,
        8,
        0
    ],
    [
        9,
        8,
        0
    ],
    [
        11,
        8,
        0
    ],
    [
        5,
        10,
        0
    ],
    [
        7,
        10,
        0
    ],
    [
        9,
        10,
        0
    ],
    [
        11,
        10,
        0
    ],
    [
        13,
        10,
        0
    ],
    [
        3,
        12,
        0
    ],
    [
        5,
        12,
        0
    ],
    [
        7,
        12,
        0
    ],
    [
        9,
        12,
        0
    ],
    [
        11,
        12,
        0
    ],
    [
        13,
        12,
        0
    ],
    [
        15,
        12,
        0
    ],
    [
        2,
        14,
        0
    ],
    [
        4,
        14,
        0
    ],
    [
        6,
        14,
        0
    ],
    [
        8,
        14,
        0
    ],
    [
        10,
        14,
        0
    ],
    [
        12,
        14,
        0
    ],
    [
        14,
        14,
        0
    ],
    [
        16,
        14,
        0
    ],
    [
        1,
        16,
        0
    ],
    [
        3,
        16,
        0
    ],
    [
        5,
        16,
        0
    ],
    [
        7,
        16,
        0
    ],
    [
        9,
        16,
        0
    ],
    [
        11,
        16,
        0
    ],
    [
        13,
        16,
        0
    ],
    [
        15,
        16,
        0
    ],
    [
        17,
        16,
        0
    ],
    [
        1,
        18,
        0
    ],
    [
        3,
        18,
        0
    ],
    [
        5,
        18,
        0
    ],
    [
        9,
        18,
        0
    ],
    [
        13,
        18,
        0
    ],
    [
        15,
        18,
        0
    ],
    [
        17,
        18,
        0
    ],
    [
        1,
        20,
        0
    ],
    [
        3,
        20,
        0
    ],
    [
        9,
        20,
        0
    ],
    [
        11,
        20,
        0
    ],
    [
        15,
        20,
        0
    ],
    [
        17,
        20,
        0
    ],
    [
        7,
        21,
        0
    ],
    [
        1,
        22,
        0
    ],
    [
        9,
        22,
        0
    ],
    [
        11,
        22,
        0
    ],
    [
        17,
        22,
        0
    ],
    [
        9,
        24,
        0
    ],
    [
        7,
        8,
        1
    ],
    [
        9,
        8,
        1
    ],
    [
        11,
        8,
        1
    ],
    [
        5,
        10,
        1
    ],
    [
        7,
        10,
        1
    ],
    [
        9,
        10,
        1
    ],
    [
        11,
        10,
        1
    ],
    [
        13,
        10,
        1
    ],
    [
        3,
        12,
        1
    ],
    [
        5,
        12,
        1
    ],
    [
        7,
        12,
        1
    ],
    [
        9,
        12,
        1
    ],
    [
        11,
        12,
        1
    ],
    [
        13,
        12,
        1
    ],
    [
        15,
        12,
        1
    ],
    [
        2,
        14,
        1
    ],
    [
        4,
        14,
        1
    ],
    [
        6,
        14,
        1
    ],
    [
        8,
        14,
        1
    ],
    [
        10,
        14,
        1
    ],
    [
        12,
        14,
        1
    ],
    [
        14,
        14,
        1
    ],
    [
        16,
        14,
        1
    ],
    [
        1,
        16,
        1
    ],
    [
        3,
        16,
        1
    ],
    [
        5,
        16,
        1
    ],
    [
        9,
        16,
        1
    ],
    [
        13,
        16,
        1
    ],
    [
        15,
        16,
        1
    ],
    [
        17,
        16,
        1
    ],
    [
        1,
        18,
        1
    ],
    [
        3,
        18,
        1
    ],
    [
        5,
        18,
        1
    ],
    [
        9,
        18,
        1
    ],
    [
        13,
        18,
        1
    ],
    [
        15,
        18,
        1
    ],
    [
        17,
        18,
        1
    ],
    [
        1,
        20,
        1
    ],
    [
        3,
        20,
        1
    ],
    [
        9,
        20,
        1
    ],
    [
        11,
        20,
        1
    ],
    [
        15,
        20,
        1
    ],
    [
        17,
        20,
        1
    ],
    [
        7,
        21,
        1
    ],
    [
        1,
        22,
        1
    ],
    [
        9,
        22,
        1
    ],
    [
        11,
        22,
        1
    ],
    [
        17,
        22,
        1
    ],
    [
        9,
        24,
        1
    ],
    [
        7,
        10,
        2
    ],
    [
        9,
        10,
        2
    ],
    [
        11,
        10,
        2
    ],
    [
        3,
        12,
        2
    ],
    [
        5,
        12,
        2
    ],
    [
        7,
        12,
        2
    ],
    [
        9,
        12,
        2
    ],
    [
        11,
        12,
        2
    ],
    [
        13,
        12,
        2
    ],
    [
        15,
        12,
        2
    ],
    [
        2,
        14,
        2
    ],
    [
        4,
        14,
        2
    ],
    [
        6,
        14,
        2
    ],
    [
        8,
        14,
        2
    ],
    [
        10,
        14,
        2
    ],
    [
        12,
        14,
        2
    ],
    [
        14,
        14,
        2
    ],
    [
        16,
        14,
        2
    ],
    [
        3,
        16,
        2
    ],
    [
        5,
        16,
        2
    ],
    [
        9,
        16,
        2
    ],
    [
        13,
        16,
        2
    ],
    [
        15,
        16,
        2
    ],
    [
        3,
        18,
        2
    ],
    [
        15,
        18,
        2
    ],
    [
        7,
        10,
        3
    ],
    [
        9,
        10,
        3
    ],
    [
        11,
        10,
        3
    ],
    [
        5,
        12,
        3
    ],
    [
        7,
        12,
        3
    ],
    [
        9,
        12,
        3
    ],
    [
        11,
        12,
        3
    ],
    [
        13,
        12,
        3
    ],
    [
        4,
        14,
        3
    ],
    [
        6,
        14,
        3
    ],
    [
        8,
        14,
        3
    ],
    [
        10,
        14,
        3
    ],
    [
        12,
        14,
        3
    ],
    [
        14,
        14,
        3
    ],
    [
        7,
        10,
        4
    ],
    [
        9,
        10,
        4
    ],
    [
        11,
        10,
        4
    ],
    [
        7,
        12,
        4
    ],
    [
        11,
        12,
        4
    ],
    [
        6,
        14,
        4
    ],
    [
        12,
        14,
        4
    ]
]