[
    [
        4,
        2,
        0
    ],
    [
        6,
        2,
        0
    ],
    [
        8,
        2,
        0
    ],
    [
        10,
        2,
        0
    ],
    [
        12,
        2,
        0
    ],
    [
        14,
        2,
        0
    ],
    [
        4,
        4,
        0
    ],
    [
        6,
        4,
        0
    ],
    [
        8,
        4,
        0
    ],
    [
        10,
        4,
        0
    ],
    [
        12,
        4,
        0
    ],
    [
        14,
        4,
        0
    ],
    [
        4,
        6,
        0
    ],
    [
        6,
        6,
        0
    ],
    [
        8,
        6,
        0
    ],
    [
        10,
        6,
        0
    ],
    [
        12,
        6,
        0
    ],
    [
        14,
        6,
        0
    ],
    [
        3,
        8,
        0
    ],
    [
        5,
        8,
        0
    ],
    [
        7,
        8,
        0
    ],
    [
        9,
        8,
        0
    ],
    [
        13,
        8,
        0
    ],
    [
        15,
        8,
        0
    ],
    [
        3,
        10,
        0
    ],
    [
        5,
        10,
        0
    ],
    [
        7,
        10,
        0
    ],
    [
        9,
        10,
        0
    ],
    [
        13,
        10,
        0
    ],
    [
        15,
        10,
        0
    ],
    [
        3,
        12,
        0
    ],
    [
        5,
        12,
        0
    ],
    [
        7,
        12,
        0
    ],
    [
        9,
        12,
        0
    ],
    [
        13,
        12,
        0
    ],
    [
        15,
        12,
        0
    ],
    [
        3,
        14,
        0
    ],
    [
        5,
        14,
        0
    ],
    [
        7,
        14,
        0
    ],
    [
        9,
        14,
        0
    ],
    [
        13,
        14,
        0
    ],
    [
        15,
        14,
        0
    ],
    [
        3,
        16,
        0
    ],
    [
        5,
        16,
        0
    ],
    [
        7,
        16,
        0
    ],
    [
        9,
        16,
        0
    ],
    [
        14,
        16,
        0
    ],
    [
        16,
        16,
        0
    ],
    [
        4,
        18,
        0
    ],
    [
        14,
        18,
        0
    ],
    [
        16,
        18,
        0
    ],
    [
        3,
        20,
        0
    ],
    [
        5,
        20,
        0
    ],
    [
        14,
        20,
        0
    ],
    [
        16,
        20,
        0
    ],
    [
        3,
        22,
        0
    ],
    [
        5,
        22,
        0
    ],
    [
        7,
        22,
        0
    ],
    [
        9,
        22,
        0
    ],
    [
        11,
        22,
        0
    ],
    [
        13,
        22,
        0
    ],
    [
        15,
        22,
        0
    ],
    [
        17,
        22,
        0
    ],
    [
        4,
        2,
        1
    ],
    [
        6,
        2,
        1
    ],
    [
        8,
        2,
        1
    ],
    [
        4,
        4,
        1
    ],
    [
        6,
        4,
        1
    ],
    [
        8,
        4,
        1
    ],
    [
        4,
        6,
        1
    ],
    [
        6,
        6,
        1
    ],
    [
        8,
        6,
        1
    ],
    [
        3,
        8,
        1
    ],
    [
        5,
        8,
        1
    ],
    [
        7,
        8,
        1
    ],
    [
        9,
        8,
        1
    ],
    [
        13,
        8,
        1
    ],
    [
        15,
        8,
        1
    ],
    [
        3,
        10,
        1
    ],
    [
        5,
        10,
        1
    ],
    [
        7,
        10,
        1
    ],
    [
        9,
        10,
        1
    ],
    [
        13,
        10,
        1
    ],
    [
        15,
        10,
        1
    ],
    [
        3,
        12,
        1
    ],
    [
        5,
        12,
        1
    ],
    [
        7,
        12,
        1
    ],
    [
        9,
        12,
        1
    ],
    [
        13,
        12,
        1
    ],
    [
        15,
        12,
        1
    ],
    [
        3,
        14,
        1
    ],
    [
        5,
        14,
        1
    ],
    [
        7,
        14,
        1
    ],
    [
        9,
        14,
        1
    ],
    [
        13,
        14,
        1
    ],
    [
        15,
        14,
        1
    ],
    [
        3,
        16,
        1
    ],
    [
        5,
        16,
        1
    ],
    [
        7,
        16,
        1
    ],
    [
        9,
        16,
        1
    ],
    [
        14,
        16,
        1
    ],
    [
        16,
        16,
        1
    ],
    [
        4,
        18,
        1
    ],
    [
        14,
        18,
        1
    ],
    [
        16,
        18,
        1
    ],
    [
        3,
        20,
        1
    ],
    [
        5,
        20,
        1
    ],
    [
        14,
        20,
        1
    ],
    [
        16,
        20,
        1
    ],
    [
        3,
        22,
        1
    ],
    [
        5,
        22,
        1
    ],
    [
        15,
        22,
        1
    ],
    [
        17,
        22,
        1
    ],
    [
        4,
        2,
        2
    ],
    [
        6,
        2,
        2
    ],
    [
        8,
        2,
        2
    ],
    [
        4,
        4,
        2
    ],
    [
        6,
        4,
        2
    ],
    [
        8,
        4,
        2
    ],
    [
        4,
        6,
        2
    ],
    [
        6,
        6,
        2
    ],
    [
        8,
        6,
        2
    ],
    [
        13,
        8,
        2
    ],
    [
        15,
        8,
        2
    ],
    [
        13,
        10,
        2
    ],
    [
        15,
        10,
        2
    ],
    [
        13,
        12,
        2
    ],
    [
        15,
        12,
        2
    ],
    [
        13,
        14,
        2
    ],
    [
        15,
        14,
        2
    ],
    [
        14,
        16,
        2
    ],
    [
        16,
        16,
        2
    ],
    [
        14,
        18,
        2
    ],
    [
        16,
        18,
        2
    ],
    [
        3,
        20,
        2
    ],
    [
        5,
        20,
        2
    ],
    [
        14,
        20,
        2
    ],
    [
        16,
        20,
        2
    ],
    [
        3,
        22,
        2
    ],
    [
        5,
        22,
        2
    ],
    [
        15,
        22,
        2
    ],
    [
        17,
        22,
        2
    ],
    [
        15,
        22,
        3
    ],
    [
        17,
        22,
        3
    ]
]