[
    [
        4,
        6,
        0
    ],
    [
        6,
        6,
        0
    ],
    [
        10,
        6,
        0
    ],
    [
        12,
        6,
        0
    ],
    [
        14,
        6,
        0
    ],
    [
        16,
        6,
        0
    ],
    [
        8,
        7,
        0
    ],
    [
        4,
        8,
        0
    ],
    [
        6,
        8,
        0
    ],
    [
        11,
        8,
        0
    ],
    [
        13,
        8,
        0
    ],
    [
        15,
        8,
        0
    ],
    [
        17,
        8,
        0
    ],
    [
        1,
        10,
        0
    ],
    [
        3,
        10,
        0
    ],
    [
        5,
        10,
        0
    ],
    [
        10,
        10,
        0
    ],
    [
        12,
        10,
        0
    ],
    [
        14,
        10,
        0
    ],
    [
        16,
        10,
        0
    ],
    [
        4,
        12,
        0
    ],
    [
        6,
        12,
        0
    ],
    [
        10,
        12,
        0
    ],
    [
        12,
        12,
        0
    ],
    [
        14,
        12,
        0
    ],
    [
        16,
        12,
        0
    ],
    [
        8,
        13,
        0
    ],
    [
        4,
        14,
        0
    ],
    [
        6,
        14,
        0
    ],
    [
        10,
        14,
        0
    ],
    [
        12,
        14,
        0
    ],
    [
        14,
        14,
        0
    ],
    [
        16,
        14,
        0
    ],
    [
        1,
        16,
        0
    ],
    [
        3,
        16,
        0
    ],
    [
        5,
        16,
        0
    ],
    [
        11,
        16,
        0
    ],
    [
        13,
        16,
        0
    ],
    [
        15,
        16,
        0
    ],
    [
        17,
        16,
        0
    ],
    [
        4,
        18,
        0
    ],
    [
        6,
        18,
        0
    ],
    [
        10,
        18,
        0
    ],
    [
        12,
        18,
        0
    ],
    [
        14,
        18,
        0
    ],
    [
        16,
        18,
        0
    ],
    [
        8,
        19,
        0
    ],
    [
        4,
        20,
        0
    ],
    [
        6,
        20,
        0
    ],
    [
        10,
        20,
        0
    ],
    [
        12,
        20,
        0
    ],
    [
        14,
        20,
        0
    ],
    [
        16,
        20,
        0
    ],
    [
        4,
        6,
        1
    ],
    [
        6,
        6,
        1
    ],
    [
        10,
        6,
        1
    ],
    [
        12,
        6,
        1
    ],
    [
        14,
        6,
        1
    ],
    [
        16,
        6,
        1
    ],
    [
        8,
        7,
        1
    ],
    [
        4,
        8,
        1
    ],
    [
        6,
        8,
        1
    ],
    [
        11,
        8,
        1
    ],
    [
        13,
        8,
        1
    ],
    [
        15,
        8,
        1
    ],
    [
        17,
        8,
        1
    ],
    [
        1,
        10,
        1
    ],
    [
        3,
        10,
        1
    ],
    [
        5,
        10,
        1
    ],
    [
        10,
        10,
        1
    ],
    [
        12,
        10,
        1
    ],
    [
        14,
        10,
        1
    ],
    [
        16,
        10,
        1
    ],
    [
        4,
        12,
        1
    ],
    [
        6,
        12,
        1
    ],
    [
        10,
        12,
        1
    ],
    [
        12,
        12,
        1
    ],
    [
        14,
        12,
        1
    ],
    [
        16,
        12,
        1
    ],
    [
        8,
        13,
        1
    ],
    [
        4,
        14,
        1
    ],
    [
        6,
        14,
        1
    ],
    [
        10,
        14,
        1
    ],
    [
        12,
        14,
        1
    ],
    [
        14,
        14,
        1
    ],
    [
        16,
        14,
        1
    ],
    [
        1,
        16,
        1
    ],
    [
        3,
        16,
        1
    ],
    [
        5,
        16,
        1
    ],
    [
        11,
        16,
        1
    ],
    [
        13,
        16,
        1
    ],
    [
        15,
        16,
        1
    ],
    [
        17,
        16,
        1
    ],
    [
        4,
        18,
        1
    ],
    [
        6,
        18,
        1
    ],
    [
        10,
        18,
        1
    ],
    [
        12,
        18,
        1
    ],
    [
        14,
        18,
        1
    ],
    [
        16,
        18,
        1
    ],
    [
        8,
        19,
        1
    ],
    [
        4,
        20,
        1
    ],
    [
        6,
        20,
        1
    ],
    [
        10,
        20,
        1
    ],
    [
        12,
        20,
        1
    ],
    [
        14,
        20,
        1
    ],
    [
        16,
        20,
        1
    ],
    [
        4,
        7,
        2
    ],
    [
        8,
        7,
        2
    ],
    [
        11,
        8,
        2
    ],
    [
        13,
        8,
        2
    ],
    [
        15,
        8,
        2
    ],
    [
        17,
        8,
        2
    ],
    [
        10,
        12,
        2
    ],
    [
        12,
        12,
        2
    ],
    [
        14,
        12,
        2
    ],
    [
        16,
        12,
        2
    ],
    [
        4,
        13,
        2
    ],
    [
        8,
        13,
        2
    ],
    [
        11,
        16,
        2
    ],
    [
        13,
        16,
        2
    ],
    [
        15,
        16,
        2
    ],
    [
        17,
        16,
        2
    ],
    [
        4,
        19,
        2
    ],
    [
        8,
        19,
        2
    ],
    [
        10,
        20,
        2
    ],
    [
        12,
        20,
        2
    ],
    [
        14,
        20,
        2
    ],
    [
        16,
        20,
        2
    ]
]