[
    [
        14,
        5,
        0
    ],
    [
        16,
        5,
        0
    ],
    [
        3,
        6,
        0
    ],
    [
        5,
        6,
        0
    ],
    [
        7,
        6,
        0
    ],
    [
        1,
        7,
        0
    ],
    [
        10,
        7,
        0
    ],
    [
        15,
        7,
        0
    ],
    [
        4,
        8,
        0
    ],
    [
        8,
        8,
        0
    ],
    [
        2,
        9,
        0
    ],
    [
        11,
        9,
        0
    ],
    [
        16,
        9,
        0
    ],
    [
        5,
        10,
        0
    ],
    [
        9,
        10,
        0
    ],
    [
        3,
        11,
        0
    ],
    [
        12,
        11,
        0
    ],
    [
        15,
        11,
        0
    ],
    [
        17,
        11,
        0
    ],
    [
        6,
        12,
        0
    ],
    [
        10,
        12,
        0
    ],
    [
        0,
        13,
        0
    ],
    [
        4,
        13,
        0
    ],
    [
        13,
        13,
        0
    ],
    [
        15,
        13,
        0
    ],
    [
        17,
        13,
        0
    ],
    [
        7,
        14,
        0
    ],
    [
        9,
        14,
        0
    ],
    [
        11,
        14,
        0
    ],
    [
        1,
        15,
        0
    ],
    [
        3,
        15,
        0
    ],
    [
        5,
        15,
        0
    ],
    [
        13,
        15,
        0
    ],
    [
        16,
        15,
        0
    ],
    [
        7,
        16,
        0
    ],
    [
        10,
        16,
        0
    ],
    [
        0,
        17,
        0
    ],
    [
        4,
        17,
        0
    ],
    [
        12,
        17,
        0
    ],
    [
        15,
        17,
        0
    ],
    [
        17,
        17,
        0
    ],
    [
        6,
        18,
        0
    ],
    [
        9,
        18,
        0
    ],
    [
        3,
        19,
        0
    ],
    [
        11,
        19,
        0
    ],
    [
        14,
        19,
        0
    ],
    [
        16,
        19,
        0
    ],
    [
        5,
        20,
        0
    ],
    [
        8,
        20,
        0
    ],
    [
        14,
        5,
        1
    ],
    [
        16,
        5,
        1
    ],
    [
        3,
        6,
        1
    ],
    [
        5,
        6,
        1
    ],
    [
        7,
        6,
        1
    ],
    [
        1,
        7,
        1
    ],
    [
        10,
        7,
        1
    ],
    [
        15,
        7,
        1
    ],
    [
        4,
        8,
        1
    ],
    [
        8,
        8,
        1
    ],
    [
        2,
        9,
        1
    ],
    [
        11,
        9,
        1
    ],
    [
        16,
        9,
        1
    ],
    [
        5,
        10,
        1
    ],
    [
        9,
        10,
        1
    ],
    [
        3,
        11,
        1
    ],
    [
        12,
        11,
        1
    ],
    [
        15,
        11,
        1
    ],
    [
        17,
        11,
        1
    ],
    [
        6,
        12,
        1
    ],
    [
        10,
        12,
        1
    ],
    [
        0,
        13,
        1
    ],
    [
        4,
        13,
        1
    ],
    [
        13,
        13,
        1
    ],
    [
        15,
        13,
        1
    ],
    [
        17,
        13,
        1
    ],
    [
        7,
        14,
        1
    ],
    [
        9,
        14,
        1
    ],
    [
        11,
        14,
        1
    ],
    [
        1,
        15,
        1
    ],
    [
        3,
        15,
        1
    ],
    [
        5,
        15,
        1
    ],
    [
        13,
        15,
        1
    ],
    [
        16,
        15,
        1
    ],
    [
        7,
        16,
        1
    ],
    [
        10,
        16,
        1
    ],
    [
        0,
        17,
        1
    ],
    [
        4,
        17,
        1
    ],
    [
        12,
        17,
        1
    ],
    [
        15,
        17,
        1
    ],
    [
        17,
        17,
        1
    ],
    [
        6,
        18,
        1
    ],
    [
        9,
        18,
        1
    ],
    [
        3,
        19,
        1
    ],
    [
        11,
        19,
        1
    ],
    [
        14,
        19,
        1
    ],
    [
        16,
        19,
        1
    ],
    [
        5,
        20,
        1
    ],
    [
        8,
        20,
        1
    ],
    [
        14,
        5,
        2
    ],
    [
        16,
        5,
        2
    ],
    [
        3,
        6,
        2
    ],
    [
        7,
        6,
        2
    ],
    [
        15,
        7,
        2
    ],
    [
        16,
        9,
        2
    ],
    [
        15,
        11,
        2
    ],
    [
        17,
        11,
        2
    ],
    [
        4,
        13,
        2
    ],
    [
        13,
        13,
        2
    ],
    [
        15,
        13,
        2
    ],
    [
        17,
        13,
        2
    ],
    [
        7,
        14,
        2
    ],
    [
        9,
        14,
        2
    ],
    [
        11,
        14,
        2
    ],
    [
        3,
        15,
        2
    ],
    [
        5,
        15,
        2
    ],
    [
        13,
        15,
        2
    ],
    [
        16,
        15,
        2
    ],
    [
        7,
        16,
        2
    ],
    [
        10,
        16,
        2
    ],
    [
        4,
        17,
        2
    ],
    [
        12,
        17,
        2
    ],
    [
        15,
        17,
        2
    ],
    [
        17,
        17,
        2
    ],
    [
        6,
        18,
        2
    ],
    [
        9,
        18,
        2
    ],
    [
        3,
        19,
        2
    ],
    [
        11,
        19,
        2
    ],
    [
        14,
        19,
        2
    ],
    [
        16,
        19,
        2
    ],
    [
        5,
        20,
        2
    ],
    [
        8,
        20,
        2
    ],
    [
        13,
        13,
        3
    ],
    [
        3,
        15,
        3
    ],
    [
        5,
        15,
        3
    ],
    [
        13,
        15,
        3
    ],
    [
        12,
        17,
        3
    ],
    [
        9,
        18,
        3
    ],
    [
        8,
        20,
        3
    ]
]