[
    [
        1,
        0,
        0
    ],
    [
        3,
        0,
        0
    ],
    [
        5,
        0,
        0
    ],
    [
        7,
        0,
        0
    ],
    [
        9,
        0,
        0
    ],
    [
        11,
        0,
        0
    ],
    [
        13,
        0,
        0
    ],
    [
        15,
        0,
        0
    ],
    [
        17,
        0,
        0
    ],
    [
        2,
        2,
        0
    ],
    [
        4,
        2,
        0
    ],
    [
        6,
        2,
        0
    ],
    [
        9,
        2,
        0
    ],
    [
        12,
        2,
        0
    ],
    [
        14,
        2,
        0
    ],
    [
        16,
        2,
        0
    ],
    [
        0,
        4,
        0
    ],
    [
        4,
        4,
        0
    ],
    [
        8,
        4,
        0
    ],
    [
        10,
        4,
        0
    ],
    [
        14,
        4,
        0
    ],
    [
        18,
        4,
        0
    ],
    [
        0,
        6,
        0
    ],
    [
        4,
        6,
        0
    ],
    [
        8,
        6,
        0
    ],
    [
        10,
        6,
        0
    ],
    [
        14,
        6,
        0
    ],
    [
        18,
        6,
        0
    ],
    [
        2,
        8,
        0
    ],
    [
        4,
        8,
        0
    ],
    [
        6,
        8,
        0
    ],
    [
        9,
        8,
        0
    ],
    [
        12,
        8,
        0
    ],
    [
        14,
        8,
        0
    ],
    [
        16,
        8,
        0
    ],
    [
        1,
        10,
        0
    ],
    [
        3,
        10,
        0
    ],
    [
        5,
        10,
        0
    ],
    [
        7,
        10,
        0
    ],
    [
        9,
        10,
        0
    ],
    [
        11,
        10,
        0
    ],
    [
        13,
        10,
        0
    ],
    [
        15,
        10,
        0
    ],
    [
        17,
        10,
        0
    ],
    [
        1,
        0,
        1
    ],
    [
        3,
        0,
        1
    ],
    [
        7,
        0,
        1
    ],
    [
        9,
        0,
        1
    ],
    [
        11,
        0,
        1
    ],
    [
        15,
        0,
        1
    ],
    [
        17,
        0,
        1
    ],
    [
        2,
        2,
        1
    ],
    [
        4,
        2,
        1
    ],
    [
        9,
        2,
        1
    ],
    [
        14,
        2,
        1
    ],
    [
        16,
        2,
        1
    ],
    [
        4,
        4,
        1
    ],
    [
        8,
        4,
        1
    ],
    [
        10,
        4,
        1
    ],
    [
        14,
        4,
        1
    ],
    [
        4,
        6,
        1
    ],
    [
        8,
        6,
        1
    ],
    [
        10,
        6,
        1
    ],
    [
        14,
        6,
        1
    ],
    [
        2,
        8,
        1
    ],
    [
        4,
        8,
        1
    ],
    [
        9,
        8,
        1
    ],
    [
        14,
        8,
        1
    ],
    [
        16,
        8,
        1
    ],
    [
        1,
        10,
        1
    ],
    [
        3,
        10,
        1
    ],
    [
        7,
        10,
        1
    ],
    [
        9,
        10,
        1
    ],
    [
        11,
        10,
        1
    ],
    [
        15,
        10,
        1
    ],
    [
        17,
        10,
        1
    ],
    [
        1,
        0,
        2
    ],
    [
        3,
        0,
        2
    ],
    [
        7,
        0,
        2
    ],
    [
        9,
        0,
        2
    ],
    [
        11,
        0,
        2
    ],
    [
        15,
        0,
        2
    ],
    [
        17,
        0,
        2
    ],
    [
        2,
        2,
        2
    ],
    [
        4,
        2,
        2
    ],
    [
        9,
        2,
        2
    ],
    [
        14,
        2,
        2
    ],
    [
        16,
        2,
        2
    ],
    [
        2,
        8,
        2
    ],
    [
        4,
        8,
        2
    ],
    [
        9,
        8,
        2
    ],
    [
        14,
        8,
        2
    ],
    [
        16,
        8,
        2
    ],
    [
        1,
        10,
        2
    ],
    [
        3,
        10,
        2
    ],
    [
        7,
        10,
        2
    ],
    [
        9,
        10,
        2
    ],
    [
        11,
        10,
        2
    ],
    [
        15,
        10,
        2
    ],
    [
        17,
        10,
        2
    ],
    [
        1,
        0,
        3
    ],
    [
        3,
        0,
        3
    ],
    [
        7,
        0,
        3
    ],
    [
        9,
        0,
        3
    ],
    [
        11,
        0,
        3
    ],
    [
        15,
        0,
        3
    ],
    [
        17,
        0,
        3
    ],
    [
        2,
        2,
        3
    ],
    [
        4,
        2,
        3
    ],
    [
        9,
        2,
        3
    ],
    [
        14,
        2,
        3
    ],
    [
        16,
        2,
        3
    ],
    [
        2,
        8,
        3
    ],
    [
        4,
        8,
        3
    ],
    [
        9,
        8,
        3
    ],
    [
        14,
        8,
        3
    ],
    [
        16,
        8,
        3
    ],
    [
        1,
        10,
        3
    ],
    [
        3,
        10,
        3
    ],
    [
        7,
        10,
        3
    ],
    [
        9,
        10,
        3
    ],
    [
        11,
        10,
        3
    ],
    [
        15,
        10,
        3
    ],
    [
        17,
        10,
        3
    ]
]