[
    [
        0,
        0,
        0
    ],
    [
        3,
        0,
        0
    ],
    [
        6,
        0,
        0
    ],
    [
        12,
        0,
        0
    ],
    [
        15,
        0,
        0
    ],
    [
        18,
        0,
        0
    ],
    [
        2,
        2,
        0
    ],
    [
        4,
        2,
        0
    ],
    [
        14,
        2,
        0
    ],
    [
        16,
        2,
        0
    ],
    [
        8,
        3,
        0
    ],
    [
        10,
        3,
        0
    ],
    [
        0,
        4,
        0
    ],
    [
        2,
        4,
        0
    ],
    [
        4,
        4,
        0
    ],
    [
        6,
        4,
        0
    ],
    [
        12,
        4,
        0
    ],
    [
        14,
        4,
        0
    ],
    [
        16,
        4,
        0
    ],
    [
        18,
        4,
        0
    ],
    [
        0,
        6,
        0
    ],
    [
        2,
        6,
        0
    ],
    [
        4,
        6,
        0
    ],
    [
        6,
        6,
        0
    ],
    [
        12,
        6,
        0
    ],
    [
        14,
        6,
        0
    ],
    [
        16,
        6,
        0
    ],
    [
        18,
        6,
        0
    ],
    [
        8,
        7,
        0
    ],
    [
        10,
        7,
        0
    ],
    [
        2,
        8,
        0
    ],
    [
        4,
        8,
        0
    ],
    [
        14,
        8,
        0
    ],
    [
        16,
        8,
        0
    ],
    [
        0,
        10,
        0
    ],
    [
        3,
        10,
        0
    ],
    [
        6,
        10,
        0
    ],
    [
        12,
        10,
        0
    ],
    [
        15,
        10,
        0
    ],
    [
        18,
        10,
        0
    ],
    [
        3,
        0,
        1
    ],
    [
        6,
        0,
        1
    ],
    [
        12,
        0,
        1
    ],
    [
        15,
        0,
        1
    ],
    [
        2,
        2,
        1
    ],
    [
        4,
        2,
        1
    ],
    [
        14,
        2,
        1
    ],
    [
        16,
        2,
        1
    ],
    [
        8,
        3,
        1
    ],
    [
        10,
        3,
        1
    ],
    [
        2,
        4,
        1
    ],
    [
        4,
        4,
        1
    ],
    [
        6,
        4,
        1
    ],
    [
        12,
        4,
        1
    ],
    [
        14,
        4,
        1
    ],
    [
        16,
        4,
        1
    ],
    [
        2,
        6,
        1
    ],
    [
        4,
        6,
        1
    ],
    [
        6,
        6,
        1
    ],
    [
        12,
        6,
        1
    ],
    [
        14,
        6,
        1
    ],
    [
        16,
        6,
        1
    ],
    [
        8,
        7,
        1
    ],
    [
        10,
        7,
        1
    ],
    [
        2,
        8,
        1
    ],
    [
        4,
        8,
        1
    ],
    [
        14,
        8,
        1
    ],
    [
        16,
        8,
        1
    ],
    [
        3,
        10,
        1
    ],
    [
        6,
        10,
        1
    ],
    [
        12,
        10,
        1
    ],
    [
        15,
        10,
        1
    ],
    [
        6,
        0,
        2
    ],
    [
        12,
        0,
        2
    ],
    [
        4,
        2,
        2
    ],
    [
        14,
        2,
        2
    ],
    [
        8,
        3,
        2
    ],
    [
        10,
        3,
        2
    ],
    [
        2,
        4,
        2
    ],
    [
        4,
        4,
        2
    ],
    [
        6,
        4,
        2
    ],
    [
        12,
        4,
        2
    ],
    [
        14,
        4,
        2
    ],
    [
        16,
        4,
        2
    ],
    [
        2,
        6,
        2
    ],
    [
        4,
        6,
        2
    ],
    [
        6,
        6,
        2
    ],
    [
        12,
        6,
        2
    ],
    [
        14,
        6,
        2
    ],
    [
        16,
        6,
        2
    ],
    [
        8,
        7,
        2
    ],
    [
        10,
        7,
        2
    ],
    [
        4,
        8,
        2
    ],
    [
        14,
        8,
        2
    ],
    [
        6,
        10,
        2
    ],
    [
        12,
        10,
        2
    ],
    [
        6,
        0,
        3
    ],
    [
        12,
        0,
        3
    ],
    [
        4,
        2,
        3
    ],
    [
        14,
        2,
        3
    ],
    [
        8,
        3,
        3
    ],
    [
        10,
        3,
        3
    ],
    [
        2,
        4,
        3
    ],
    [
        4,
        4,
        3
    ],
    [
        6,
        4,
        3
    ],
    [
        12,
        4,
        3
    ],
    [
        14,
        4,
        3
    ],
    [
        16,
        4,
        3
    ],
    [
        2,
        6,
        3
    ],
    [
        4,
        6,
        3
    ],
    [
        6,
        6,
        3
    ],
    [
        12,
        6,
        3
    ],
    [
        14,
        6,
        3
    ],
    [
        16,
        6,
        3
    ],
    [
        8,
        7,
        3
    ],
    [
        10,
        7,
        3
    ],
    [
        4,
        8,
        3
    ],
    [
        14,
        8,
        3
    ],
    [
        6,
        10,
        3
    ],
    [
        12,
        10,
        3
    ],
    [
        8,
        3,
        4
    ],
    [
        10,
        3,
        4
    ],
    [
        2,
        4,
        4
    ],
    [
        4,
        4,
        4
    ],
    [
        6,
        4,
        4
    ],
    [
        12,
        4,
        4
    ],
    [
        14,
        4,
        4
    ],
    [
        16,
        4,
        4
    ],
    [
        2,
        6,
        4
    ],
    [
        4,
        6,
        4
    ],
    [
        6,
        6,
        4
    ],
    [
        12,
        6,
        4
    ],
    [
        14,
        6,
        4
    ],
    [
        16,
        6,
        4
    ],
    [
        8,
        7,
        4
    ],
    [
        10,
        7,
        4
    ],
    [
        8,
        3,
        5
    ],
    [
        10,
        3,
        5
    ],
    [
        2,
        4,
        5
    ],
    [
        4,
        4,
        5
    ],
    [
        6,
        4,
        5
    ],
    [
        12,
        4,
        5
    ],
    [
        14,
        4,
        5
    ],
    [
        16,
        4,
        5
    ],
    [
        2,
        6,
        5
    ],
    [
        4,
        6,
        5
    ],
    [
        6,
        6,
        5
    ],
    [
        12,
        6,
        5
    ],
    [
        14,
        6,
        5
    ],
    [
        16,
        6,
        5
    ],
    [
        8,
        7,
        5
    ],
    [
        10,
        7,
        5
    ],
    [
        8,
        3,
        6
    ],
    [
        10,
        3,
        6
    ],
    [
        6,
        4,
        6
    ],
    [
        12,
        4,
        6
    ],
    [
        6,
        6,
        6
    ],
    [
        12,
        6,
        6
    ],
    [
        8,
        7,
        6
    ],
    [
        10,
        7,
        6
    ],
    [
        8,
        3,
        7
    ],
    [
        10,
        3,
        7
    ],
    [
        6,
        4,
        7
    ],
    [
        12,
        4,
        7
    ],
    [
        6,
        6,
        7
    ],
    [
        12,
        6,
        7
    ],
    [
        8,
        7,
        7
    ],
    [
        10,
        7,
        7
    ]
]