[
    [
        3,
        0,
        0
    ],
    [
        5,
        0,
        0
    ],
    [
        13,
        0,
        0
    ],
    [
        15,
        0,
        0
    ],
    [
        1,
        2,
        0
    ],
    [
        3,
        2,
        0
    ],
    [
        5,
        2,
        0
    ],
    [
        7,
        2,
        0
    ],
    [
        11,
        2,
        0
    ],
    [
        13,
        2,
        0
    ],
    [
        15,
        2,
        0
    ],
    [
        17,
        2,
        0
    ],
    [
        3,
        4,
        0
    ],
    [
        5,
        4,
        0
    ],
    [
        13,
        4,
        0
    ],
    [
        15,
        4,
        0
    ],
    [
        3,
        6,
        0
    ],
    [
        5,
        6,
        0
    ],
    [
        13,
        6,
        0
    ],
    [
        15,
        6,
        0
    ],
    [
        0,
        8,
        0
    ],
    [
        2,
        8,
        0
    ],
    [
        4,
        8,
        0
    ],
    [
        6,
        8,
        0
    ],
    [
        8,
        8,
        0
    ],
    [
        10,
        8,
        0
    ],
    [
        12,
        8,
        0
    ],
    [
        14,
        8,
        0
    ],
    [
        16,
        8,
        0
    ],
    [
        18,
        8,
        0
    ],
    [
        0,
        10,
        0
    ],
    [
        8,
        10,
        0
    ],
    [
        10,
        10,
        0
    ],
    [
        18,
        10,
        0
    ],
    [
        2,
        11,
        0
    ],
    [
        4,
        11,
        0
    ],
    [
        6,
        11,
        0
    ],
    [
        12,
        11,
        0
    ],
    [
        14,
        11,
        0
    ],
    [
        16,
        11,
        0
    ],
    [
        3,
        0,
        1
    ],
    [
        5,
        0,
        1
    ],
    [
        13,
        0,
        1
    ],
    [
        15,
        0,
        1
    ],
    [
        3,
        2,
        1
    ],
    [
        5,
        2,
        1
    ],
    [
        13,
        2,
        1
    ],
    [
        15,
        2,
        1
    ],
    [
        3,
        4,
        1
    ],
    [
        5,
        4,
        1
    ],
    [
        13,
        4,
        1
    ],
    [
        15,
        4,
        1
    ],
    [
        3,
        6,
        1
    ],
    [
        5,
        6,
        1
    ],
    [
        13,
        6,
        1
    ],
    [
        15,
        6,
        1
    ],
    [
        3,
        8,
        1
    ],
    [
        5,
        8,
        1
    ],
    [
        13,
        8,
        1
    ],
    [
        15,
        8,
        1
    ],
    [
        3,
        11,
        1
    ],
    [
        5,
        11,
        1
    ],
    [
        13,
        11,
        1
    ],
    [
        15,
        11,
        1
    ],
    [
        3,
        2,
        2
    ],
    [
        5,
        2,
        2
    ],
    [
        13,
        2,
        2
    ],
    [
        15,
        2,
        2
    ],
    [
        3,
        4,
        2
    ],
    [
        5,
        4,
        2
    ],
    [
        13,
        4,
        2
    ],
    [
        15,
        4,
        2
    ],
    [
        3,
        6,
        2
    ],
    [
        5,
        6,
        2
    ],
    [
        13,
        6,
        2
    ],
    [
        15,
        6,
        2
    ],
    [
        3,
        8,
        2
    ],
    [
        5,
        8,
        2
    ],
    [
        13,
        8,
        2
    ],
    [
        15,
        8,
        2
    ],
    [
        3,
        2,
        3
    ],
    [
        5,
        2,
        3
    ],
    [
        13,
        2,
        3
    ],
    [
        15,
        2,
        3
    ],
    [
        3,
        4,
        3
    ],
    [
        5,
        4,
        3
    ],
    [
        13,
        4,
        3
    ],
    [
        15,
        4,
        3
    ],
    [
        3,
        6,
        3
    ],
    [
        5,
        6,
        3
    ],
    [
        13,
        6,
        3
    ],
    [
        15,
        6,
        3
    ],
    [
        3,
        8,
        3
    ],
    [
        5,
        8,
        3
    ],
    [
        13,
        8,
        3
    ],
    [
        15,
        8,
        3
    ],
    [
        3,
        3,
        4
    ],
    [
        5,
        3,
        4
    ],
    [
        13,
        3,
        4
    ],
    [
        15,
        3,
        4
    ],
    [
        3,
        5,
        4
    ],
    [
        5,
        5,
        4
    ],
    [
        13,
        5,
        4
    ],
    [
        15,
        5,
        4
    ],
    [
        3,
        3,
        5
    ],
    [
        5,
        3,
        5
    ],
    [
        13,
        3,
        5
    ],
    [
        15,
        3,
        5
    ],
    [
        3,
        5,
        5
    ],
    [
        5,
        5,
        5
    ],
    [
        13,
        5,
        5
    ],
    [
        15,
        5,
        5
    ]
]