[
    [
        0,
        0,
        0
    ],
    [
        2,
        0,
        0
    ],
    [
        5,
        0,
        0
    ],
    [
        8,
        0,
        0
    ],
    [
        10,
        0,
        0
    ],
    [
        13,
        0,
        0
    ],
    [
        16,
        0,
        0
    ],
    [
        18,
        0,
        0
    ],
    [
        1,
        2,
        0
    ],
    [
        3,
        2,
        0
    ],
    [
        7,
        2,
        0
    ],
    [
        11,
        2,
        0
    ],
    [
        15,
        2,
        0
    ],
    [
        17,
        2,
        0
    ],
    [
        0,
        4,
        0
    ],
    [
        2,
        4,
        0
    ],
    [
        5,
        4,
        0
    ],
    [
        8,
        4,
        0
    ],
    [
        10,
        4,
        0
    ],
    [
        13,
        4,
        0
    ],
    [
        16,
        4,
        0
    ],
    [
        18,
        4,
        0
    ],
    [
        0,
        6,
        0
    ],
    [
        2,
        6,
        0
    ],
    [
        5,
        6,
        0
    ],
    [
        8,
        6,
        0
    ],
    [
        10,
        6,
        0
    ],
    [
        13,
        6,
        0
    ],
    [
        16,
        6,
        0
    ],
    [
        18,
        6,
        0
    ],
    [
        1,
        8,
        0
    ],
    [
        3,
        8,
        0
    ],
    [
        7,
        8,
        0
    ],
    [
        11,
        8,
        0
    ],
    [
        15,
        8,
        0
    ],
    [
        17,
        8,
        0
    ],
    [
        0,
        10,
        0
    ],
    [
        2,
        10,
        0
    ],
    [
        5,
        10,
        0
    ],
    [
        8,
        10,
        0
    ],
    [
        10,
        10,
        0
    ],
    [
        13,
        10,
        0
    ],
    [
        16,
        10,
        0
    ],
    [
        18,
        10,
        0
    ],
    [
        0,
        0,
        1
    ],
    [
        2,
        0,
        1
    ],
    [
        5,
        0,
        1
    ],
    [
        8,
        0,
        1
    ],
    [
        10,
        0,
        1
    ],
    [
        13,
        0,
        1
    ],
    [
        16,
        0,
        1
    ],
    [
        18,
        0,
        1
    ],
    [
        1,
        2,
        1
    ],
    [
        3,
        2,
        1
    ],
    [
        7,
        2,
        1
    ],
    [
        11,
        2,
        1
    ],
    [
        15,
        2,
        1
    ],
    [
        17,
        2,
        1
    ],
    [
        0,
        4,
        1
    ],
    [
        2,
        4,
        1
    ],
    [
        5,
        4,
        1
    ],
    [
        8,
        4,
        1
    ],
    [
        10,
        4,
        1
    ],
    [
        13,
        4,
        1
    ],
    [
        16,
        4,
        1
    ],
    [
        18,
        4,
        1
    ],
    [
        0,
        6,
        1
    ],
    [
        2,
        6,
        1
    ],
    [
        5,
        6,
        1
    ],
    [
        8,
        6,
        1
    ],
    [
        10,
        6,
        1
    ],
    [
        13,
        6,
        1
    ],
    [
        16,
        6,
        1
    ],
    [
        18,
        6,
        1
    ],
    [
        1,
        8,
        1
    ],
    [
        3,
        8,
        1
    ],
    [
        7,
        8,
        1
    ],
    [
        11,
        8,
        1
    ],
    [
        15,
        8,
        1
    ],
    [
        17,
        8,
        1
    ],
    [
        0,
        10,
        1
    ],
    [
        2,
        10,
        1
    ],
    [
        5,
        10,
        1
    ],
    [
        8,
        10,
        1
    ],
    [
        10,
        10,
        1
    ],
    [
        13,
        10,
        1
    ],
    [
        16,
        10,
        1
    ],
    [
        18,
        10,
        1
    ],
    [
        0,
        0,
        2
    ],
    [
        2,
        0,
        2
    ],
    [
        8,
        0,
        2
    ],
    [
        10,
        0,
        2
    ],
    [
        16,
        0,
        2
    ],
    [
        18,
        0,
        2
    ],
    [
        0,
        4,
        2
    ],
    [
        2,
        4,
        2
    ],
    [
        8,
        4,
        2
    ],
    [
        10,
        4,
        2
    ],
    [
        16,
        4,
        2
    ],
    [
        18,
        4,
        2
    ],
    [
        0,
        6,
        2
    ],
    [
        2,
        6,
        2
    ],
    [
        8,
        6,
        2
    ],
    [
        10,
        6,
        2
    ],
    [
        16,
        6,
        2
    ],
    [
        18,
        6,
        2
    ],
    [
        0,
        10,
        2
    ],
    [
        2,
        10,
        2
    ],
    [
        8,
        10,
        2
    ],
    [
        10,
        10,
        2
    ],
    [
        16,
        10,
        2
    ],
    [
        18,
        10,
        2
    ],
    [
        0,
        0,
        3
    ],
    [
        2,
        0,
        3
    ],
    [
        8,
        0,
        3
    ],
    [
        10,
        0,
        3
    ],
    [
        16,
        0,
        3
    ],
    [
        18,
        0,
        3
    ],
    [
        0,
        4,
        3
    ],
    [
        2,
        4,
        3
    ],
    [
        8,
        4,
        3
    ],
    [
        10,
        4,
        3
    ],
    [
        16,
        4,
        3
    ],
    [
        18,
        4,
        3
    ],
    [
        0,
        6,
        3
    ],
    [
        2,
        6,
        3
    ],
    [
        8,
        6,
        3
    ],
    [
        10,
        6,
        3
    ],
    [
        16,
        6,
        3
    ],
    [
        18,
        6,
        3
    ],
    [
        0,
        10,
        3
    ],
    [
        2,
        10,
        3
    ],
    [
        8,
        10,
        3
    ],
    [
        10,
        10,
        3
    ],
    [
        16,
        10,
        3
    ],
    [
        18,
        10,
        3
    ],
    [
        8,
        4,
        4
    ],
    [
        10,
        4,
        4
    ],
    [
        8,
        6,
        4
    ],
    [
        10,
        6,
        4
    ]
]