[
    [
        3,
        0,
        0
    ],
    [
        15,
        0,
        0
    ],
    [
        0,
        1,
        0
    ],
    [
        6,
        1,
        0
    ],
    [
        12,
        1,
        0
    ],
    [
        18,
        1,
        0
    ],
    [
        2,
        2,
        0
    ],
    [
        4,
        2,
        0
    ],
    [
        14,
        2,
        0
    ],
    [
        16,
        2,
        0
    ],
    [
        1,
        4,
        0
    ],
    [
        3,
        4,
        0
    ],
    [
        5,
        4,
        0
    ],
    [
        7,
        4,
        0
    ],
    [
        11,
        4,
        0
    ],
    [
        13,
        4,
        0
    ],
    [
        15,
        4,
        0
    ],
    [
        17,
        4,
        0
    ],
    [
        3,
        8,
        0
    ],
    [
        15,
        8,
        0
    ],
    [
        1,
        9,
        0
    ],
    [
        5,
        9,
        0
    ],
    [
        13,
        9,
        0
    ],
    [
        17,
        9,
        0
    ],
    [
        3,
        10,
        0
    ],
    [
        15,
        10,
        0
    ],
    [
        0,
        11,
        0
    ],
    [
        6,
        11,
        0
    ],
    [
        12,
        11,
        0
    ],
    [
        18,
        11,
        0
    ],
    [
        2,
        12,
        0
    ],
    [
        4,
        12,
        0
    ],
    [
        14,
        12,
        0
    ],
    [
        16,
        12,
        0
    ],
    [
        1,
        14,
        0
    ],
    [
        3,
        14,
        0
    ],
    [
        5,
        14,
        0
    ],
    [
        7,
        14,
        0
    ],
    [
        11,
        14,
        0
    ],
    [
        13,
        14,
        0
    ],
    [
        15,
        14,
        0
    ],
    [
        17,
        14,
        0
    ],
    [
        0,
        1,
        1
    ],
    [
        6,
        1,
        1
    ],
    [
        12,
        1,
        1
    ],
    [
        18,
        1,
        1
    ],
    [
        2,
        2,
        1
    ],
    [
        4,
        2,
        1
    ],
    [
        14,
        2,
        1
    ],
    [
        16,
        2,
        1
    ],
    [
        2,
        4,
        1
    ],
    [
        4,
        4,
        1
    ],
    [
        14,
        4,
        1
    ],
    [
        16,
        4,
        1
    ],
    [
        2,
        9,
        1
    ],
    [
        4,
        9,
        1
    ],
    [
        14,
        9,
        1
    ],
    [
        16,
        9,
        1
    ],
    [
        0,
        11,
        1
    ],
    [
        6,
        11,
        1
    ],
    [
        12,
        11,
        1
    ],
    [
        18,
        11,
        1
    ],
    [
        2,
        12,
        1
    ],
    [
        4,
        12,
        1
    ],
    [
        14,
        12,
        1
    ],
    [
        16,
        12,
        1
    ],
    [
        2,
        14,
        1
    ],
    [
        4,
        14,
        1
    ],
    [
        6,
        14,
        1
    ],
    [
        12,
        14,
        1
    ],
    [
        14,
        14,
        1
    ],
    [
        16,
        14,
        1
    ],
    [
        0,
        1,
        2
    ],
    [
        6,
        1,
        2
    ],
    [
        12,
        1,
        2
    ],
    [
        18,
        1,
        2
    ],
    [
        2,
        2,
        2
    ],
    [
        4,
        2,
        2
    ],
    [
        14,
        2,
        2
    ],
    [
        16,
        2,
        2
    ],
    [
        2,
        4,
        2
    ],
    [
        4,
        4,
        2
    ],
    [
        14,
        4,
        2
    ],
    [
        16,
        4,
        2
    ],
    [
        2,
        9,
        2
    ],
    [
        4,
        9,
        2
    ],
    [
        14,
        9,
        2
    ],
    [
        16,
        9,
        2
    ],
    [
        0,
        11,
        2
    ],
    [
        6,
        11,
        2
    ],
    [
        12,
        11,
        2
    ],
    [
        18,
        11,
        2
    ],
    [
        2,
        12,
        2
    ],
    [
        4,
        12,
        2
    ],
    [
        14,
        12,
        2
    ],
    [
        16,
        12,
        2
    ],
    [
        2,
        14,
        2
    ],
    [
        4,
        14,
        2
    ],
    [
        14,
        14,
        2
    ],
    [
        16,
        14,
        2
    ],
    [
        0,
        1,
        3
    ],
    [
        6,
        1,
        3
    ],
    [
        12,
        1,
        3
    ],
    [
        18,
        1,
        3
    ],
    [
        2,
        2,
        3
    ],
    [
        4,
        2,
        3
    ],
    [
        14,
        2,
        3
    ],
    [
        16,
        2,
        3
    ],
    [
        2,
        4,
        3
    ],
    [
        4,
        4,
        3
    ],
    [
        14,
        4,
        3
    ],
    [
        16,
        4,
        3
    ],
    [
        0,
        11,
        3
    ],
    [
        6,
        11,
        3
    ],
    [
        12,
        11,
        3
    ],
    [
        18,
        11,
        3
    ],
    [
        2,
        12,
        3
    ],
    [
        4,
        12,
        3
    ],
    [
        14,
        12,
        3
    ],
    [
        16,
        12,
        3
    ],
    [
        2,
        14,
        3
    ],
    [
        4,
        14,
        3
    ],
    [
        14,
        14,
        3
    ],
    [
        16,
        14,
        3
    ],
    [
        0,
        1,
        4
    ],
    [
        6,
        1,
        4
    ],
    [
        12,
        1,
        4
    ],
    [
        18,
        1,
        4
    ],
    [
        3,
        2,
        4
    ],
    [
        15,
        2,
        4
    ],
    [
        3,
        4,
        4
    ],
    [
        15,
        4,
        4
    ],
    [
        0,
        11,
        4
    ],
    [
        6,
        11,
        4
    ],
    [
        12,
        11,
        4
    ],
    [
        18,
        11,
        4
    ],
    [
        3,
        12,
        4
    ],
    [
        15,
        12,
        4
    ],
    [
        3,
        14,
        4
    ],
    [
        15,
        14,
        4
    ],
    [
        0,
        1,
        5
    ],
    [
        6,
        1,
        5
    ],
    [
        12,
        1,
        5
    ],
    [
        18,
        1,
        5
    ],
    [
        0,
        11,
        5
    ],
    [
        6,
        11,
        5
    ],
    [
        12,
        11,
        5
    ],
    [
        18,
        11,
        5
    ],
    [
        0,
        1,
        6
    ],
    [
        12,
        1,
        6
    ],
    [
        6,
        11,
        6
    ],
    [
        18,
        11,
        6
    ]
]