[
    [
        4,
        0,
        0
    ],
    [
        6,
        0,
        0
    ],
    [
        8,
        0,
        0
    ],
    [
        10,
        0,
        0
    ],
    [
        12,
        0,
        0
    ],
    [
        14,
        0,
        0
    ],
    [
        2,
        1,
        0
    ],
    [
        16,
        1,
        0
    ],
    [
        7,
        2,
        0
    ],
    [
        11,
        2,
        0
    ],
    [
        0,
        3,
        0
    ],
    [
        18,
        3,
        0
    ],
    [
        9,
        4,
        0
    ],
    [
        0,
        5,
        0
    ],
    [
        18,
        5,
        0
    ],
    [
        5,
        6,
        0
    ],
    [
        7,
        6,
        0
    ],
    [
        9,
        6,
        0
    ],
    [
        11,
        6,
        0
    ],
    [
        13,
        6,
        0
    ],
    [
        1,
        7,
        0
    ],
    [
        17,
        7,
        0
    ],
    [
        9,
        8,
        0
    ],
    [
        0,
        9,
        0
    ],
    [
        18,
        9,
        0
    ],
    [
        7,
        10,
        0
    ],
    [
        11,
        10,
        0
    ],
    [
        0,
        11,
        0
    ],
    [
        5,
        11,
        0
    ],
    [
        13,
        11,
        0
    ],
    [
        18,
        11,
        0
    ],
    [
        2,
        13,
        0
    ],
    [
        16,
        13,
        0
    ],
    [
        4,
        14,
        0
    ],
    [
        6,
        14,
        0
    ],
    [
        8,
        14,
        0
    ],
    [
        10,
        14,
        0
    ],
    [
        12,
        14,
        0
    ],
    [
        14,
        14,
        0
    ],
    [
        4,
        0,
        1
    ],
    [
        6,
        0,
        1
    ],
    [
        8,
        0,
        1
    ],
    [
        10,
        0,
        1
    ],
    [
        12,
        0,
        1
    ],
    [
        14,
        0,
        1
    ],
    [
        2,
        1,
        1
    ],
    [
        16,
        1,
        1
    ],
    [
        7,
        2,
        1
    ],
    [
        11,
        2,
        1
    ],
    [
        0,
        3,
        1
    ],
    [
        18,
        3,
        1
    ],
    [
        9,
        4,
        1
    ],
    [
        5,
        6,
        1
    ],
    [
        7,
        6,
        1
    ],
    [
        9,
        6,
        1
    ],
    [
        11,
        6,
        1
    ],
    [
        13,
        6,
        1
    ],
    [
        9,
        8,
        1
    ],
    [
        7,
        10,
        1
    ],
    [
        11,
        10,
        1
    ],
    [
        0,
        11,
        1
    ],
    [
        5,
        11,
        1
    ],
    [
        13,
        11,
        1
    ],
    [
        18,
        11,
        1
    ],
    [
        2,
        13,
        1
    ],
    [
        16,
        13,
        1
    ],
    [
        4,
        14,
        1
    ],
    [
        6,
        14,
        1
    ],
    [
        8,
        14,
        1
    ],
    [
        10,
        14,
        1
    ],
    [
        12,
        14,
        1
    ],
    [
        14,
        14,
        1
    ],
    [
        4,
        0,
        2
    ],
    [
        6,
        0,
        2
    ],
    [
        8,
        0,
        2
    ],
    [
        10,
        0,
        2
    ],
    [
        12,
        0,
        2
    ],
    [
        14,
        0,
        2
    ],
    [
        2,
        1,
        2
    ],
    [
        16,
        1,
        2
    ],
    [
        7,
        2,
        2
    ],
    [
        11,
        2,
        2
    ],
    [
        0,
        3,
        2
    ],
    [
        18,
        3,
        2
    ],
    [
        9,
        4,
        2
    ],
    [
        5,
        6,
        2
    ],
    [
        7,
        6,
        2
    ],
    [
        9,
        6,
        2
    ],
    [
        11,
        6,
        2
    ],
    [
        13,
        6,
        2
    ],
    [
        9,
        8,
        2
    ],
    [
        7,
        10,
        2
    ],
    [
        11,
        10,
        2
    ],
    [
        0,
        11,
        2
    ],
    [
        5,
        11,
        2
    ],
    [
        13,
        11,
        2
    ],
    [
        18,
        11,
        2
    ],
    [
        2,
        13,
        2
    ],
    [
        16,
        13,
        2
    ],
    [
        4,
        14,
        2
    ],
    [
        6,
        14,
        2
    ],
    [
        8,
        14,
        2
    ],
    [
        10,
        14,
        2
    ],
    [
        12,
        14,
        2
    ],
    [
        14,
        14,
        2
    ],
    [
        9,
        0,
        3
    ],
    [
        9,
        4,
        3
    ],
    [
        5,
        6,
        3
    ],
    [
        7,
        6,
        3
    ],
    [
        9,
        6,
        3
    ],
    [
        11,
        6,
        3
    ],
    [
        13,
        6,
        3
    ],
    [
        9,
        8,
        3
    ],
    [
        4,
        14,
        3
    ],
    [
        6,
        14,
        3
    ],
    [
        8,
        14,
        3
    ],
    [
        10,
        14,
        3
    ],
    [
        12,
        14,
        3
    ],
    [
        14,
        14,
        3
    ],
    [
        9,
        4,
        4
    ],
    [
        5,
        6,
        4
    ],
    [
        7,
        6,
        4
    ],
    [
        9,
        6,
        4
    ],
    [
        11,
        6,
        4
    ],
    [
        13,
        6,
        4
    ],
    [
        9,
        8,
        4
    ],
    [
        9,
        4,
        5
    ],
    [
        9,
        6,
        5
    ],
    [
        9,
        8,
        5
    ],
    [
        9,
        4,
        6
    ],
    [
        9,
        6,
        6
    ],
    [
        9,
        8,
        6
    ]
]