[
    [
        1,
        0,
        0
    ],
    [
        3,
        0,
        0
    ],
    [
        5,
        0,
        0
    ],
    [
        13,
        0,
        0
    ],
    [
        15,
        0,
        0
    ],
    [
        17,
        0,
        0
    ],
    [
        0,
        2,
        0
    ],
    [
        2,
        2,
        0
    ],
    [
        4,
        2,
        0
    ],
    [
        14,
        2,
        0
    ],
    [
        16,
        2,
        0
    ],
    [
        18,
        2,
        0
    ],
    [
        1,
        4,
        0
    ],
    [
        3,
        4,
        0
    ],
    [
        15,
        4,
        0
    ],
    [
        17,
        4,
        0
    ],
    [
        0,
        6,
        0
    ],
    [
        2,
        6,
        0
    ],
    [
        4,
        6,
        0
    ],
    [
        14,
        6,
        0
    ],
    [
        16,
        6,
        0
    ],
    [
        18,
        6,
        0
    ],
    [
        1,
        8,
        0
    ],
    [
        3,
        8,
        0
    ],
    [
        15,
        8,
        0
    ],
    [
        17,
        8,
        0
    ],
    [
        0,
        10,
        0
    ],
    [
        2,
        10,
        0
    ],
    [
        4,
        10,
        0
    ],
    [
        14,
        10,
        0
    ],
    [
        16,
        10,
        0
    ],
    [
        18,
        10,
        0
    ],
    [
        1,
        12,
        0
    ],
    [
        3,
        12,
        0
    ],
    [
        5,
        12,
        0
    ],
    [
        13,
        12,
        0
    ],
    [
        15,
        12,
        0
    ],
    [
        17,
        12,
        0
    ],
    [
        0,
        14,
        0
    ],
    [
        2,
        14,
        0
    ],
    [
        4,
        14,
        0
    ],
    [
        14,
        14,
        0
    ],
    [
        16,
        14,
        0
    ],
    [
        18,
        14,
        0
    ],
    [
        1,
        0,
        1
    ],
    [
        3,
        0,
        1
    ],
    [
        5,
        0,
        1
    ],
    [
        13,
        0,
        1
    ],
    [
        15,
        0,
        1
    ],
    [
        17,
        0,
        1
    ],
    [
        0,
        2,
        1
    ],
    [
        2,
        2,
        1
    ],
    [
        16,
        2,
        1
    ],
    [
        18,
        2,
        1
    ],
    [
        1,
        4,
        1
    ],
    [
        17,
        4,
        1
    ],
    [
        0,
        6,
        1
    ],
    [
        2,
        6,
        1
    ],
    [
        16,
        6,
        1
    ],
    [
        18,
        6,
        1
    ],
    [
        1,
        8,
        1
    ],
    [
        17,
        8,
        1
    ],
    [
        0,
        10,
        1
    ],
    [
        2,
        10,
        1
    ],
    [
        16,
        10,
        1
    ],
    [
        18,
        10,
        1
    ],
    [
        1,
        12,
        1
    ],
    [
        3,
        12,
        1
    ],
    [
        15,
        12,
        1
    ],
    [
        17,
        12,
        1
    ],
    [
        0,
        14,
        1
    ],
    [
        2,
        14,
        1
    ],
    [
        4,
        14,
        1
    ],
    [
        14,
        14,
        1
    ],
    [
        16,
        14,
        1
    ],
    [
        18,
        14,
        1
    ],
    [
        1,
        0,
        2
    ],
    [
        3,
        0,
        2
    ],
    [
        15,
        0,
        2
    ],
    [
        17,
        0,
        2
    ],
    [
        0,
        2,
        2
    ],
    [
        18,
        2,
        2
    ],
    [
        0,
        6,
        2
    ],
    [
        2,
        6,
        2
    ],
    [
        16,
        6,
        2
    ],
    [
        18,
        6,
        2
    ],
    [
        0,
        10,
        2
    ],
    [
        18,
        10,
        2
    ],
    [
        1,
        12,
        2
    ],
    [
        17,
        12,
        2
    ],
    [
        0,
        14,
        2
    ],
    [
        2,
        14,
        2
    ],
    [
        16,
        14,
        2
    ],
    [
        18,
        14,
        2
    ],
    [
        2,
        0,
        3
    ],
    [
        16,
        0,
        3
    ],
    [
        1,
        6,
        3
    ],
    [
        17,
        6,
        3
    ],
    [
        1,
        14,
        3
    ],
    [
        17,
        14,
        3
    ]
]