[
    [
        4,
        0,
        0
    ],
    [
        6,
        0,
        0
    ],
    [
        12,
        0,
        0
    ],
    [
        14,
        0,
        0
    ],
    [
        2,
        1,
        0
    ],
    [
        16,
        1,
        0
    ],
    [
        0,
        2,
        0
    ],
    [
        18,
        2,
        0
    ],
    [
        6,
        3,
        0
    ],
    [
        8,
        3,
        0
    ],
    [
        10,
        3,
        0
    ],
    [
        12,
        3,
        0
    ],
    [
        0,
        4,
        0
    ],
    [
        18,
        4,
        0
    ],
    [
        6,
        5,
        0
    ],
    [
        8,
        5,
        0
    ],
    [
        10,
        5,
        0
    ],
    [
        12,
        5,
        0
    ],
    [
        0,
        6,
        0
    ],
    [
        18,
        6,
        0
    ],
    [
        6,
        7,
        0
    ],
    [
        8,
        7,
        0
    ],
    [
        10,
        7,
        0
    ],
    [
        12,
        7,
        0
    ],
    [
        0,
        8,
        0
    ],
    [
        18,
        8,
        0
    ],
    [
        6,
        9,
        0
    ],
    [
        8,
        9,
        0
    ],
    [
        10,
        9,
        0
    ],
    [
        12,
        9,
        0
    ],
    [
        0,
        10,
        0
    ],
    [
        18,
        10,
        0
    ],
    [
        6,
        11,
        0
    ],
    [
        8,
        11,
        0
    ],
    [
        10,
        11,
        0
    ],
    [
        12,
        11,
        0
    ],
    [
        0,
        12,
        0
    ],
    [
        18,
        12,
        0
    ],
    [
        2,
        13,
        0
    ],
    [
        16,
        13,
        0
    ],
    [
        4,
        14,
        0
    ],
    [
        6,
        14,
        0
    ],
    [
        12,
        14,
        0
    ],
    [
        14,
        14,
        0
    ],
    [
        4,
        0,
        1
    ],
    [
        6,
        0,
        1
    ],
    [
        12,
        0,
        1
    ],
    [
        14,
        0,
        1
    ],
    [
        0,
        3,
        1
    ],
    [
        7,
        3,
        1
    ],
    [
        9,
        3,
        1
    ],
    [
        11,
        3,
        1
    ],
    [
        18,
        3,
        1
    ],
    [
        7,
        5,
        1
    ],
    [
        9,
        5,
        1
    ],
    [
        11,
        5,
        1
    ],
    [
        0,
        7,
        1
    ],
    [
        7,
        7,
        1
    ],
    [
        9,
        7,
        1
    ],
    [
        11,
        7,
        1
    ],
    [
        18,
        7,
        1
    ],
    [
        7,
        9,
        1
    ],
    [
        9,
        9,
        1
    ],
    [
        11,
        9,
        1
    ],
    [
        0,
        11,
        1
    ],
    [
        7,
        11,
        1
    ],
    [
        9,
        11,
        1
    ],
    [
        11,
        11,
        1
    ],
    [
        18,
        11,
        1
    ],
    [
        4,
        14,
        1
    ],
    [
        6,
        14,
        1
    ],
    [
        12,
        14,
        1
    ],
    [
        14,
        14,
        1
    ],
    [
        0,
        3,
        2
    ],
    [
        7,
        3,
        2
    ],
    [
        9,
        3,
        2
    ],
    [
        11,
        3,
        2
    ],
    [
        18,
        3,
        2
    ],
    [
        7,
        5,
        2
    ],
    [
        9,
        5,
        2
    ],
    [
        11,
        5,
        2
    ],
    [
        0,
        7,
        2
    ],
    [
        9,
        7,
        2
    ],
    [
        18,
        7,
        2
    ],
    [
        7,
        9,
        2
    ],
    [
        9,
        9,
        2
    ],
    [
        11,
        9,
        2
    ],
    [
        0,
        11,
        2
    ],
    [
        7,
        11,
        2
    ],
    [
        9,
        11,
        2
    ],
    [
        11,
        11,
        2
    ],
    [
        18,
        11,
        2
    ],
    [
        8,
        3,
        3
    ],
    [
        10,
        3,
        3
    ],
    [
        8,
        5,
        3
    ],
    [
        10,
        5,
        3
    ],
    [
        8,
        9,
        3
    ],
    [
        10,
        9,
        3
    ],
    [
        8,
        11,
        3
    ],
    [
        10,
        11,
        3
    ]
]