[
    [
        0,
        0,
        0
    ],
    [
        2,
        0,
        0
    ],
    [
        4,
        0,
        0
    ],
    [
        6,
        0,
        0
    ],
    [
        8,
        0,
        0
    ],
    [
        10,
        0,
        0
    ],
    [
        12,
        0,
        0
    ],
    [
        14,
        0,
        0
    ],
    [
        16,
        0,
        0
    ],
    [
        18,
        0,
        0
    ],
    [
        0,
        2,
        0
    ],
    [
        2,
        2,
        0
    ],
    [
        4,
        2,
        0
    ],
    [
        6,
        2,
        0
    ],
    [
        8,
        2,
        0
    ],
    [
        10,
        2,
        0
    ],
    [
        12,
        2,
        0
    ],
    [
        14,
        2,
        0
    ],
    [
        16,
        2,
        0
    ],
    [
        18,
        2,
        0
    ],
    [
        0,
        4,
        0
    ],
    [
        4,
        4,
        0
    ],
    [
        8,
        4,
        0
    ],
    [
        12,
        4,
        0
    ],
    [
        16,
        4,
        0
    ],
    [
        2,
        6,
        0
    ],
    [
        6,
        6,
        0
    ],
    [
        10,
        6,
        0
    ],
    [
        14,
        6,
        0
    ],
    [
        18,
        6,
        0
    ],
    [
        0,
        8,
        0
    ],
    [
        2,
        8,
        0
    ],
    [
        4,
        8,
        0
    ],
    [
        6,
        8,
        0
    ],
    [
        8,
        8,
        0
    ],
    [
        10,
        8,
        0
    ],
    [
        12,
        8,
        0
    ],
    [
        14,
        8,
        0
    ],
    [
        16,
        8,
        0
    ],
    [
        18,
        8,
        0
    ],
    [
        0,
        10,
        0
    ],
    [
        2,
        10,
        0
    ],
    [
        4,
        10,
        0
    ],
    [
        6,
        10,
        0
    ],
    [
        8,
        10,
        0
    ],
    [
        10,
        10,
        0
    ],
    [
        12,
        10,
        0
    ],
    [
        14,
        10,
        0
    ],
    [
        16,
        10,
        0
    ],
    [
        18,
        10,
        0
    ],
    [
        0,
        2,
        1
    ],
    [
        2,
        2,
        1
    ],
    [
        4,
        2,
        1
    ],
    [
        6,
        2,
        1
    ],
    [
        8,
        2,
        1
    ],
    [
        10,
        2,
        1
    ],
    [
        12,
        2,
        1
    ],
    [
        14,
        2,
        1
    ],
    [
        16,
        2,
        1
    ],
    [
        18,
        2,
        1
    ],
    [
        0,
        4,
        1
    ],
    [
        4,
        4,
        1
    ],
    [
        8,
        4,
        1
    ],
    [
        12,
        4,
        1
    ],
    [
        16,
        4,
        1
    ],
    [
        2,
        6,
        1
    ],
    [
        6,
        6,
        1
    ],
    [
        10,
        6,
        1
    ],
    [
        14,
        6,
        1
    ],
    [
        18,
        6,
        1
    ],
    [
        0,
        8,
        1
    ],
    [
        2,
        8,
        1
    ],
    [
        4,
        8,
        1
    ],
    [
        6,
        8,
        1
    ],
    [
        8,
        8,
        1
    ],
    [
        10,
        8,
        1
    ],
    [
        12,
        8,
        1
    ],
    [
        14,
        8,
        1
    ],
    [
        16,
        8,
        1
    ],
    [
        18,
        8,
        1
    ],
    [
        6,
        2,
        2
    ],
    [
        8,
        2,
        2
    ],
    [
        10,
        2,
        2
    ],
    [
        12,
        2,
        2
    ],
    [
        14,
        2,
        2
    ],
    [
        8,
        4,
        2
    ],
    [
        12,
        4,
        2
    ],
    [
        6,
        6,
        2
    ],
    [
        10,
        6,
        2
    ],
    [
        14,
        6,
        2
    ],
    [
        8,
        8,
        2
    ],
    [
        12,
        8,
        2
    ]
]