[
    [
        5,
        0,
        0
    ],
    [
        7,
        0,
        0
    ],
    [
        9,
        0,
        0
    ],
    [
        11,
        0,
        0
    ],
    [
        13,
        0,
        0
    ],
    [
        3,
        2,
        0
    ],
    [
        15,
        2,
        0
    ],
    [
        7,
        3,
        0
    ],
    [
        9,
        3,
        0
    ],
    [
        11,
        3,
        0
    ],
    [
        2,
        4,
        0
    ],
    [
        5,
        4,
        0
    ],
    [
        13,
        4,
        0
    ],
    [
        16,
        4,
        0
    ],
    [
        1,
        6,
        0
    ],
    [
        4,
        6,
        0
    ],
    [
        9,
        6,
        0
    ],
    [
        14,
        6,
        0
    ],
    [
        17,
        6,
        0
    ],
    [
        1,
        8,
        0
    ],
    [
        4,
        8,
        0
    ],
    [
        9,
        8,
        0
    ],
    [
        14,
        8,
        0
    ],
    [
        17,
        8,
        0
    ],
    [
        0,
        10,
        0
    ],
    [
        2,
        10,
        0
    ],
    [
        4,
        10,
        0
    ],
    [
        6,
        10,
        0
    ],
    [
        8,
        10,
        0
    ],
    [
        10,
        10,
        0
    ],
    [
        12,
        10,
        0
    ],
    [
        14,
        10,
        0
    ],
    [
        16,
        10,
        0
    ],
    [
        18,
        10,
        0
    ],
    [
        0,
        12,
        0
    ],
    [
        3,
        12,
        0
    ],
    [
        15,
        12,
        0
    ],
    [
        18,
        12,
        0
    ],
    [
        4,
        14,
        0
    ],
    [
        6,
        14,
        0
    ],
    [
        8,
        14,
        0
    ],
    [
        10,
        14,
        0
    ],
    [
        12,
        14,
        0
    ],
    [
        14,
        14,
        0
    ],
    [
        5,
        0,
        1
    ],
    [
        7,
        0,
        1
    ],
    [
        9,
        0,
        1
    ],
    [
        11,
        0,
        1
    ],
    [
        13,
        0,
        1
    ],
    [
        3,
        2,
        1
    ],
    [
        15,
        2,
        1
    ],
    [
        7,
        3,
        1
    ],
    [
        9,
        3,
        1
    ],
    [
        11,
        3,
        1
    ],
    [
        2,
        4,
        1
    ],
    [
        5,
        4,
        1
    ],
    [
        13,
        4,
        1
    ],
    [
        16,
        4,
        1
    ],
    [
        1,
        6,
        1
    ],
    [
        4,
        6,
        1
    ],
    [
        9,
        6,
        1
    ],
    [
        14,
        6,
        1
    ],
    [
        17,
        6,
        1
    ],
    [
        1,
        8,
        1
    ],
    [
        4,
        8,
        1
    ],
    [
        9,
        8,
        1
    ],
    [
        14,
        8,
        1
    ],
    [
        17,
        8,
        1
    ],
    [
        0,
        10,
        1
    ],
    [
        2,
        10,
        1
    ],
    [
        4,
        10,
        1
    ],
    [
        6,
        10,
        1
    ],
    [
        8,
        10,
        1
    ],
    [
        10,
        10,
        1
    ],
    [
        12,
        10,
        1
    ],
    [
        14,
        10,
        1
    ],
    [
        16,
        10,
        1
    ],
    [
        18,
        10,
        1
    ],
    [
        0,
        12,
        1
    ],
    [
        3,
        12,
        1
    ],
    [
        15,
        12,
        1
    ],
    [
        18,
        12,
        1
    ],
    [
        4,
        14,
        1
    ],
    [
        14,
        14,
        1
    ],
    [
        7,
        0,
        2
    ],
    [
        9,
        0,
        2
    ],
    [
        11,
        0,
        2
    ],
    [
        7,
        3,
        2
    ],
    [
        9,
        3,
        2
    ],
    [
        11,
        3,
        2
    ],
    [
        5,
        4,
        2
    ],
    [
        13,
        4,
        2
    ],
    [
        4,
        6,
        2
    ],
    [
        9,
        6,
        2
    ],
    [
        14,
        6,
        2
    ],
    [
        4,
        8,
        2
    ],
    [
        9,
        8,
        2
    ],
    [
        14,
        8,
        2
    ],
    [
        2,
        10,
        2
    ],
    [
        4,
        10,
        2
    ],
    [
        6,
        10,
        2
    ],
    [
        8,
        10,
        2
    ],
    [
        10,
        10,
        2
    ],
    [
        12,
        10,
        2
    ],
    [
        14,
        10,
        2
    ],
    [
        16,
        10,
        2
    ],
    [
        3,
        12,
        2
    ],
    [
        15,
        12,
        2
    ],
    [
        4,
        14,
        2
    ],
    [
        14,
        14,
        2
    ],
    [
        7,
        3,
        3
    ],
    [
        9,
        3,
        3
    ],
    [
        11,
        3,
        3
    ],
    [
        5,
        4,
        3
    ],
    [
        13,
        4,
        3
    ],
    [
        4,
        7,
        3
    ],
    [
        9,
        7,
        3
    ],
    [
        14,
        7,
        3
    ],
    [
        5,
        10,
        3
    ],
    [
        7,
        10,
        3
    ],
    [
        9,
        10,
        3
    ],
    [
        11,
        10,
        3
    ],
    [
        13,
        10,
        3
    ],
    [
        3,
        12,
        3
    ],
    [
        15,
        12,
        3
    ],
    [
        7,
        3,
        4
    ],
    [
        9,
        3,
        4
    ],
    [
        11,
        3,
        4
    ],
    [
        5,
        4,
        4
    ],
    [
        13,
        4,
        4
    ],
    [
        4,
        7,
        4
    ],
    [
        9,
        7,
        4
    ],
    [
        14,
        7,
        4
    ],
    [
        5,
        10,
        4
    ],
    [
        7,
        10,
        4
    ],
    [
        9,
        10,
        4
    ],
    [
        11,
        10,
        4
    ],
    [
        13,
        10,
        4
    ],
    [
        3,
        12,
        4
    ],
    [
        15,
        12,
        4
    ],
    [
        8,
        3,
        5
    ],
    [
        10,
        3,
        5
    ],
    [
        8,
        10,
        5
    ],
    [
        10,
        10,
        5
    ]
]