[
    [
        1,
        0,
        0
    ],
    [
        0,
        2,
        0
    ],
    [
        2,
        2,
        0
    ],
    [
        0,
        4,
        0
    ],
    [
        2,
        4,
        0
    ],
    [
        0,
        6,
        0
    ],
    [
        2,
        6,
        0
    ],
    [
        4,
        6,
        0
    ],
    [
        6,
        6,
        0
    ],
    [
        8,
        6,
        0
    ],
    [
        10,
        6,
        0
    ],
    [
        12,
        6,
        0
    ],
    [
        14,
        6,
        0
    ],
    [
        16,
        6,
        0
    ],
    [
        18,
        6,
        0
    ],
    [
        0,
        8,
        0
    ],
    [
        2,
        8,
        0
    ],
    [
        4,
        8,
        0
    ],
    [
        12,
        8,
        0
    ],
    [
        14,
        8,
        0
    ],
    [
        16,
        8,
        0
    ],
    [
        18,
        8,
        0
    ],
    [
        0,
        10,
        0
    ],
    [
        2,
        10,
        0
    ],
    [
        4,
        10,
        0
    ],
    [
        6,
        10,
        0
    ],
    [
        8,
        10,
        0
    ],
    [
        10,
        10,
        0
    ],
    [
        12,
        10,
        0
    ],
    [
        14,
        10,
        0
    ],
    [
        16,
        10,
        0
    ],
    [
        18,
        10,
        0
    ],
    [
        4,
        12,
        0
    ],
    [
        6,
        12,
        0
    ],
    [
        16,
        12,
        0
    ],
    [
        18,
        12,
        0
    ],
    [
        1,
        0,
        1
    ],
    [
        0,
        2,
        1
    ],
    [
        2,
        2,
        1
    ],
    [
        0,
        4,
        1
    ],
    [
        2,
        4,
        1
    ],
    [
        0,
        6,
        1
    ],
    [
        2,
        6,
        1
    ],
    [
        4,
        6,
        1
    ],
    [
        6,
        6,
        1
    ],
    [
        8,
        6,
        1
    ],
    [
        10,
        6,
        1
    ],
    [
        12,
        6,
        1
    ],
    [
        14,
        6,
        1
    ],
    [
        16,
        6,
        1
    ],
    [
        18,
        6,
        1
    ],
    [
        0,
        8,
        1
    ],
    [
        2,
        8,
        1
    ],
    [
        4,
        8,
        1
    ],
    [
        12,
        8,
        1
    ],
    [
        14,
        8,
        1
    ],
    [
        16,
        8,
        1
    ],
    [
        18,
        8,
        1
    ],
    [
        0,
        10,
        1
    ],
    [
        2,
        10,
        1
    ],
    [
        4,
        10,
        1
    ],
    [
        6,
        10,
        1
    ],
    [
        8,
        10,
        1
    ],
    [
        10,
        10,
        1
    ],
    [
        12,
        10,
        1
    ],
    [
        14,
        10,
        1
    ],
    [
        16,
        10,
        1
    ],
    [
        18,
        10,
        1
    ],
    [
        4,
        12,
        1
    ],
    [
        6,
        12,
        1
    ],
    [
        16,
        12,
        1
    ],
    [
        18,
        12,
        1
    ],
    [
        1,
        2,
        2
    ],
    [
        1,
        4,
        2
    ],
    [
        1,
        6,
        2
    ],
    [
        3,
        6,
        2
    ],
    [
        6,
        6,
        2
    ],
    [
        9,
        6,
        2
    ],
    [
        12,
        6,
        2
    ],
    [
        15,
        6,
        2
    ],
    [
        18,
        6,
        2
    ],
    [
        1,
        8,
        2
    ],
    [
        18,
        8,
        2
    ],
    [
        1,
        10,
        2
    ],
    [
        3,
        10,
        2
    ],
    [
        6,
        10,
        2
    ],
    [
        8,
        10,
        2
    ],
    [
        10,
        10,
        2
    ],
    [
        12,
        10,
        2
    ],
    [
        14,
        10,
        2
    ],
    [
        16,
        10,
        2
    ],
    [
        18,
        10,
        2
    ],
    [
        1,
        3,
        3
    ],
    [
        1,
        5,
        3
    ],
    [
        1,
        7,
        3
    ],
    [
        1,
        9,
        3
    ],
    [
        1,
        4,
        4
    ],
    [
        1,
        6,
        4
    ],
    [
        1,
        8,
        4
    ],
    [
        1,
        6,
        5
    ]
]