[
    [
        0,
        2,
        0
    ],
    [
        2,
        2,
        0
    ],
    [
        4,
        2,
        0
    ],
    [
        6,
        2,
        0
    ],
    [
        8,
        2,
        0
    ],
    [
        10,
        2,
        0
    ],
    [
        12,
        2,
        0
    ],
    [
        14,
        2,
        0
    ],
    [
        16,
        2,
        0
    ],
    [
        18,
        2,
        0
    ],
    [
        0,
        4,
        0
    ],
    [
        4,
        4,
        0
    ],
    [
        8,
        4,
        0
    ],
    [
        13,
        4,
        0
    ],
    [
        18,
        4,
        0
    ],
    [
        0,
        6,
        0
    ],
    [
        2,
        6,
        0
    ],
    [
        4,
        6,
        0
    ],
    [
        6,
        6,
        0
    ],
    [
        8,
        6,
        0
    ],
    [
        10,
        6,
        0
    ],
    [
        12,
        6,
        0
    ],
    [
        14,
        6,
        0
    ],
    [
        16,
        6,
        0
    ],
    [
        18,
        6,
        0
    ],
    [
        18,
        8,
        0
    ],
    [
        2,
        9,
        0
    ],
    [
        4,
        9,
        0
    ],
    [
        6,
        9,
        0
    ],
    [
        8,
        9,
        0
    ],
    [
        10,
        9,
        0
    ],
    [
        12,
        9,
        0
    ],
    [
        14,
        9,
        0
    ],
    [
        18,
        10,
        0
    ],
    [
        2,
        11,
        0
    ],
    [
        6,
        11,
        0
    ],
    [
        10,
        11,
        0
    ],
    [
        14,
        11,
        0
    ],
    [
        0,
        12,
        0
    ],
    [
        4,
        12,
        0
    ],
    [
        8,
        12,
        0
    ],
    [
        12,
        12,
        0
    ],
    [
        18,
        12,
        0
    ],
    [
        2,
        13,
        0
    ],
    [
        6,
        13,
        0
    ],
    [
        10,
        13,
        0
    ],
    [
        14,
        13,
        0
    ],
    [
        18,
        14,
        0
    ],
    [
        2,
        15,
        0
    ],
    [
        4,
        15,
        0
    ],
    [
        6,
        15,
        0
    ],
    [
        8,
        15,
        0
    ],
    [
        10,
        15,
        0
    ],
    [
        12,
        15,
        0
    ],
    [
        14,
        15,
        0
    ],
    [
        18,
        16,
        0
    ],
    [
        0,
        18,
        0
    ],
    [
        2,
        18,
        0
    ],
    [
        4,
        18,
        0
    ],
    [
        6,
        18,
        0
    ],
    [
        8,
        18,
        0
    ],
    [
        10,
        18,
        0
    ],
    [
        12,
        18,
        0
    ],
    [
        14,
        18,
        0
    ],
    [
        16,
        18,
        0
    ],
    [
        18,
        18,
        0
    ],
    [
        0,
        20,
        0
    ],
    [
        4,
        20,
        0
    ],
    [
        8,
        20,
        0
    ],
    [
        12,
        20,
        0
    ],
    [
        18,
        20,
        0
    ],
    [
        0,
        22,
        0
    ],
    [
        2,
        22,
        0
    ],
    [
        4,
        22,
        0
    ],
    [
        6,
        22,
        0
    ],
    [
        8,
        22,
        0
    ],
    [
        10,
        22,
        0
    ],
    [
        12,
        22,
        0
    ],
    [
        14,
        22,
        0
    ],
    [
        16,
        22,
        0
    ],
    [
        18,
        22,
        0
    ],
    [
        2,
        9,
        1
    ],
    [
        4,
        9,
        1
    ],
    [
        6,
        9,
        1
    ],
    [
        8,
        9,
        1
    ],
    [
        10,
        9,
        1
    ],
    [
        12,
        9,
        1
    ],
    [
        14,
        9,
        1
    ],
    [
        2,
        11,
        1
    ],
    [
        14,
        11,
        1
    ],
    [
        4,
        12,
        1
    ],
    [
        6,
        12,
        1
    ],
    [
        8,
        12,
        1
    ],
    [
        10,
        12,
        1
    ],
    [
        12,
        12,
        1
    ],
    [
        2,
        13,
        1
    ],
    [
        14,
        13,
        1
    ],
    [
        2,
        15,
        1
    ],
    [
        4,
        15,
        1
    ],
    [
        6,
        15,
        1
    ],
    [
        8,
        15,
        1
    ],
    [
        10,
        15,
        1
    ],
    [
        12,
        15,
        1
    ],
    [
        14,
        15,
        1
    ]
]