[
    [
        9,
        4,
        0
    ],
    [
        8,
        6,
        0
    ],
    [
        10,
        6,
        0
    ],
    [
        6,
        7,
        0
    ],
    [
        12,
        7,
        0
    ],
    [
        4,
        8,
        0
    ],
    [
        8,
        8,
        0
    ],
    [
        10,
        8,
        0
    ],
    [
        14,
        8,
        0
    ],
    [
        2,
        9,
        0
    ],
    [
        6,
        9,
        0
    ],
    [
        12,
        9,
        0
    ],
    [
        16,
        9,
        0
    ],
    [
        0,
        10,
        0
    ],
    [
        4,
        10,
        0
    ],
    [
        8,
        10,
        0
    ],
    [
        10,
        10,
        0
    ],
    [
        14,
        10,
        0
    ],
    [
        18,
        10,
        0
    ],
    [
        2,
        11,
        0
    ],
    [
        16,
        11,
        0
    ],
    [
        0,
        12,
        0
    ],
    [
        6,
        12,
        0
    ],
    [
        8,
        12,
        0
    ],
    [
        10,
        12,
        0
    ],
    [
        12,
        12,
        0
    ],
    [
        18,
        12,
        0
    ],
    [
        8,
        14,
        0
    ],
    [
        10,
        14,
        0
    ],
    [
        6,
        15,
        0
    ],
    [
        12,
        15,
        0
    ],
    [
        4,
        16,
        0
    ],
    [
        8,
        16,
        0
    ],
    [
        10,
        16,
        0
    ],
    [
        14,
        16,
        0
    ],
    [
        4,
        18,
        0
    ],
    [
        6,
        18,
        0
    ],
    [
        12,
        18,
        0
    ],
    [
        14,
        18,
        0
    ],
    [
        2,
        20,
        0
    ],
    [
        4,
        20,
        0
    ],
    [
        14,
        20,
        0
    ],
    [
        16,
        20,
        0
    ],
    [
        2,
        22,
        0
    ],
    [
        4,
        22,
        0
    ],
    [
        14,
        22,
        0
    ],
    [
        16,
        22,
        0
    ],
    [
        9,
        4,
        1
    ],
    [
        9,
        6,
        1
    ],
    [
        7,
        7,
        1
    ],
    [
        11,
        7,
        1
    ],
    [
        9,
        8,
        1
    ],
    [
        2,
        9,
        1
    ],
    [
        7,
        9,
        1
    ],
    [
        11,
        9,
        1
    ],
    [
        16,
        9,
        1
    ],
    [
        9,
        10,
        1
    ],
    [
        2,
        11,
        1
    ],
    [
        16,
        11,
        1
    ],
    [
        7,
        12,
        1
    ],
    [
        9,
        12,
        1
    ],
    [
        11,
        12,
        1
    ],
    [
        8,
        14,
        1
    ],
    [
        10,
        14,
        1
    ],
    [
        6,
        15,
        1
    ],
    [
        12,
        15,
        1
    ],
    [
        4,
        16,
        1
    ],
    [
        8,
        16,
        1
    ],
    [
        10,
        16,
        1
    ],
    [
        14,
        16,
        1
    ],
    [
        4,
        18,
        1
    ],
    [
        6,
        18,
        1
    ],
    [
        12,
        18,
        1
    ],
    [
        14,
        18,
        1
    ]
]