[
    [
        2,
        0,
        0
    ],
    [
        6,
        0,
        0
    ],
    [
        12,
        0,
        0
    ],
    [
        16,
        0,
        0
    ],
    [
        0,
        1,
        0
    ],
    [
        18,
        1,
        0
    ],
    [
        4,
        2,
        0
    ],
    [
        14,
        2,
        0
    ],
    [
        0,
        3,
        0
    ],
    [
        2,
        3,
        0
    ],
    [
        6,
        3,
        0
    ],
    [
        8,
        3,
        0
    ],
    [
        10,
        3,
        0
    ],
    [
        12,
        3,
        0
    ],
    [
        16,
        3,
        0
    ],
    [
        18,
        3,
        0
    ],
    [
        0,
        5,
        0
    ],
    [
        2,
        5,
        0
    ],
    [
        6,
        5,
        0
    ],
    [
        8,
        5,
        0
    ],
    [
        10,
        5,
        0
    ],
    [
        12,
        5,
        0
    ],
    [
        16,
        5,
        0
    ],
    [
        18,
        5,
        0
    ],
    [
        4,
        6,
        0
    ],
    [
        14,
        6,
        0
    ],
    [
        0,
        7,
        0
    ],
    [
        18,
        7,
        0
    ],
    [
        2,
        8,
        0
    ],
    [
        6,
        8,
        0
    ],
    [
        12,
        8,
        0
    ],
    [
        16,
        8,
        0
    ],
    [
        0,
        1,
        1
    ],
    [
        18,
        1,
        1
    ],
    [
        4,
        2,
        1
    ],
    [
        14,
        2,
        1
    ],
    [
        0,
        3,
        1
    ],
    [
        2,
        3,
        1
    ],
    [
        6,
        3,
        1
    ],
    [
        8,
        3,
        1
    ],
    [
        10,
        3,
        1
    ],
    [
        12,
        3,
        1
    ],
    [
        16,
        3,
        1
    ],
    [
        18,
        3,
        1
    ],
    [
        0,
        5,
        1
    ],
    [
        2,
        5,
        1
    ],
    [
        6,
        5,
        1
    ],
    [
        8,
        5,
        1
    ],
    [
        10,
        5,
        1
    ],
    [
        12,
        5,
        1
    ],
    [
        16,
        5,
        1
    ],
    [
        18,
        5,
        1
    ],
    [
        4,
        6,
        1
    ],
    [
        14,
        6,
        1
    ],
    [
        0,
        7,
        1
    ],
    [
        18,
        7,
        1
    ],
    [
        0,
        3,
        2
    ],
    [
        2,
        3,
        2
    ],
    [
        6,
        3,
        2
    ],
    [
        8,
        3,
        2
    ],
    [
        10,
        3,
        2
    ],
    [
        12,
        3,
        2
    ],
    [
        16,
        3,
        2
    ],
    [
        18,
        3,
        2
    ],
    [
        0,
        5,
        2
    ],
    [
        2,
        5,
        2
    ],
    [
        6,
        5,
        2
    ],
    [
        8,
        5,
        2
    ],
    [
        10,
        5,
        2
    ],
    [
        12,
        5,
        2
    ],
    [
        16,
        5,
        2
    ],
    [
        18,
        5,
        2
    ],
    [
        0,
        3,
        3
    ],
    [
        2,
        3,
        3
    ],
    [
        6,
        3,
        3
    ],
    [
        8,
        3,
        3
    ],
    [
        10,
        3,
        3
    ],
    [
        12,
        3,
        3
    ],
    [
        16,
        3,
        3
    ],
    [
        18,
        3,
        3
    ],
    [
        0,
        5,
        3
    ],
    [
        2,
        5,
        3
    ],
    [
        6,
        5,
        3
    ],
    [
        8,
        5,
        3
    ],
    [
        10,
        5,
        3
    ],
    [
        12,
        5,
        3
    ],
    [
        16,
        5,
        3
    ],
    [
        18,
        5,
        3
    ],
    [
        6,
        3,
        4
    ],
    [
        8,
        3,
        4
    ],
    [
        10,
        3,
        4
    ],
    [
        12,
        3,
        4
    ],
    [
        6,
        5,
        4
    ],
    [
        8,
        5,
        4
    ],
    [
        10,
        5,
        4
    ],
    [
        12,
        5,
        4
    ],
    [
        6,
        3,
        5
    ],
    [
        8,
        3,
        5
    ],
    [
        10,
        3,
        5
    ],
    [
        12,
        3,
        5
    ],
    [
        6,
        5,
        5
    ],
    [
        8,
        5,
        5
    ],
    [
        10,
        5,
        5
    ],
    [
        12,
        5,
        5
    ]
]