[
    [
        11,
        1,
        0
    ],
    [
        11,
        3,
        0
    ],
    [
        13,
        2,
        0
    ],
    [
        11,
        5,
        0
    ],
    [
        11,
        7,
        0
    ],
    [
        15,
        3,
        0
    ],
    [
        17,
        2,
        0
    ],
    [
        19,
        1,
        0
    ],
    [
        9,
        12,
        0
    ],
    [
        13,
        8,
        0
    ],
    [
        15,
        7,
        0
    ],
    [
        19,
        3,
        0
    ],
    [
        11,
        13,
        0
    ],
    [
        15,
        9,
        0
    ],
    [
        19,
        5,
        0
    ],
    [
        17,
        8,
        0
    ],
    [
        15,
        11,
        0
    ],
    [
        19,
        7,
        0
    ],
    [
        13,
        14,
        0
    ],
    [
        15,
        13,
        0
    ],
    [
        15,
        15,
        0
    ],
    [
        15,
        17,
        0
    ],
    [
        17,
        16,
        0
    ],
    [
        19,
        15,
        0
    ],
    [
        21,
        14,
        0
    ],
    [
        11,
        1,
        1
    ],
    [
        11,
        3,
        1
    ],
    [
        11,
        5,
        1
    ],
    [
        11,
        7,
        1
    ],
    [
        19,
        1,
        1
    ],
    [
        13,
        8,
        1
    ],
    [
        19,
        3,
        1
    ],
    [
        15,
        9,
        1
    ],
    [
        19,
        5,
        1
    ],
    [
        17,
        8,
        1
    ],
    [
        15,
        11,
        1
    ],
    [
        19,
        7,
        1
    ],
    [
        15,
        13,
        1
    ],
    [
        15,
        15,
        1
    ],
    [
        15,
        17,
        1
    ]
]