[
    [
        9,
        6,
        0
    ],
    [
        11,
        6,
        0
    ],
    [
        12,
        8,
        0
    ],
    [
        8,
        14,
        0
    ],
    [
        12,
        10,
        0
    ],
    [
        14,
        8,
        0
    ],
    [
        12,
        12,
        0
    ],
    [
        16,
        8,
        0
    ],
    [
        19,
        6,
        0
    ],
    [
        12,
        14,
        0
    ],
    [
        18,
        8,
        0
    ],
    [
        21,
        6,
        0
    ],
    [
        18,
        10,
        0
    ],
    [
        18,
        12,
        0
    ],
    [
        18,
        14,
        0
    ],
    [
        22,
        14,
        0
    ],
    [
        9,
        6,
        1
    ],
    [
        11,
        6,
        1
    ],
    [
        11,
        8,
        1
    ],
    [
        13,
        7,
        1
    ],
    [
        11,
        10,
        1
    ],
    [
        8,
        14,
        1
    ],
    [
        15,
        7,
        1
    ],
    [
        11,
        12,
        1
    ],
    [
        17,
        7,
        1
    ],
    [
        11,
        14,
        1
    ],
    [
        19,
        6,
        1
    ],
    [
        19,
        8,
        1
    ],
    [
        21,
        6,
        1
    ],
    [
        19,
        10,
        1
    ],
    [
        19,
        12,
        1
    ],
    [
        19,
        14,
        1
    ],
    [
        22,
        14,
        1
    ],
    [
        9,
        6,
        2
    ],
    [
        11,
        6,
        2
    ],
    [
        10,
        8,
        2
    ],
    [
        13,
        6,
        2
    ],
    [
        10,
        10,
        2
    ],
    [
        15,
        6,
        2
    ],
    [
        8,
        14,
        2
    ],
    [
        10,
        12,
        2
    ],
    [
        17,
        6,
        2
    ],
    [
        10,
        14,
        2
    ],
    [
        19,
        6,
        2
    ],
    [
        21,
        6,
        2
    ],
    [
        20,
        8,
        2
    ],
    [
        20,
        10,
        2
    ],
    [
        20,
        12,
        2
    ],
    [
        20,
        14,
        2
    ],
    [
        22,
        14,
        2
    ],
    [
        9,
        6,
        3
    ],
    [
        11,
        5,
        3
    ],
    [
        9,
        8,
        3
    ],
    [
        13,
        5,
        3
    ],
    [
        9,
        10,
        3
    ],
    [
        15,
        5,
        3
    ],
    [
        9,
        12,
        3
    ],
    [
        8,
        14,
        3
    ],
    [
        17,
        5,
        3
    ],
    [
        19,
        5,
        3
    ],
    [
        21,
        6,
        3
    ],
    [
        21,
        8,
        3
    ],
    [
        21,
        10,
        3
    ],
    [
        21,
        12,
        3
    ],
    [
        22,
        14,
        3
    ],
    [
        8,
        6,
        4
    ],
    [
        10,
        5,
        4
    ],
    [
        8,
        8,
        4
    ],
    [
        12,
        4,
        4
    ],
    [
        8,
        10,
        4
    ],
    [
        14,
        4,
        4
    ],
    [
        8,
        12,
        4
    ],
    [
        16,
        4,
        4
    ],
    [
        8,
        14,
        4
    ],
    [
        18,
        4,
        4
    ],
    [
        20,
        5,
        4
    ],
    [
        22,
        6,
        4
    ],
    [
        22,
        8,
        4
    ],
    [
        22,
        10,
        4
    ],
    [
        22,
        12,
        4
    ],
    [
        22,
        14,
        4
    ],
    [
        9,
        5,
        5
    ],
    [
        11,
        4,
        5
    ],
    [
        13,
        3,
        5
    ],
    [
        15,
        3,
        5
    ],
    [
        17,
        3,
        5
    ],
    [
        19,
        4,
        5
    ],
    [
        21,
        5,
        5
    ]
]