[
    [
        7,
        1,
        0
    ],
    [
        9,
        1,
        0
    ],
    [
        8,
        3,
        0
    ],
    [
        10,
        3,
        0
    ],
    [
        9,
        5,
        0
    ],
    [
        12,
        3,
        0
    ],
    [
        14,
        1,
        0
    ],
    [
        11,
        5,
        0
    ],
    [
        10,
        7,
        0
    ],
    [
        14,
        3,
        0
    ],
    [
        16,
        1,
        0
    ],
    [
        13,
        5,
        0
    ],
    [
        10,
        9,
        0
    ],
    [
        12,
        7,
        0
    ],
    [
        16,
        3,
        0
    ],
    [
        15,
        5,
        0
    ],
    [
        10,
        11,
        0
    ],
    [
        12,
        9,
        0
    ],
    [
        14,
        7,
        0
    ],
    [
        18,
        3,
        0
    ],
    [
        9,
        13,
        0
    ],
    [
        17,
        5,
        0
    ],
    [
        21,
        1,
        0
    ],
    [
        6,
        17,
        0
    ],
    [
        8,
        15,
        0
    ],
    [
        12,
        11,
        0
    ],
    [
        14,
        9,
        0
    ],
    [
        16,
        7,
        0
    ],
    [
        20,
        3,
        0
    ],
    [
        11,
        13,
        0
    ],
    [
        19,
        5,
        0
    ],
    [
        23,
        1,
        0
    ],
    [
        8,
        17,
        0
    ],
    [
        10,
        15,
        0
    ],
    [
        14,
        11,
        0
    ],
    [
        16,
        9,
        0
    ],
    [
        18,
        7,
        0
    ],
    [
        22,
        3,
        0
    ],
    [
        13,
        13,
        0
    ],
    [
        21,
        5,
        0
    ],
    [
        10,
        17,
        0
    ],
    [
        12,
        15,
        0
    ],
    [
        16,
        11,
        0
    ],
    [
        18,
        9,
        0
    ],
    [
        20,
        7,
        0
    ],
    [
        15,
        13,
        0
    ],
    [
        12,
        17,
        0
    ],
    [
        14,
        15,
        0
    ],
    [
        18,
        11,
        0
    ],
    [
        20,
        9,
        0
    ],
    [
        17,
        13,
        0
    ],
    [
        14,
        17,
        0
    ],
    [
        16,
        15,
        0
    ],
    [
        20,
        11,
        0
    ],
    [
        19,
        13,
        0
    ],
    [
        16,
        17,
        0
    ],
    [
        18,
        15,
        0
    ],
    [
        21,
        13,
        0
    ],
    [
        18,
        17,
        0
    ],
    [
        20,
        15,
        0
    ],
    [
        20,
        17,
        0
    ],
    [
        22,
        15,
        0
    ],
    [
        22,
        17,
        0
    ],
    [
        24,
        17,
        0
    ],
    [
        7,
        1,
        1
    ],
    [
        9,
        1,
        1
    ],
    [
        9,
        3,
        1
    ],
    [
        11,
        3,
        1
    ],
    [
        10,
        5,
        1
    ],
    [
        14,
        1,
        1
    ],
    [
        13,
        3,
        1
    ],
    [
        12,
        5,
        1
    ],
    [
        16,
        1,
        1
    ],
    [
        11,
        7,
        1
    ],
    [
        15,
        3,
        1
    ],
    [
        14,
        5,
        1
    ],
    [
        11,
        9,
        1
    ],
    [
        13,
        7,
        1
    ],
    [
        17,
        3,
        1
    ],
    [
        16,
        5,
        1
    ],
    [
        11,
        11,
        1
    ],
    [
        13,
        9,
        1
    ],
    [
        15,
        7,
        1
    ],
    [
        19,
        3,
        1
    ],
    [
        21,
        1,
        1
    ],
    [
        10,
        13,
        1
    ],
    [
        18,
        5,
        1
    ],
    [
        7,
        17,
        1
    ],
    [
        9,
        15,
        1
    ],
    [
        13,
        11,
        1
    ],
    [
        15,
        9,
        1
    ],
    [
        17,
        7,
        1
    ],
    [
        21,
        3,
        1
    ],
    [
        23,
        1,
        1
    ],
    [
        12,
        13,
        1
    ],
    [
        20,
        5,
        1
    ],
    [
        9,
        17,
        1
    ],
    [
        11,
        15,
        1
    ],
    [
        15,
        11,
        1
    ],
    [
        17,
        9,
        1
    ],
    [
        19,
        7,
        1
    ],
    [
        14,
        13,
        1
    ],
    [
        11,
        17,
        1
    ],
    [
        13,
        15,
        1
    ],
    [
        17,
        11,
        1
    ],
    [
        19,
        9,
        1
    ],
    [
        16,
        13,
        1
    ],
    [
        13,
        17,
        1
    ],
    [
        15,
        15,
        1
    ],
    [
        19,
        11,
        1
    ],
    [
        18,
        13,
        1
    ],
    [
        15,
        17,
        1
    ],
    [
        17,
        15,
        1
    ],
    [
        20,
        13,
        1
    ],
    [
        17,
        17,
        1
    ],
    [
        19,
        15,
        1
    ],
    [
        19,
        17,
        1
    ],
    [
        21,
        15,
        1
    ],
    [
        21,
        17,
        1
    ],
    [
        23,
        17,
        1
    ],
    [
        7,
        1,
        2
    ],
    [
        9,
        1,
        2
    ],
    [
        10,
        3,
        2
    ],
    [
        12,
        3,
        2
    ],
    [
        14,
        1,
        2
    ],
    [
        11,
        5,
        2
    ],
    [
        14,
        3,
        2
    ],
    [
        16,
        1,
        2
    ],
    [
        13,
        5,
        2
    ],
    [
        12,
        7,
        2
    ],
    [
        16,
        3,
        2
    ],
    [
        15,
        5,
        2
    ],
    [
        12,
        9,
        2
    ],
    [
        14,
        7,
        2
    ],
    [
        18,
        3,
        2
    ],
    [
        17,
        5,
        2
    ],
    [
        21,
        1,
        2
    ],
    [
        12,
        11,
        2
    ],
    [
        14,
        9,
        2
    ],
    [
        16,
        7,
        2
    ],
    [
        20,
        3,
        2
    ],
    [
        11,
        13,
        2
    ],
    [
        19,
        5,
        2
    ],
    [
        23,
        1,
        2
    ],
    [
        8,
        17,
        2
    ],
    [
        10,
        15,
        2
    ],
    [
        14,
        11,
        2
    ],
    [
        16,
        9,
        2
    ],
    [
        18,
        7,
        2
    ],
    [
        13,
        13,
        2
    ],
    [
        10,
        17,
        2
    ],
    [
        12,
        15,
        2
    ],
    [
        16,
        11,
        2
    ],
    [
        18,
        9,
        2
    ],
    [
        15,
        13,
        2
    ],
    [
        12,
        17,
        2
    ],
    [
        14,
        15,
        2
    ],
    [
        18,
        11,
        2
    ],
    [
        17,
        13,
        2
    ],
    [
        14,
        17,
        2
    ],
    [
        16,
        15,
        2
    ],
    [
        19,
        13,
        2
    ],
    [
        16,
        17,
        2
    ],
    [
        18,
        15,
        2
    ],
    [
        18,
        17,
        2
    ],
    [
        20,
        15,
        2
    ],
    [
        20,
        17,
        2
    ],
    [
        22,
        17,
        2
    ]
]