{  
  "tileWidth":64,
  "tileHeight":100,
  "width":10,
  "height":20,
  "grid":[  
    [  
      0,
      1,
      2,
      3,
      4,
      5,
      6,
      7,
      8,
      9
    ],
    [  
      10,
      11,
      12,
      13,
      14,
      15,
      {  
        "x":0,
        "y":0.8,
        "node":1,
        "map":16
      },
      17,
      18,
      19
    ],
    [  
      20,
      21,
      22,
      23,
      24,
      25,
      26,
      27,
      28,
      29
    ],
    [  
      30,
      31,
      32,
      33,
      34,
      35,
      36,
      {  
        "x":0.2,
        "y":0.6,
        "node":1,
        "map":37
      },
      38,
      39
    ],
    [  
      40,
      41,
      42,
      43,
      44,
      45,
      46,
      47,
      48,
      49
    ],
    [  
      50,
      51,
      52,
      53,
      54,
      55,
      {  
        "x":0,
        "y":0.6,
        "node":1,
        "map":56
      },
      57,
      58,
      59
    ],
    [  
      60,
      61,
      62,
      63,
      {  
        "x":0,
        "y":0.8,
        "node":1,
        "map":64
      },
      65,
      66,
      67,
      68,
      69
    ],
    [  
      70,
      71,
      72,
      73,
      74,
      75,
      76,
      77,
      78,
      79
    ],
    [  
      80,
      81,
      {  
        "x":0.9,
        "y":0.8,
        "node":1,
        "map":82
      },
      83,
      84,
      85,
      86,
      87,
      88,
      89
    ],
    [  
      90,
      91,
      92,
      93,
      94,
      95,
      96,
      97,
      98,
      99
    ],
    [  
      100,
      101,
      102,
      103,
      {  
        "y":0.2,
        "node":1,
        "map":104
      },
      105,
      106,
      107,
      108,
      109
    ],
    [  
      110,
      111,
      112,
      113,
      114,
      115,
      116,
      {  
        "y":0.3,
        "node":1,
        "map":117
      },
      118,
      119
    ],
    [  
      120,
      121,
      122,
      123,
      124,
      125,
      126,
      127,
      128,
      129
    ],
    [  
      130,
      131,
      132,
      133,
      134,
      135,
      136,
      {  
        "x":0.6,
        "y":0.9,
        "node":1,
        "map":137
      },
      138,
      139
    ],
    [  
      140,
      141,
      142,
      143,
      144,
      145,
      146,
      147,
      148,
      149
    ],
    [  
      150,
      151,
      152,
      153,
      154,
      {  
        "x":0.2,
        "y":0.2,
        "node":1,
        "map":155
      },
      156,
      157,
      158,
      159
    ],
    [  
      160,
      161,
      162,
      163,
      164,
      165,
      166,
      167,
      168,
      169
    ],
    [  
      170,
      171,
      172,
      {  
        "x":0.2,
        "y":0.4,
        "node":1,
        "map":173
      },
      174,
      175,
      176,
      177,
      178,
      179
    ],
    [  
      180,
      181,
      182,
      183,
      184,
      185,
      186,
      187,
      188,
      189
    ],
    [  
      190,
      191,
      192,
      193,
      194,
      195,
      196,
      197,
      198,
      199
    ]
  ]
}