{
  "apps" : [
    {
      "name": "mahjong-worker",
      "pid": "/var/run/mahjong/worker.pid",
      "script": "npm",
      "args": "run worker",
      "env": {
        "NODE_ENV": "production",
      },
      "cwd": "/vol/mahjong-quest-server",
      "max_restarts": "10"
    }
  ]
}

